No,Account,"Order Code","Product Code","Product Name","Customer Name",Mobile-Phone,Email,Country,Province,City,Area,"Zip Code",Address,"Order Quantity","Logistic Company","Tracking Code","Shipping Cost",Price,"Coupon Code","Value Coupon",Total,Status,Date
1,SHOPBAY.ID,#SB100032,,"I7 TWS HEADSET BLUETOOTH WIRELESS","Jl.Yos Sudarso No.5",+6282112088895,harvinsumampouw82@gmail.com,IDN,PAPUA,"KABUPATEN MIMIKA","KABUPATEN MIMIKA",99910,"Jl.Yos Sudarso No.5",1,jne,,20000.00,297000.00,,0.00,317000,wait-payment,"11-01-2019 10:54"
2,SHOPBAY.ID,#SB100031,,"I7 TWS HEADSET BLUETOOTH WIRELESS","Nemin. ",081362635477,nemin.aminudin97@gmail.com,IDN,ACEH,"KABUPATEN SIMEULUE","KABUPATEN SIMEULUE",83893,"Labuhan bakti ",1,jne,,20000.00,297000.00,,0.00,317000,wait-payment,"11-01-2019 10:15"
3,SHOPBAY.ID,#SB100030,,"I7 TWS HEADSET BLUETOOTH WIRELESS",Susandi,085247020767,Shandyselow@gmail.com,IDN,"KALIMANTAN BARAT","KOTA PONTIANAK","KOTA PONTIANAK",78235,"Tj,raya 1 kampung dalam belakang mesjid jami",1,jne,,20000.00,297000.00,,0.00,317000,wait-payment,"11-01-2019 03:17"
4,SHOPBAY.ID,#SB100029,,"I7 TWS HEADSET BLUETOOTH WIRELESS","Dede purwanto",087743554323,dedepurwanto77249@gmail.com,IDN,"JAWA BARAT","KABUPATEN BANDUNG","KABUPATEN BANDUNG",40614,"Jl soekarnohatta no 851 cibiru depan stikes bhakti kencana bandung",1,jnt,,20000.00,297000.00,,0.00,317000,wait-payment,"10-01-2019 17:50"
5,SHOPBAY.ID,#SB100028,,"I7 TWS HEADSET BLUETOOTH WIRELESS",niko,081908822122,nikoriansyah@gmail.com,IDN,BANTEN,"KOTA TANGERANG SELATAN","KOTA TANGERANG SELATAN",15417,"Jalan Pamulang Raya",1,jne,-,20000.00,299000.00,FREEONGKIR,20000.00,299000,delivery-process,"10-01-2019 11:35"
6,SHOPBAY.ID,#SB100027,,"I7 TWS HEADSET BLUETOOTH WIRELESS",agus,8119401602,agusdwi89@gmail.com,IDN,"SULAWESI UTARA","KABUPATEN KEPULAUAN SANGIHE","KABUPATEN KEPULAUAN SANGIHE",32432,"poligriya residence",1,jnt,,20000.00,299000.00,,0.00,319000,wait-payment,"09-01-2019 18:53"
7,SHOPBAY.ID,#SB100026,,"I7 TWS HEADSET BLUETOOTH WIRELESS",agus,8119401602,agusdwi89@gmail.com,IDN,"SULAWESI UTARA","KABUPATEN MINAHASA","KABUPATEN MINAHASA",32432,"poligriya residence",1,jnt,,20000.00,299000.00,FREEONGKIR,20000.00,299000,wait-payment,"09-01-2019 18:46"
8,SHOPBAY.ID,#SB100025,,"I7 TWS HEADSET BLUETOOTH WIRELESS",agus,8119401602,agusdwi89@gmail.com,IDN,"SULAWESI UTARA","KABUPATEN MINAHASA","KABUPATEN MINAHASA",32432,"poligriya residence",1,jne,,20000.00,299000.00,,0.00,319000,wait-payment,"09-01-2019 18:45"
9,SHOPBAY.ID,#SB100024,,"I7 TWS HEADSET BLUETOOTH WIRELESS",Testing,089342234,testing@rocketmail.com,IDN,BALI,"KOTA DENPASAR","KOTA DENPASAR",34253,"Jl. Aja",1,jne,,20000.00,299000.00,,0.00,319000,wait-payment,"09-01-2019 12:24"
10,SHOPBAY.ID,#SB100023,,"I7 TWS HEADSET BLUETOOTH WIRELESS",Test,907732232,test@yahoo.com,IDN,"DI YOGYAKARTA","KABUPATEN GUNUNG KIDUL","KABUPATEN GUNUNG KIDUL",25784,"Jl. Jalan",1,jne,,20000.00,299000.00,FREEONGKIR,20000.00,299000,wait-payment,"09-01-2019 12:22"
11,SHOPBAY.ID,#SB100022,,"I7 TWS HEADSET BLUETOOTH WIRELESS",agus,8119401602,agusdwi89@gmail.com,IDN,"SULAWESI UTARA","KABUPATEN KEPULAUAN TALAUD","KABUPATEN KEPULAUAN TALAUD",32432,"poligriya residence",1,jne,,20000.00,299000.00,,0.00,319000,wait-payment,"09-01-2019 10:49"
12,SHOPBAY.ID,#SB100021,,"I7 TWS HEADSET BLUETOOTH WIRELESS","Bintang Suryo",08972332342,bintang.suryo@gmail.com,IDN,BANTEN,"KOTA TANGERANG SELATAN","KOTA TANGERANG SELATAN",15417,"Jalan Kemuning 5, Pamulang Park Residence Blok K24, Pamulang Barat",1,jnt,,20000.00,299000.00,FREEONGKIR,20000.00,299000,wait-payment,"09-01-2019 05:55"
13,SHOPBAY.ID,#SB100020,,"I7 TWS HEADSET BLUETOOTH WIRELESS",Niko,081908822122,nikoriansyah@gmail.com,IDN,"DKI JAKARTA","KOTA JAKARTA SELATAN","KOTA JAKARTA SELATAN",14515,"Jalan pamulanf",1,jnt,CGK717655Xx,20000.00,299000.00,FREEONGKIR,20000.00,299000,delivery-process,"09-01-2019 01:58"
14,SHOPBAY.ID,#SB100019,,"I7 TWS HEADSET BLUETOOTH WIRELESS",Syapri,08126044852,syapri.lawyer@gmail.com,IDN,"SUMATERA UTARA","KABUPATEN DELI SERDANG","KABUPATEN DELI SERDANG",20371,"Jalan Beringin Pasar V No. 16 Tembung, Percut Sei Tua ",1,jnt,,20000.00,299000.00,,0.00,319000,delivery-process,"08-01-2019 16:32"
15,SHOPBAY.ID,#SB100016,,"I7 TWS HEADSET BLUETOOTH WIRELESS",Uji,07765632324,uji.coba@gmail.com,IDN,"DI YOGYAKARTA","KABUPATEN BANTUL","KABUPATEN BANTUL",89764,"Jl Yuk Ke Mall",1,jne,,30000.00,299000.00,,0.00,329000,wait-payment,"07-01-2019 11:43"
16,SHOPBAY.ID,#SB100015,,"I7 TWS HEADSET BLUETOOTH WIRELESS",Test,07896874523,testaja@yahoo.com,IDN,"DKI JAKARTA","KOTA JAKARTA PUSAT","KOTA JAKARTA PUSAT",11470,"Jl. Jilin",1,jne,,30000.00,299000.00,,0.00,329000,wait-payment,"07-01-2019 09:53"
17,SHOPBAY.ID,#SB100014,,"I7 TWS HEADSET BLUETOOTH WIRELESS",Test,09786786432,testing@yahoo.com,IDN,"DKI JAKARTA","KOTA JAKARTA SELATAN","KOTA JAKARTA SELATAN",84753,"Jl. Jalan",1,jne,,30000.00,299000.00,,0.00,329000,wait-payment,"07-01-2019 07:49"
18,SHOPBAY.ID,#SB100013,,,waw,081908822122,nikoriansyah@gmail.com,IDN,"DI YOGYAKARTA","KABUPATEN SLEMAN","KABUPATEN SLEMAN",12212,sasasawa,1,jnt,,20000.00,800000.00,,0.00,820000,wait-payment,"04-01-2019 07:49"
19,SHOPBAY.ID,#SB100012,,,sasa,081908822122,2hkhk@gmail.com,IDN,"DKI JAKARTA","KOTA JAKARTA SELATAN","KOTA JAKARTA SELATAN",11313,sawqwwedsdsdw,1,jne,,30000.00,800000.00,,0.00,830000,wait-payment,"04-01-2019 06:13"
20,SHOPBAY.ID,#SB100011,,,"niko riansyah",081908822122,nikoriansyah@gmail.com,IDN,BANTEN,"KOTA TANGERANG SELATAN","KOTA TANGERANG SELATAN",15417,"pamulang city blok k 24",1,jne,,30000.00,800000.00,,0.00,830000,delivery-process,"04-01-2019 05:53"
21,SHOPBAY.ID,#SB100010,,,sa,sasa,aa@gmail.com,IDN,"JAWA TIMUR","KABUPATEN SIDOARJO","KABUPATEN SIDOARJO",sasa,sasasa,1,jne,,30000.00,800000.00,,0.00,830000,delivery-process,"04-01-2019 05:00"
22,SHOPBAY.ID,#SB100009,,asdasdasd,agus,8119401602,agusdwi89@gmail.com,IDN,"SULAWESI UTARA","KABUPATEN MINAHASA","KABUPATEN MINAHASA",32432,"poligriya residence",1,jne,,30000.00,123213.00,newyear,50000.00,103213,completed,"03-01-2019 23:33"
23,SHOPBAY.ID,#SB100007,,asdasdasd,agus,8119401602,agusdwi89@gmail.com,IDN,"SULAWESI UTARA","KABUPATEN KEPULAUAN SANGIHE","KABUPATEN KEPULAUAN SANGIHE",32432,"poligriya residence",1,jnt,,20000.00,123213.00,,0.00,143213,wait-payment,"02-01-2019 18:38"
24,SHOPBAY.ID,#SB100006,,asdasdasd,agus,8119401602,agusdwi89@gmail.com,IDN,"SULAWESI UTARA","KABUPATEN KEPULAUAN TALAUD","KABUPATEN KEPULAUAN TALAUD",32432,"poligriya residence",1,jnt,,20000.00,123213.00,,0.00,143213,wait-payment,"02-01-2019 18:21"
25,SHOPBAY.ID,#SB100005,,asdasdasd,agus,8119401602,agusdwi89@gmail.com,IDN,"SULAWESI UTARA","KABUPATEN KEPULAUAN SANGIHE","KABUPATEN KEPULAUAN SANGIHE",32432,"poligriya residence",1,jnt,,20000.00,123213.00,,0.00,143213,wait-payment,"02-01-2019 18:18"
26,SHOPBAY.ID,#SB100004,,asdasdasd,agus,8119401602,agusdwi89@gmail.com,IDN,"SULAWESI UTARA","KABUPATEN BOLAANG MONGONDOW","KABUPATEN BOLAANG MONGONDOW",32432,"poligriya residence",1,jnt,,20000.00,123213.00,newyear,50000.00,93213,wait-payment,"02-01-2019 18:17"
27,SHOPBAY.ID,#SB100002,,asdasdasd,agus,8119401602,agusdwi89@gmail.com,IDN,"SULAWESI UTARA","KABUPATEN KEPULAUAN SANGIHE","KABUPATEN KEPULAUAN SANGIHE",32432,"poligriya residence",1,jnt,,20000.00,123213.00,,0.00,143213,wait-payment,"02-01-2019 15:21"
28,SHOPBAY.ID,#SB100001,,asdasdasd,agus,8119401602,agusdwi89@gmail.com,IDN,"SULAWESI UTARA","KABUPATEN MINAHASA","KABUPATEN MINAHASA",32432,"poligriya residence",1,jne,,30000.00,123213.00,newyear,50000.00,103213,wait-payment,"02-01-2019 14:29"
29,SHOPBAY.ID,#SB100003,,asdasdasd,agus,8119401602,agusdwi89@gmail.com,IDN,"SULAWESI UTARA","KABUPATEN MINAHASA","KABUPATEN MINAHASA",32432,"poligriya residence",1,jne,,30000.00,123213.00,newyear,50000.00,103213,wait-payment,"02-01-2019 13:03"
