No,Name,Email,Phone,Province,City
1,mahyanuddin,spulim43@gmail.com,081360362251,ACEH,"KOTA LANGSA"
2,"Vieko Rompas",mocosz.13@gmail.com,082290460133,"SULAWESI UTARA","KOTA BITUNG"
3,"Andi Muhammad Rizal Wawo ",rizal.wawo@icloud.com,085234562627,"SULAWESI SELATAN","KOTA MAKASSAR"
4,"Reza maulana",Rezamaualan@gmail.com,08175910133,"JAWA TIMUR","KOTA MALANG"
5,Harman,pnpm.barat@gmail.com,085398087772,"SULAWESI SELATAN","KABUPATEN BONE"
6,"Deden Sutrisna ",dedenbrennan@gmail.com,081284138811,"DKI JAKARTA","KOTA JAKARTA PUSAT"
7,"Kurniadi Syahputra",Kurniadisyah@gmail.com,085271010121,RIAU,"KOTA PEKANBARU"
8,"Jl.Yos Sudarso No.5",harvinsumampouw82@gmail.com,+6282112088895,PAPUA,"KABUPATEN MIMIKA"
9,"Nemin. ",nemin.aminudin97@gmail.com,081362635477,ACEH,"KABUPATEN SIMEULUE"
10,Susandi,Shandyselow@gmail.com,085247020767,"KALIMANTAN BARAT","KOTA PONTIANAK"
11,"Dede purwanto",dedepurwanto77249@gmail.com,087743554323,"JAWA BARAT","KABUPATEN BANDUNG"
12,niko,nikoriansyah@gmail.com,081908822122,BANTEN,"KOTA TANGERANG SELATAN"
13,agus,agusdwi89@gmail.com,8119401602,"SULAWESI UTARA","KABUPATEN KEPULAUAN SANGIHE"
14,Testing,testing@rocketmail.com,089342234,BALI,"KOTA DENPASAR"
15,Test,test@yahoo.com,907732232,"DI YOGYAKARTA","KABUPATEN GUNUNG KIDUL"
16,"Bintang Suryo",bintang.suryo@gmail.com,08972332342,BANTEN,"KOTA TANGERANG SELATAN"
17,Syapri,syapri.lawyer@gmail.com,08126044852,"SUMATERA UTARA","KABUPATEN DELI SERDANG"
18,Uji,uji.coba@gmail.com,07765632324,"DI YOGYAKARTA","KABUPATEN BANTUL"
19,Test,testaja@yahoo.com,07896874523,"DKI JAKARTA","KOTA JAKARTA PUSAT"
20,Test,testing@yahoo.com,09786786432,"DKI JAKARTA","KOTA JAKARTA SELATAN"
21,sasa,2hkhk@gmail.com,081908822122,"DKI JAKARTA","KOTA JAKARTA SELATAN"
22,sa,aa@gmail.com,sasa,"JAWA TIMUR","KABUPATEN SIDOARJO"
