No,Account,"Order Code","Product Code","Product Name","Customer Name",Mobile-Phone,Email,Country,Province,City,Area,"Zip Code",Address,"Order Quantity","Logistic Company","Tracking Code","Shipping Cost",Price,"Coupon Code","Value Coupon","Payment Method",Total,Status,Date
1,SHOPBAY.ID,#SB100058,,"I7 TWS HEADSET BLUETOOTH WIRELESS",suparto,0895335996550,pirtikpanhoten@gmail.com,IDN,"SUMATERA UTARA","KOTA MEDAN","Kec. MEDAN TEMBUNG",20224,"jln pukat 1 komplek junction 43a",1,jne,,27000.00,297000.00,,0.00,cod,324000,wait-payment,"16-01-2019 22:27"
2,SHOPBAY.ID,#SB100057,,"I7 TWS HEADSET BLUETOOTH WIRELESS",budi,085251466666,imoet.budi@gmail.com,IDN,"KALIMANTAN TIMUR","KABUPATEN PASER","Kec. TANAH GROGOT",76211,"jl.DI.Panjaitan gang batu alam RT02 RW03 Desa Tapis ",1,jnt,,30000.00,297000.00,,0.00,cod,327000,wait-payment,"16-01-2019 20:36"
3,SHOPBAY.ID,#SB100056,,"I7 TWS HEADSET BLUETOOTH WIRELESS","Daniel octovan",081241218299,Multimediaku266@yahoo.co.id,IDN,PAPUA,"KOTA JAYAPURA","Kec. ABEPURA",90001,"Jln proyek masa indah dpn lapangan bola abhokhow waena distrik heram kel yabansai waena jayapura papua",1,jnt,,30000.00,297000.00,,0.00,cod,327000,wait-payment,"16-01-2019 16:04"
4,SHOPBAY.ID,#SB100055,,"I7 TWS HEADSET BLUETOOTH WIRELESS",Sofyan,0811526532,Kausarpalangkaraya@yahoo.com,IDN,"KALIMANTAN TENGAH","KOTA PALANGKA RAYA","Kec. PAHANDUT",73111,"Jalan darmosugondo 52 palangkaraya",1,jnt,,30000.00,297000.00,,0.00,cod,624000,wait-payment,"16-01-2019 11:43"
5,SHOPBAY.ID,#SB100054,,"I7 TWS HEADSET BLUETOOTH WIRELESS",Putraleo,081395340685,Putraleozendt@gmail.com,IDN,"SUMATERA UTARA","KOTA MEDAN","Kec. MEDAN POLONIA",20152,"Jl. Muara takus samping kantor pos medan polonia",1,jne,,27000.00,297000.00,,0.00,cod,324000,wait-payment,"16-01-2019 10:10"
6,SHOPBAY.ID,#SB100053,,"I7 TWS HEADSET BLUETOOTH WIRELESS","Daeng Iqbal",085345241456,Samsung.sst6776@gmail.com,IDN,"KALIMANTAN BARAT","KABUPATEN KUBU RAYA","Kec. TELUK PAKEDAI",78383,"Jln pematang mas desa selat remis Rt03/03 no30 kec teluk pakedai",1,jne,,49000.00,297000.00,,0.00,cod,346000,wait-payment,"15-01-2019 23:55"
7,SHOPBAY.ID,#SB100052,,"I7 TWS HEADSET BLUETOOTH WIRELESS","andul mutakhir",081342927602,airah277@gmail.com,IDN,"SULAWESI TENGGARA","KOTA KENDARI","Kec. MANDONGA",93111,"jln. malik raya by pass wisma putri dara samping graha pena kendari pos",1,jne,,45000.00,297000.00,,0.00,cod,342000,wait-payment,"15-01-2019 17:57"
8,SHOPBAY.ID,#SB100051,,"I7 TWS HEADSET BLUETOOTH WIRELESS","Olprine Pangalasen ",081244969032,mateipangalasen@gmail.com,IDN,"SULAWESI UTARA","KABUPATEN KEPULAUAN TALAUD","Kec. KABARUAN",95872,"Dusun II desa Pangeran Kec. Kabaruan",1,jne,,69000.00,297000.00,,0.00,cod,366000,wait-payment,"15-01-2019 16:32"
9,SHOPBAY.ID,#SB100050,,"I7 TWS HEADSET BLUETOOTH WIRELESS","Ahmad subhan",08989885521,achmadsubhan272@gmail.com,IDN,"JAWA TENGAH","KABUPATEN PEMALANG","Kec. RANDUDONGKAL",52353,"Ds. Semingkir Rt 01/02",1,jne,,23000.00,297000.00,,0.00,cod,320000,wait-payment,"15-01-2019 07:51"
10,SHOPBAY.ID,#SB100049,,"I7 TWS HEADSET BLUETOOTH WIRELESS","Ipung maulana",085349703277,kentopunk88@gmail.com,IDN,"KALIMANTAN TIMUR","KABUPATEN BERAU","Kec.  TANJUNG REDEB",773111,"Karang Ambon,GG swadayya",1,jne,,56000.00,297000.00,,0.00,transfer,353000,wait-payment,"15-01-2019 07:10"
11,SHOPBAY.ID,#SB100048,,"I7 TWS HEADSET BLUETOOTH WIRELESS","Amri Gustian",085211498011,eralsaputra12@gmail.com,IDN,RIAU,"KABUPATEN INDRAGIRI HULU","Kec. RENGAT BARAT",29351,"JL.lintas timur pematang rebah/gang KEMUNING pematang rebah",1,jnt,,30000.00,297000.00,,0.00,cod,327000,wait-payment,"14-01-2019 22:50"
12,SHOPBAY.ID,#SB100047,,"I7 TWS HEADSET BLUETOOTH WIRELESS","Alfons Laia",082273611493,alfonslaia900@gmail.com,IDN,"SUMATERA UTARA","KABUPATEN NIAS","Kec. GUNUNG SITOLI",22815,"Paroki St. Maria BPB, Jln Karet no. 33a",1,jnt,,30000.00,297000.00,,0.00,cod,327000,wait-payment,"14-01-2019 20:33"
13,SHOPBAY.ID,#SB100046,,"I7 TWS HEADSET BLUETOOTH WIRELESS",Rosdiana,085224436464,dian.azkaghaniabqari@yahoo.co.id,IDN,"JAWA BARAT","KABUPATEN TASIKMALAYA","Kec. SINGAPARNA",46414,"Kantor Kecamatn Singaparna jl. Bojongkoneng Singaparna Tasikmalaya",1,jne,,15000.00,297000.00,,0.00,cod,312000,wait-payment,"14-01-2019 12:20"
14,SHOPBAY.ID,#SB100045,,"I7 TWS HEADSET BLUETOOTH WIRELESS",Yonga,085216796363,Yongadunhill@gmail.com,IDN,"DKI JAKARTA","KOTA JAKARTA UTARA","Kec. PENJARINGAN",14450,"Jln c no 73a",1,jne,,8000.00,297000.00,,0.00,transfer,305000,wait-payment,"14-01-2019 09:06"
15,SHOPBAY.ID,#SB100039,,"I7 TWS HEADSET BLUETOOTH WIRELESS",mahyanuddin,081360362251,spulim43@gmail.com,IDN,ACEH,"KOTA LANGSA","Kec. ",24415,"jln perumnas desa birem puntong (kantor kpu kota langsa)",1,jne,,20000.00,297000.00,,0.00,cod,317000,wait-payment,"13-01-2019 17:59"
16,SHOPBAY.ID,#SB100038,,"I7 TWS HEADSET BLUETOOTH WIRELESS","Vieko Rompas",082290460133,mocosz.13@gmail.com,IDN,"SULAWESI UTARA","KOTA BITUNG","Kec. ",95514,"PT.Indofoot sukses makmur TBK cabang bitung",1,jne,,20000.00,297000.00,,0.00,transfer,317000,wait-payment,"13-01-2019 16:29"
17,SHOPBAY.ID,#SB100037,,"I7 TWS HEADSET BLUETOOTH WIRELESS","Andi Muhammad Rizal Wawo ",085234562627,rizal.wawo@icloud.com,IDN,"SULAWESI SELATAN","KOTA MAKASSAR","Kec. ",90231,"Jl. Pengayoman kompleks Bougenville blok. C No.1",1,jne,,20000.00,297000.00,,0.00,cod,317000,wait-payment,"13-01-2019 13:32"
18,SHOPBAY.ID,#SB100036,,"I7 TWS HEADSET BLUETOOTH WIRELESS","Reza maulana",08175910133,Rezamaualan@gmail.com,IDN,"JAWA TIMUR","KOTA MALANG","Kec. ",65139,"Jl.sawunggaling no 77",1,jne,,20000.00,297000.00,,0.00,cod,317000,wait-payment,"12-01-2019 22:42"
19,SHOPBAY.ID,#SB100035,,"I7 TWS HEADSET BLUETOOTH WIRELESS",Harman,085398087772,pnpm.barat@gmail.com,IDN,"SULAWESI SELATAN","KABUPATEN BONE","Kec. ",92700,"Jalan lapawawoi karaeng sigeri lorong persatuan samping mesjid supukalau",1,jne,,20000.00,297000.00,,0.00,cod,317000,wait-payment,"12-01-2019 03:08"
20,SHOPBAY.ID,#SB100034,,"I7 TWS HEADSET BLUETOOTH WIRELESS","Deden Sutrisna ",081284138811,dedenbrennan@gmail.com,IDN,"DKI JAKARTA","KOTA JAKARTA PUSAT","Kec. ",10240,"Appartement Citylofts Citywalk unit.2822 Sudirman Jakarta Pusat",1,jne,,20000.00,297000.00,,0.00,cod,317000,wait-payment,"11-01-2019 22:19"
21,SHOPBAY.ID,#SB100033,,"I7 TWS HEADSET BLUETOOTH WIRELESS","Kurniadi Syahputra",085271010121,Kurniadisyah@gmail.com,IDN,RIAU,"KOTA PEKANBARU","Kec. ",28125,"Jl.Air Dingin Perumahan D'Anugrah Block E7",1,jne,,20000.00,297000.00,,0.00,cod,317000,wait-payment,"11-01-2019 20:50"
22,SHOPBAY.ID,#SB100032,,"I7 TWS HEADSET BLUETOOTH WIRELESS","Jl.Yos Sudarso No.5",+6282112088895,harvinsumampouw82@gmail.com,IDN,PAPUA,"KABUPATEN MIMIKA","Kec. ",99910,"Jl.Yos Sudarso No.5",1,jne,,20000.00,297000.00,,0.00,cod,317000,wait-payment,"11-01-2019 16:54"
23,SHOPBAY.ID,#SB100031,,"I7 TWS HEADSET BLUETOOTH WIRELESS","Nemin. ",081362635477,nemin.aminudin97@gmail.com,IDN,ACEH,"KABUPATEN SIMEULUE","Kec. ",83893,"Labuhan bakti ",1,jne,,20000.00,297000.00,,0.00,cod,317000,wait-payment,"11-01-2019 16:15"
24,SHOPBAY.ID,#SB100030,,"I7 TWS HEADSET BLUETOOTH WIRELESS",Susandi,085247020767,Shandyselow@gmail.com,IDN,"KALIMANTAN BARAT","KOTA PONTIANAK","Kec. ",78235,"Tj,raya 1 kampung dalam belakang mesjid jami",1,jne,,20000.00,297000.00,,0.00,cod,317000,wait-payment,"11-01-2019 09:17"
25,SHOPBAY.ID,#SB100029,,"I7 TWS HEADSET BLUETOOTH WIRELESS","Dede purwanto",087743554323,dedepurwanto77249@gmail.com,IDN,"JAWA BARAT","KABUPATEN BANDUNG","Kec. ",40614,"Jl soekarnohatta no 851 cibiru depan stikes bhakti kencana bandung",1,jnt,,20000.00,297000.00,,0.00,cod,317000,wait-payment,"10-01-2019 23:50"
26,SHOPBAY.ID,#SB100021,,"I7 TWS HEADSET BLUETOOTH WIRELESS","Bintang Suryo",08972332342,bintang.suryo@gmail.com,IDN,BANTEN,"KOTA TANGERANG SELATAN","Kec. ",15417,"Jalan Kemuning 5, Pamulang Park Residence Blok K24, Pamulang Barat",1,jnt,,20000.00,299000.00,FREEONGKIR,20000.00,transfer,299000,wait-payment,"09-01-2019 11:55"
27,SHOPBAY.ID,#SB100019,,"I7 TWS HEADSET BLUETOOTH WIRELESS",Syapri,08126044852,syapri.lawyer@gmail.com,IDN,"SUMATERA UTARA","KABUPATEN DELI SERDANG","Kec. ",20371,"Jalan Beringin Pasar V No. 16 Tembung, Percut Sei Tua ",1,jnt,,20000.00,299000.00,,0.00,cod,319000,delivery-process,"08-01-2019 22:32"
