No,Subdomain,ID,"Order Code",Email,Date,Status
1,bag,241,#SB100241,agusdwi89@gmail.com,"18-02-2019 07:22",wait-payment
2,bag,240,#SB100240,Fluflud@gmail.com,"17-02-2019 20:55",wait-payment
3,bag,239,#SB100239,agusdwi89@gmail.com,"17-02-2019 19:35",wait-payment
4,bag,238,#SB100238,agusdwi89@gmail.com,"17-02-2019 19:15",wait-payment
5,bag,237,#SB100237,canoopix@gmail.com,"17-02-2019 19:14",wait-payment
6,www,235,#SB100235,agusdwi89@gmail.com,"13-02-2019 09:22",wait-payment
7,www,234,#SB100234,Djdjdjdjdj@jdjdjd.com,"13-02-2019 08:15",wait-payment
8,www,233,#SB100233,Agus@gmail.com,"12-02-2019 23:46",wait-payment
9,www,232,#SB100232,agusdwi89@gmail.com,"12-02-2019 23:37",wait-payment
10,www,231,#SB100231,agusdwi89@gmail.com,"12-02-2019 23:28",wait-payment
11,www,230,#SB100230,agusdwi89@gmail.com,"12-02-2019 23:27",wait-payment
12,www,229,#SB100229,dzahindigital@gmail.com,"12-02-2019 23:01",payment-success
13,www,228,#SB100228,agusdwi89@gmail.com,"12-02-2019 22:59",payment-success
14,www,227,#SB100227,dzahindigital@gmail.com,"12-02-2019 22:55",wait-payment
15,www,226,#SB100226,agusdwi89@gmail.com,"12-02-2019 22:36",wait-payment
16,www,225,#SB100225,agusdwi89@gmail.com,"12-02-2019 22:26",payment-success
17,www,224,#SB100224,agusdwi89@gmail.com,"12-02-2019 22:22",payment-success
18,www,223,#SB100223,agusdwi89@gmail.com,"12-02-2019 22:16",payment-success
19,www,222,#SB100222,agusdwi89@gmail.com,"12-02-2019 21:54",wait-payment
20,www,221,#SB100221,agusdwi89@gmail.com,"12-02-2019 21:39",wait-payment
21,www,220,#SB100220,Kimkimgracella@gmail.com,"11-02-2019 11:10",wait-payment
22,www,219,#SB100219,Setiamanbate03@gmail.com,"11-02-2019 10:51",wait-payment
23,www,218,#SB100218,Boneng@gmail.com,"11-02-2019 08:11",wait-payment
24,www,217,#SB100217,Saicandra92@gmail.com,"11-02-2019 00:51",wait-payment
25,www,216,#SB100216,Zainurrahman392@gmail.com,"10-02-2019 22:45",wait-payment
26,www,215,#SB100215,Tardhichung@gmail.com,"10-02-2019 18:20",wait-payment
27,www,214,#SB100214,pagaryasa@gmail.com,"10-02-2019 17:55",wait-payment
28,www,213,#SB100213,inggridyuliani17@gmail.com,"10-02-2019 04:45",wait-payment
29,www,212,#SB100212,putraindrahugen@gmail.com,"10-02-2019 04:42",wait-payment
30,www,211,#SB100211,brantakan171@gmail.com,"10-02-2019 02:03",wait-payment
31,www,210,#SB100210,aswandana163@gmail.com,"10-02-2019 01:08",wait-payment
32,www,209,#SB100209,Sonnymc19@gmail.com,"09-02-2019 23:42",wait-payment
33,www,208,#SB100208,Nisrinafadilaa@gmail.com,"09-02-2019 21:41",wait-payment
34,www,207,#SB100207,Christian.wijaya@lautan-luas.com,"09-02-2019 20:10",wait-payment
35,www,206,#SB100206,Jack.dnata@gmail.com,"09-02-2019 19:55",payment-success
36,www,205,#SB100205,agusfarangga8699@gmail.com,"09-02-2019 19:36",wait-payment
37,www,204,#SB100204,Yokiiabdulaziz58@gmail.com,"09-02-2019 18:10",wait-payment
38,www,203,#SB100203,Sirajuddins910@gmail.com,"09-02-2019 15:53",wait-payment
39,www,202,#SB100202,lielawardhy@gmail.com,"09-02-2019 14:20",wait-payment
40,www,201,#SB100201,Agustinushendiandre@gmail.com,"09-02-2019 11:26",wait-payment
41,www,200,#SB100200,tanzilandrians11@gmail.com,"09-02-2019 10:39",wait-payment
42,www,199,#SB100199,Firdariana72@gmail.com,"09-02-2019 05:43",wait-payment
43,www,198,#SB100198,fauzanhakim.fh77@gmail.com,"09-02-2019 00:16",wait-payment
44,www,197,#SB100197,mustanzierarya@gmail.com,"08-02-2019 15:06",wait-payment
45,www,196,#SB100196,luqmanelhakiem1924@gmail.com,"08-02-2019 11:08",wait-payment
46,www,195,#SB100195,Falahy7696@gmail.com,"08-02-2019 11:03",wait-payment
47,www,194,#SB100194,achmad.syaefudin27@gmail.com,"08-02-2019 10:20",wait-payment
48,www,193,#SB100193,dadipahlevy@yahoo.com,"08-02-2019 08:28",payment-success
49,www,192,#SB100192,Ezzajhie@gmail.com,"08-02-2019 06:57",wait-payment
50,www,191,#SB100191,Debimelon338@gmail.com,"08-02-2019 03:39",wait-payment
51,www,190,#SB100190,Suryabaskara88@gmail.com,"08-02-2019 01:59",wait-payment
52,www,189,#SB100189,Ahmadjaka1113@gmail.com,"08-02-2019 01:39",wait-payment
53,www,188,#SB100188,WayanGalang65@Gmail.com,"07-02-2019 18:17",wait-payment
54,www,187,#SB100187,rohmatkholis.01@gmaal.com,"07-02-2019 17:38",wait-payment
55,www,186,#SB100186,ray.nizar26@gmail.com,"07-02-2019 16:35",wait-payment
56,www,185,#SB100185,Feryagam21@gmail.com,"07-02-2019 15:09",wait-payment
57,www,184,#SB100184,msoleh272@gmail.com,"07-02-2019 14:04",wait-payment
58,www,183,#SB100183,Sorayamanurung2@gmail.com,"07-02-2019 08:42",wait-payment
59,www,182,#SB100182,guna_kusnandar@yahoo.co.id,"07-02-2019 07:22",payment-success
60,www,181,#SB100181,mirwan88@ymail.com,"07-02-2019 02:09",wait-payment
61,www,180,#SB100180,denilsonsapari09@gmail.com,"06-02-2019 22:11",wait-payment
62,www,179,#SB100179,rzulfifa@gmail.com,"06-02-2019 19:14",wait-payment
63,www,178,#SB100178,sdsd@gmail.com,"06-02-2019 17:15",wait-payment
64,www,177,#SB100177,muhamadrenald@gmail.com,"06-02-2019 16:42",wait-payment
65,www,176,#SB100176,Dawoherliana@yahoo.com,"06-02-2019 11:20",wait-payment
66,www,175,#SB100175,amrizal.rengganis15@gmail.com,"06-02-2019 01:53",wait-payment
67,www,174,#SB100174,andisubair88@gmail.com,"05-02-2019 20:49",wait-payment
68,www,173,#SB100173,dhex.mountain@gmail.com,"05-02-2019 19:07",wait-payment
69,www,172,#SB100172,Herrygama15@gmail.com,"05-02-2019 18:35",wait-payment
70,www,171,#SB100171,Chandravhica1626@gmail.com,"05-02-2019 18:25",wait-payment
71,www,170,#SB100170,ariffuddin79139@gmail.com,"05-02-2019 16:32",wait-payment
72,www,169,#SB100169,achmadrijalkholilurr@gmail.com,"05-02-2019 14:45",wait-payment
73,www,168,#SB100168,defretes.andre@gmail.com,"05-02-2019 14:44",wait-payment
74,www,167,#SB100167,delahutabarat124@yahoo.com,"05-02-2019 09:46",wait-payment
75,www,166,#SB100166,Ardi_yantosi@yahoo.co.id,"05-02-2019 08:20",wait-payment
76,www,165,#SB100165,sumarditanjung@yahoo.co.id,"05-02-2019 08:07",wait-payment
77,www,164,#SB100164,rizkyaulia1919@gmail.com,"04-02-2019 18:48",wait-payment
78,www,163,#SB100163,bigsolon0808@gmail.com,"04-02-2019 17:46",wait-payment
79,www,162,#SB100162,nguraharya582@gmail.com,"04-02-2019 14:42",wait-payment
80,www,161,#SB100161,chandrapanto86@gmail.com,"04-02-2019 10:20",wait-payment
81,www,160,#SB100160,Bayhoki@gmail.com,"04-02-2019 02:23",wait-payment
82,www,159,#SB100159,cwijaya233@gmail.com,"04-02-2019 00:14",wait-payment
83,www,158,#SB100158,abangmirza71@gmail.com,"03-02-2019 21:46",wait-payment
84,www,157,#SB100157,sudirmanrsn@gmail.com,"03-02-2019 16:48",wait-payment
85,www,156,#SB100156,sudirmanrsn@gmail.com,"03-02-2019 13:39",wait-payment
86,www,155,#SB100155,herwinhou@gmail.com,"03-02-2019 13:17",wait-payment
87,www,154,#SB100154,djulkifli.djulkifli01@gmail.com,"03-02-2019 12:54",wait-payment
88,www,153,#SB100153,Haryonosapii1304@gmail.com,"03-02-2019 07:29",wait-payment
89,www,152,#SB100152,Nugrahaspddendy@gmail.com,"02-02-2019 21:19",wait-payment
90,www,151,#SB100151,udinheang.hino@gmail.com,"02-02-2019 19:01",wait-payment
91,www,150,#SB100150,ivo.viga.iv@gmail.com,"02-02-2019 18:37",wait-payment
92,www,149,#SB100149,puturoly@gmail.com,"02-02-2019 13:19",wait-payment
93,www,148,#SB100148,ahmadzoulkifli023@gmail.com,"02-02-2019 02:12",wait-payment
94,www,147,#SB100147,akmalkurniawan095@gmail.com,"02-02-2019 01:00",wait-payment
95,www,146,#SB100146,Hasbitkj7@gmail.com,"01-02-2019 21:58",wait-payment
96,www,145,#SB100145,christian.sampaleng060995@gmail.com,"01-02-2019 21:04",wait-payment
97,www,144,#SB100144,Normannikodemus77@gmail.com,"01-02-2019 19:14",wait-payment
98,www,143,#SB100143,Daniumar415@gmail.com,"01-02-2019 17:55",wait-payment
99,www,142,#SB100142,Adityaputraa.a@gmail.com,"01-02-2019 13:36",wait-payment
100,www,141,#SB100141,Miamardison3@gmail.com,"01-02-2019 11:30",wait-payment
101,www,140,#SB100140,muh.subri96@gmail.com,"01-02-2019 02:36",wait-payment
