No,Account,"Order Code","Product Code","Product Name","Customer Name",Mobile-Phone,Email,Country,Province,City,Area,"Zip Code",Address,"Order Quantity","Logistic Company","Tracking Code","Shipping Cost",Price,"Coupon Code","Value Coupon","Payment Method",Total,Status,Date
1,SHOPBAY.ID,#SB100286,,"I7 TWS HEADSET BLUETOOTH WIRELESS",Augestya,081246537637,Komangojes31@gmail.com,IDN,BALI,"KABUPATEN BADUNG","Kec. JIMBARAN",08361,"Jln kumara sari no 20 jimbaran",1,jne,,20000.00,297000.00,,0.00,cod,317000,wait-payment,"28-02-2019 11:17"
2,SHOPBAY.ID,#SB100285,,"I7 TWS HEADSET BLUETOOTH WIRELESS","Ade veronica ",085377342331,veronicaade446@gmail.com,IDN,BENGKULU,"KABUPATEN BENGKULU TENGAH","Kec. PONDOK KELAPA",38371,"Pasar pedati rt. 28 no 08",1,jne,,20000.00,297000.00,,0.00,cod,317000,wait-payment,"28-02-2019 10:34"
3,SHOPBAY.ID,#SB100284,,"I7 TWS HEADSET BLUETOOTH WIRELESS","Oos kurnedi",082172662929,Ooskgp_duri@yahoo.co.id,IDN,RIAU,"KABUPATEN BENGKALIS","Kec. MANDAU",28785,"Jl.jawa no.52 depan gg.rukun",1,jne,,20000.00,297000.00,,0.00,cod,317000,wait-payment,"27-02-2019 20:31"
4,SHOPBAY.ID,#SB100283,,"I7 TWS HEADSET BLUETOOTH WIRELESS","Salsabilla Az Zahra",087824944882,salsabillaaz@gmail.com,IDN,"JAWA BARAT","KOTA BANDUNG","Kec. SUKASARI",40154,"Jln. Geger kalong girang GG. Cempaka no 158 RT 02 RW 06",1,jne,,20000.00,297000.00,,0.00,cod,317000,wait-payment,"27-02-2019 19:02"
5,SHOPBAY.ID,#SB100282,,"I7 TWS HEADSET BLUETOOTH WIRELESS","Robinson Girsang",081903053594,ramongirsang@gmail.com,IDN,"SUMATERA UTARA","KABUPATEN DELI SERDANG","Kec. PERCUT SEI TUAN",20226,"Jl. Pipit 7  No.33  Perumnas Mandala",1,jne,,20000.00,297000.00,,0.00,cod,317000,wait-payment,"27-02-2019 15:01"
6,SHOPBAY.ID,#SB100281,,"I7 TWS HEADSET BLUETOOTH WIRELESS","Andi Thamrin",081211154514,yangmanis0405@gmail.com,IDN,"DKI JAKARTA","KOTA JAKARTA UTARA","Kec. CILINCING",14120,"Jl kali bang lio no 40 rt/rw 012/003 ",1,jne,,20000.00,297000.00,,0.00,cod,317000,wait-payment,"27-02-2019 14:25"
7,SHOPBAY.ID,#SB100280,,"I7 TWS HEADSET BLUETOOTH WIRELESS",Leonardodiarpratama,081273381307,Diarleo15@gmail.com,IDN,JAMBI,"KOTA JAMBI","Kec. JAMBI TIMUR",36143,"Jl. Pangliam polim kel. Rajwali kec. Jambi timur",1,jne,,20000.00,297000.00,,0.00,transfer,317000,wait-payment,"27-02-2019 13:38"
8,SHOPBAY.ID,#SB100279,,"I7 TWS HEADSET BLUETOOTH WIRELESS","Djenli damanik",085212292785,Damanikdjenli@gmail.com,IDN,"DKI JAKARTA","KOTA JAKARTA SELATAN","Kec. CILANDAK",12450," Jln Cemara IV no 3  Kompleks Angkatan Laut Pondok Indah Kota Depok Cirene Jawa Barat 12450",1,jne,,20000.00,297000.00,FREEONGKIR,20000.00,transfer,297000,wait-payment,"27-02-2019 11:25"
9,SHOPBAY.ID,#SB100278,,"I7 TWS HEADSET BLUETOOTH WIRELESS","Djenli damanik",085212292785,Damanikdjenli@gmail.com,IDN,"DKI JAKARTA","KOTA JAKARTA SELATAN","Kec. CILANDAK",12450,"Jln Cemara IV no 3  Kompleks Angkatan Laut Pondok Indah Kota Depok Cirene Jawa Barat 12450",1,jne,,20000.00,297000.00,,0.00,transfer,317000,wait-payment,"27-02-2019 11:16"
10,SHOPBAY.ID,#SB100277,,"I7 TWS HEADSET BLUETOOTH WIRELESS","Aris murdono",0817290406,mackenly@ymail.com,IDN,"NUSA TENGGARA BARAT","KOTA MATARAM","Kec. AMPENAN",83118,"BNI Kebon Roek,  jl.  Adi Sucipto no.  15-16,  Ampenan,  mataram",1,jne,,20000.00,297000.00,,0.00,cod,317000,wait-payment,"27-02-2019 10:11"
11,SHOPBAY.ID,#SB100276,,"I7 TWS HEADSET BLUETOOTH WIRELESS","salsabilla ",087824944882,salsabillaaz@gmail.com,IDN,"JAWA BARAT","KOTA BANDUNG","Kec. SUKASARI",40154,"Jln. Geger kalong girang GG. Cempaka no 158 RT 02 RW 06 Kel. ISOLA.Kost Dewi Asri Kostel. kamar no 2.2",1,jne,,20000.00,297000.00,,0.00,transfer,317000,wait-payment,"27-02-2019 07:24"
12,SHOPBAY.ID,#SB100275,,"I7 TWS HEADSET BLUETOOTH WIRELESS",Novaldho,081267086963,Kalilawa007@gmail.com,IDN,PAPUA,"KABUPATEN BIAK NUMFOR","Kec. BIAK  KOTA",98112,"Jln. Singamangaraja, depan mes AL   rm. Sari kapau ",1,jne,,20000.00,297000.00,,0.00,cod,317000,wait-payment,"27-02-2019 02:38"
13,SHOPBAY.ID,#SB100274,,"I7 TWS HEADSET BLUETOOTH WIRELESS","jalan kecubung gang soka no 7 denpasar timur Bali",087854603265,melatisnaaa@gmail.com,IDN,BALI,"KOTA DENPASAR","Kec. DENPASAR  TIMUR",80236,"jalan kecubung gang soka no 7 denpasar timur Bali",1,jnt,,20000.00,297000.00,FREEONGKIR,20000.00,cod,297000,wait-payment,"26-02-2019 23:40"
14,SHOPBAY.ID,#SB100273,,"I7 TWS HEADSET BLUETOOTH WIRELESS","Qori Al Fajra Indah",082256660822,cintadolly@yahoo.com,IDN,"KALIMANTAN BARAT","KOTA PONTIANAK","Kec. PONTIANAK BARAT",78113,"Jl.kom yos sudarso , gg.semangka 1 no.13 ( alyka laundry )",1,jne,0114671900000168,20000.00,297000.00,,0.00,transfer,317000,delivery-process,"26-02-2019 20:47"
15,SHOPBAY.ID,#SB100272,,"I7 TWS HEADSET BLUETOOTH WIRELESS","Zulkifli a.n pia","082393929699 ",Qflywita23@gmail.com,IDN,"SULAWESI UTARA","KOTA MANADO","Kec. BUNAKEN",95231,"Bailang lingkungan",1,jne,,20000.00,297000.00,,0.00,cod,317000,wait-payment,"26-02-2019 20:44"
16,SHOPBAY.ID,#SB100271,,"I7 TWS HEADSET BLUETOOTH WIRELESS","Angel elaine",081281060512,angelelaineshine.leo@gmail.com,IDN,"DKI JAKARTA","KOTA JAKARTA BARAT","Kec. GROGOL PETAMBURAN",11320,"Apartment seasons city tower A lantai 32 BN",1,jne,0114671900000168,20000.00,297000.00,FREEoNGKIR,20000.00,transfer,297000,delivery-process,"26-02-2019 20:42"
17,SHOPBAY.ID,#SB100270,,"I7 TWS HEADSET BLUETOOTH WIRELESS","Salma Yasyifa",081222324501,syasyifa1708@gmail.com,IDN,"JAWA BARAT","KOTA BANDUNG","Kec. LENGKONG",40265,"Jl. Suryalaya XVII no 15, RT 10 RW 04",1,jne,,20000.00,297000.00,,0.00,transfer,317000,wait-payment,"26-02-2019 20:03"
18,SHOPBAY.ID,#SB100269,,"I7 TWS HEADSET BLUETOOTH WIRELESS","Charoline CC",081358854237,charolinecharity88@gmail.com,IDN,"JAWA TIMUR","KOTA SURABAYA","Kec. Rungkut",60293,"Jl. Wonorejo Permai Timur 1 Perum Nirwana Eksekutif Blok EE 115 depan taman",1,jnt,,20000.00,297000.00,,0.00,cod,317000,wait-payment,"26-02-2019 18:12"
19,SHOPBAY.ID,#SB100268,,"I7 TWS HEADSET BLUETOOTH WIRELESS","Adhityo Anindito",081219899535,anindito1990@gmail.com,IDN,"DI YOGYAKARTA","KABUPATEN BANTUL","Kec. KASIHAN",55183,"Dealer Nissan Bantul, JL. Ringroad Selatan, Tamantirto, Kasihan, Bantul, D.I. Yogyakarta",1,jnt,,20000.00,297000.00,FREEONGKIR,20000.00,transfer,297000,wait-payment,"26-02-2019 17:45"
20,SHOPBAY.ID,#SB100267,,"I7 TWS HEADSET BLUETOOTH WIRELESS","Galih Pahlevi",+6282313328782,Kido1789@yahoo.com,IDN,"JAWA BARAT","KOTA BEKASI","Kec. BEKASI  TIMUR",17113,"Lpk kebun, jl.cut mutia no.30, margahayu, bekasi timur, bekasi,",1,jnt,,20000.00,297000.00,,0.00,cod,317000,wait-payment,"26-02-2019 15:51"
21,SHOPBAY.ID,#SB100266,,"I7 TWS HEADSET BLUETOOTH WIRELESS","Ilham Agustian",087868464821,ilhamagustian04@gmail.com,IDN,"DKI JAKARTA","KOTA JAKARTA UTARA","Kec. CILINCING",14140,"Jl. Manunggal juang 2 no.65 rt 14 rw 06 (Toko Rio)",1,jne,,20000.00,297000.00,,0.00,cod,317000,wait-payment,"26-02-2019 14:39"
22,SHOPBAY.ID,#SB100265,,"I7 TWS HEADSET BLUETOOTH WIRELESS","Fina chen logor",082189168825,Logorchenfina@gmail.com,IDN,"SULAWESI UTARA","KOTA MANADO","Kec. WENANG",95123,"Lawangirung link 1",1,jne,,20000.00,297000.00,,0.00,cod,317000,wait-payment,"26-02-2019 12:49"
23,SHOPBAY.ID,#SB100264,,"I7 TWS HEADSET BLUETOOTH WIRELESS","LALU HENDRA SAPUTRA",087784147419,lhendrasaputrah76@gmail.com,IDN,BALI,"KABUPATEN BADUNG","Kec. KUTA SELATAN",80361,"Jln.semlati gang sadar no.8x Tuban Kuta Selatan",1,jne,,20000.00,297000.00,,0.00,cod,317000,wait-payment,"26-02-2019 11:05"
24,SHOPBAY.ID,#SB100263,,"I7 TWS HEADSET BLUETOOTH WIRELESS","Muhammad arindi",085267984732,mocharindi@gmail.com,IDN,"JAWA BARAT","KOTA CIREBON","Kec. HARJAMUKTI",45143,"Jl. Garnet no 13 komplek gria intan cirebon",1,jne,,20000.00,297000.00,,0.00,cod,317000,wait-payment,"26-02-2019 09:01"
25,SHOPBAY.ID,#SB100262,,"I7 TWS HEADSET BLUETOOTH WIRELESS","Nikita Devy Haryono",08114872126,nikitadevyharyon@gmail.com,IDN,"JAWA BARAT","KOTA BANDUNG","Kec. SUKAJADI",40164,"Kost Gratia 1, Kamar 305, Jl. Surya Sumantri No. 48, Sukawarna",1,jne,,20000.00,297000.00,Freeongkir,20000.00,cod,297000,wait-payment,"26-02-2019 06:05"
26,SHOPBAY.ID,#SB100261,,"I7 TWS HEADSET BLUETOOTH WIRELESS","M Reza Fahlefi",085261789657,Archuletarezafahlefi@gmail.com,IDN,ACEH,"KABUPATEN BIREUEN","Kec. JEUMPA",24261,"Cot trieng jalan beurawang",1,jne,,20000.00,297000.00,,0.00,cod,317000,wait-payment,"26-02-2019 05:31"
27,SHOPBAY.ID,#SB100260,,"I7 TWS HEADSET BLUETOOTH WIRELESS",ollie,087727051981,cokiber69@yahoo.com,IDN,"DKI JAKARTA","KOTA JAKARTA PUSAT","Kec. MENTENG",762827,"jalan lembang nmr 62 menteng jakpus",1,jne,,20000.00,297000.00,,0.00,cod,317000,wait-payment,"26-02-2019 00:10"
28,SHOPBAY.ID,#SB100259,,"I7 TWS HEADSET BLUETOOTH WIRELESS","Agustinus Eddy",0817171869,didhy_a@yahoo.com,IDN,"DKI JAKARTA","KOTA JAKARTA UTARA","Kec. PADEMANGAN",14430,"Ruko Grand Ancol Blok A No.1 Jln. RE. Martadinata No.1",1,jne,,20000.00,297000.00,,0.00,cod,317000,wait-payment,"25-02-2019 23:00"
29,SHOPBAY.ID,#SB100258,,"I7 TWS HEADSET BLUETOOTH WIRELESS","Fransiskus aginta rendy",085658062137,hkacaribu@gmail.com,IDN,RIAU,"KABUPATEN BENGKALIS","Kec. MANDAU",1234,"Jl sempurna gg serati riau",1,jne,,20000.00,297000.00,,0.00,cod,317000,wait-payment,"25-02-2019 22:04"
30,SHOPBAY.ID,#SB100257,,"I7 TWS HEADSET BLUETOOTH WIRELESS","Marvel Mario Sastriawan",082182760545,mariosastriawan@gmail.com,IDN,"KEPULAUAN BANGKA BELITUNG","KABUPATEN BANGKA SELATAN","Kec. TOBOALI",33783,"Jalan Ampera Nomor 176",1,jne,,20000.00,297000.00,FREEONGKIR,20000.00,cod,297000,wait-payment,"25-02-2019 17:15"
31,SHOPBAY.ID,#SB100256,,"I7 TWS HEADSET BLUETOOTH WIRELESS","Heri yanto",08116663100,Heriyantoyang15@gmail.com,IDN,"KEPULAUAN RIAU","KOTA B A T A M","Kec. LUBUK BAJA",29432,"Orchid garden blok f no12A",1,jne,,20000.00,297000.00,,0.00,cod,317000,wait-payment,"25-02-2019 17:13"
32,SHOPBAY.ID,#SB100255,,"I7 TWS HEADSET BLUETOOTH WIRELESS","Ilham mahyudin",082137979796,Ilhammahyudin@yahoo.co.id,IDN,"KALIMANTAN TIMUR","KABUPATEN KUTAI TIMUR","Kec. SANGATTA  ",75611,"Jl.assdiyah gang safriel rt 58 no 263",1,jnt,,20000.00,297000.00,,0.00,cod,317000,wait-payment,"25-02-2019 14:36"
33,SHOPBAY.ID,#SB100254,,"I7 TWS HEADSET BLUETOOTH WIRELESS","Ida bagus alit keniten",085738055294,goesdeus48@gmail.com,IDN,BALI,"KABUPATEN BADUNG","Kec. KUTA UTARA",80361,"Jln raya batu bolong canggu restoran LUIGIS HOT PIZZA",1,jnt,,20000.00,297000.00,,0.00,cod,317000,wait-payment,"25-02-2019 11:25"
34,SHOPBAY.ID,#SB100252,,"I7 TWS HEADSET BLUETOOTH WIRELESS","Muhammad Fadil",081360854898,fdlsmansa1@gmail.com,IDN,"SUMATERA UTARA","KABUPATEN DELI SERDANG","Kec. LUBUK PAKAM",20511,"Jalan Sultan Hassanudin NO.59A(samping TK), Lubuk Pakam",1,jne,0114671900000143,20000.00,297000.00,,0.00,transfer,317000,delivery-process,"23-02-2019 06:30"
35,SHOPBAY.ID,#SB100251,,"I7 TWS HEADSET BLUETOOTH WIRELESS","FIRMANSYAH MOODUTO",082292513928,fimojust1@gmail.com,IDN,PAPUA,"KOTA JAYAPURA","Kec. JAYAPURA UTARA",99351,"PT.PEGADAIAN PERSERO CAB.BHAYANGKARA JL.FRANS KAISEPO PASIFIK PERMAI BLOK H6 RUKO DOK 2 JAYAPURA UTARA KOTA JAYAPURA-PAPUA 99351",1,jne,0114661900000532,20000.00,297000.00,,0.00,cod,317000,delivery-process,"23-02-2019 04:35"
36,SHOPBAY.ID,#SB100250,,"I7 TWS HEADSET BLUETOOTH WIRELESS",Bony,082137222212,Wakyu76@gmail.com,IDN,"DKI JAKARTA","KOTA JAKARTA SELATAN","Kec. MAMPANG PRAPATAN",35555,"Jl semwru no 88",1,jne,,20000.00,297000.00,,0.00,cod,317000,wait-payment,"22-02-2019 23:47"
37,SHOPBAY.ID,#SB100249,,"I7 TWS HEADSET BLUETOOTH WIRELESS","Sari hartai",082232022373,Sarihartati639@gmail.com,IDN,"DI YOGYAKARTA","KOTA YOGYAKARTA","Kec. MANTRIJERON",55143,"Minggiran mj2/1288D",1,jne,,20000.00,297000.00,,0.00,cod,317000,wait-payment,"22-02-2019 23:27"
38,SHOPBAY.ID,#SB100248,,"I7 TWS HEADSET BLUETOOTH WIRELESS","kevin medellu",082198584876,kmedellu440@gmail.com,IDN,PAPUA,"KOTA JAYAPURA","Kec. ABEPURA",99351,"jln.biak no 10 abepura ",1,jne,,20000.00,297000.00,,0.00,cod,317000,wait-payment,"22-02-2019 19:48"
39,SHOPBAY.ID,#SB100247,,"I7 TWS HEADSET BLUETOOTH WIRELESS","Cicin ovilya",081283579868,Yuliana_barut@yahoo.com,IDN,"JAWA TIMUR","KOTA SURABAYA","Kec. Tenggilis mejoyo",60292,"Jl. Tenggilis Mejoyo Selatan III no 15",1,jne,,20000.00,297000.00,,0.00,cod,317000,wait-payment,"22-02-2019 16:21"
40,SHOPBAY.ID,#SB100246,,"I7 TWS HEADSET BLUETOOTH WIRELESS","rika vitaloka",087781000072,cacacrb123@gmail.com,IDN,BALI,"KOTA DENPASAR","Kec. DENPASAR BARAT",80361,"speranza residence jl.gn soputan 32 mahendradatta ",1,jnt,,20000.00,297000.00,,0.00,cod,317000,wait-payment,"22-02-2019 15:28"
41,SHOPBAY.ID,#SB100245,,"I7 TWS HEADSET BLUETOOTH WIRELESS","Muhammad Fadil",081360854898,fdlsmansa1@gmail.com,IDN,"SUMATERA UTARA","KABUPATEN DELI SERDANG","Kec. LUBUK PAKAM",20511,"Jalan Sultan Hassanudin NO.59A(samping TK), Lubuk Pakam",1,jne,,20000.00,297000.00,,0.00,transfer,317000,wait-payment,"22-02-2019 13:42"
42,SHOPBAY.ID,#SB100244,,"I7 TWS HEADSET BLUETOOTH WIRELESS","Ketut ayu wulantari",082144661385,Ketutayuwulantari18@gmail.com,IDN,"DI YOGYAKARTA","KABUPATEN BANTUL","Kec. BANGUNTAPAN",55163,"Jln gatak gang mawar kuning,l no 303 karangbendo,,banguntapan bantul jogyakarta ",1,jne,,20000.00,297000.00,,0.00,cod,317000,wait-payment,"22-02-2019 13:38"
43,SHOPBAY.ID,#SB100243,,"I7 TWS HEADSET BLUETOOTH WIRELESS","Ronal marulitua lumban batu",082166645421,Ronalmarbun93@yahoo.com,IDN,"DKI JAKARTA","KOTA JAKARTA SELATAN","Kec. MAMPANG PRAPATAN",12790,"Jl Mampang prapatab VIII No.7 RT01/RW02 kel.Tegal parang kec.mampang Jakarta selatan",1,jne,,20000.00,297000.00,,0.00,cod,317000,wait-payment,"22-02-2019 13:11"
44,SHOPBAY.ID,#SB100242,,"I7 TWS HEADSET BLUETOOTH WIRELESS","Kevin lumentut",081354778631,kevinlumentut06@gmail.com,IDN,"SULAWESI UTARA","KOTA MANADO","Kec. WENANG",95111,"Jln 17 agustus no 55 kantor advokat simanjuntak",1,jnt,,20000.00,297000.00,,0.00,cod,317000,wait-payment,"22-02-2019 11:11"
45,SHOPBAY.ID,#SB100241,,"I7 TWS HEADSET BLUETOOTH WIRELESS","Felisia Melia",082122598359,Felisia@dehaellogistics.com,IDN,"DKI JAKARTA","KOTA JAKARTA PUSAT","Kec. TANAH ABANG",10220,"Gedung Citylofts Sudirman Lantai 25 Room 2517 Jl KH Mas Mansyur No 121",1,jne,,20000.00,297000.00,,0.00,cod,317000,wait-payment,"21-02-2019 23:37"
46,SHOPBAY.ID,#SB100240,,"I7 TWS HEADSET BLUETOOTH WIRELESS",Albert,082172220314,Albertng_90@yahoo.com,IDN,"KEPULAUAN RIAU","KOTA B A T A M","Kec. LUBUK BAJA",94444,"Komplek business centre pasar pujabhri toko buah",1,jnt,,20000.00,297000.00,,0.00,cod,317000,wait-payment,"21-02-2019 11:17"
47,SHOPBAY.ID,#SB100239,,"I7 TWS HEADSET BLUETOOTH WIRELESS",karina,081217084102,gunawan.karina@yahoo.com,IDN,"JAWA TIMUR","KOTA SURABAYA","Kec. Mulyorejo","tidak ada kode pos","apartemen educity tower harvard 31-11, pakuwon city, surabaya",1,jne,,20000.00,297000.00,freeongkir,20000.00,cod,297000,wait-payment,"21-02-2019 06:59"
48,SHOPBAY.ID,#SB100238,,"I7 TWS HEADSET BLUETOOTH WIRELESS","Hosea Ardiansyah Manik",082120177542,hoseaardiansyah25@gmail.com,IDN,"JAWA BARAT","KABUPATEN MAJALENGKA","Kec. SUKAHAJI",Majalengka,"Perumahan cikal asih",1,jne,,20000.00,297000.00,,0.00,cod,317000,wait-payment,"20-02-2019 22:09"
49,SHOPBAY.ID,#SB100237,,"I7 TWS HEADSET BLUETOOTH WIRELESS","Zekitriwanda Zn ",082282575597,Zekimj21@yahoo.com,IDN,JAMBI,"KABUPATEN BUNGO","Kec. MUARA BUNGO",3721,"Jl.H.IBRAHIM SYAMSIR",1,jne,,20000.00,297000.00,,0.00,cod,317000,wait-payment,"20-02-2019 20:50"
50,SHOPBAY.ID,#SB100220,,"I7 TWS HEADSET BLUETOOTH WIRELESS","Randy Putong",081212616111,Kimkimgracella@gmail.com,IDN,PAPUA,"KOTA JAYAPURA","Kec. ABEPURA",99351,"Jl. Jeruk Nipis, dpn gedung Tongkonan Kotaraja",1,jnt,,20000.00,297000.00,,0.00,transfer,317000,wait-payment,"11-02-2019 11:10"
51,SHOPBAY.ID,#SB100219,,"I7 TWS HEADSET BLUETOOTH WIRELESS","Setiaman batee",081211242352,Setiamanbate03@gmail.com,IDN,"DKI JAKARTA","KOTA JAKARTA BARAT","Kec. KALI DERES",005,"Jln trisula no. 91 RT. 005 RW. 010 tegal alur jakarta barat",1,jne,,20000.00,297000.00,,0.00,cod,317000,wait-payment,"11-02-2019 10:51"
52,SHOPBAY.ID,#SB100218,,"I7 TWS HEADSET BLUETOOTH WIRELESS",Boneng,081234765087,Boneng@gmail.com,IDN,"NUSA TENGGARA BARAT","KABUPATEN SUMBAWA","Kec. ALAS",84353,"Jl. Kampung rambutan",1,jnt,,20000.00,297000.00,FREEONGKIR,20000.00,transfer,297000,wait-payment,"11-02-2019 08:11"
53,SHOPBAY.ID,#SB100217,,"I7 TWS HEADSET BLUETOOTH WIRELESS","I Putu Sai Candra Prema Nata",081353781385,Saicandra92@gmail.com,IDN,BALI,"KABUPATEN BADUNG","Kec. KUTA SELATAN",80361,"Jln.  Balangan pratama,  gang boulevard,  no.  60,  jimbaran",1,jne,,20000.00,297000.00,,0.00,cod,317000,wait-payment,"11-02-2019 00:51"
54,SHOPBAY.ID,#SB100216,,"I7 TWS HEADSET BLUETOOTH WIRELESS",Inol,082333753976,Zainurrahman392@gmail.com,IDN,"JAWA TIMUR","KABUPATEN SUMENEP","Kec. GAPURA",69472,"Grujugan gapura sumenep",1,jnt,,20000.00,297000.00,,0.00,cod,317000,wait-payment,"10-02-2019 22:45"
55,SHOPBAY.ID,#SB100215,,"I7 TWS HEADSET BLUETOOTH WIRELESS",Sutardhi,081808663399,Tardhichung@gmail.com,IDN,"DKI JAKARTA","KOTA JAKARTA UTARA","Kec. TANJUNG PRIOK",14350,"Jl. Paradise XI Blok F. 19 No.19. Kompleks Sunter Paradise Tahap 1, Sunter - Jakarta Utara",1,jne,,20000.00,297000.00,,0.00,cod,317000,wait-payment,"10-02-2019 18:20"
56,SHOPBAY.ID,#SB100214,,"I7 TWS HEADSET BLUETOOTH WIRELESS","Wayan pagaryasa",085337362362,pagaryasa@gmail.com,IDN,BALI,"KABUPATEN KLUNGKUNG","Kec. NUSA PENIDA",80771,"Dusun sakti,desa sakti nusapenida klungkung bali",1,jne,,20000.00,297000.00,,0.00,cod,317000,wait-payment,"10-02-2019 17:55"
57,SHOPBAY.ID,#SB100213,,"I7 TWS HEADSET BLUETOOTH WIRELESS","Inggrid y paunno",082199928729,inggridyuliani17@gmail.com,IDN,"PAPUA BARAT","KABUPATEN TELUK WONDAMA","Kec. WASIOR",12345,"Jl.raya rasiei.no.82 ",1,jne,,20000.00,297000.00,,0.00,transfer,317000,wait-payment,"10-02-2019 04:45"
58,SHOPBAY.ID,#SB100212,,"I7 TWS HEADSET BLUETOOTH WIRELESS",Indra,081288987404,putraindrahugen@gmail.com,IDN,"SULAWESI SELATAN","KOTA MAKASSAR","Kec. PANAKKUKANG",00000,"Jl pengayoman f9/15d. Panakkukang mas. Makassar. Sulawesi selatan",1,jne,,20000.00,297000.00,,0.00,cod,317000,wait-payment,"10-02-2019 04:42"
59,SHOPBAY.ID,#SB100211,,"I7 TWS HEADSET BLUETOOTH WIRELESS","rahmat hidayat",081242324577,brantakan171@gmail.com,IDN,PAPUA,"KOTA JAYAPURA","Kec. ABEPURA",99351,"Jl raya tanah hitam. No 123 depan pom bensin tanah hitam",1,jnt,,20000.00,297000.00,,0.00,cod,317000,wait-payment,"10-02-2019 02:03"
60,SHOPBAY.ID,#SB100210,,"I7 TWS HEADSET BLUETOOTH WIRELESS","Agung Swandana Pratama",081244306902,aswandana163@gmail.com,IDN,"KALIMANTAN TIMUR","KABUPATEN KUTAI TIMUR","Kec. KOMBENG",75555,"Desa marga mulia sp 4 toko agung raya",1,jnt,,20000.00,297000.00,,0.00,transfer,317000,wait-payment,"10-02-2019 01:08"
61,SHOPBAY.ID,#SB100209,,"I7 TWS HEADSET BLUETOOTH WIRELESS","Sonny marthin conggresco",081244699752,Sonnymc19@gmail.com,IDN,"SULAWESI UTARA","KOTA MANADO","Kec. TUMINTING",952350,"Jln hasanudin 6 sindulang1 linkungan 5",1,jnt,,20000.00,297000.00,,0.00,cod,317000,wait-payment,"09-02-2019 23:42"
62,SHOPBAY.ID,#SB100208,,"I7 TWS HEADSET BLUETOOTH WIRELESS","Nisrina fadila",085603018451,Nisrinafadilaa@gmail.com,IDN,"DKI JAKARTA","KOTA JAKARTA BARAT","Kec. PALMERAH",11480,"Komplek moneter dep. keuangan nomor bb3 ",1,jne,,20000.00,297000.00,,0.00,transfer,317000,wait-payment,"09-02-2019 21:41"
63,SHOPBAY.ID,#SB100207,,"I7 TWS HEADSET BLUETOOTH WIRELESS","Christian adhi wijaya",081394397180,Christian.wijaya@lautan-luas.com,IDN,"JAWA BARAT","KOTA BANDUNG","Kec. BANDUNG KULON",40212,"Jl. Jendral sudirman no 757",1,jne,,20000.00,297000.00,,0.00,cod,317000,wait-payment,"09-02-2019 20:10"
64,SHOPBAY.ID,#SB100206,,"I7 TWS HEADSET BLUETOOTH WIRELESS","I gede brima dinata",081547433544,Jack.dnata@gmail.com,IDN,BALI,"KABUPATEN TABANAN","Kec. KEDIRI",82121,"Jl A. Yani Abiantuwung Kediri-Tabanan-Bali (Showroom dana jaya motor)",1,jne,0114671900000010,20000.00,297000.00,,0.00,transfer,317000,completed,"09-02-2019 19:55"
65,SHOPBAY.ID,#SB100205,,"I7 TWS HEADSET BLUETOOTH WIRELESS","Agusfa rangga",081257466927,agusfarangga8699@gmail.com,IDN,"KALIMANTAN BARAT","KABUPATEN KETAPANG","Kec. MATAN HILIR UTARA",78813,"Jln.  Brigjen katamso no. 1 (polres ketapang) ",1,jne,,20000.00,297000.00,,0.00,transfer,317000,wait-payment,"09-02-2019 19:36"
66,SHOPBAY.ID,#SB100204,,"I7 TWS HEADSET BLUETOOTH WIRELESS","Yoki abdul aziz",087881119997,Yokiiabdulaziz58@gmail.com,IDN,BANTEN,"KABUPATEN PANDEGLANG","Kec. PANDEGLANG",42213,"Jl.yumaga kp.ciherang RT/RW 03/01 pandeglang banten",1,jne,,20000.00,297000.00,,0.00,cod,317000,wait-payment,"09-02-2019 18:10"
67,SHOPBAY.ID,#SB100203,,"I7 TWS HEADSET BLUETOOTH WIRELESS",Sirajuddin,082217529567,Sirajuddins910@gmail.com,IDN,ACEH,"KABUPATEN ACEH UTARA","Kec. MATANG KULI",24386,"Dayah babussalam matang kuli",1,jne,,20000.00,297000.00,,0.00,cod,317000,wait-payment,"09-02-2019 15:53"
68,SHOPBAY.ID,#SB100202,,"I7 TWS HEADSET BLUETOOTH WIRELESS",Wardi,087756250619,lielawardhy@gmail.com,IDN,"JAWA TIMUR","KABUPATEN SUMENEP","Kec. BATANG BATANG",69473,Wardi,1,jnt,,20000.00,297000.00,,0.00,cod,317000,wait-payment,"09-02-2019 14:20"
69,SHOPBAY.ID,#SB100201,,"I7 TWS HEADSET BLUETOOTH WIRELESS","Agustinus h ngadang",081284500788,Agustinushendiandre@gmail.com,IDN,"JAWA BARAT","KOTA DEPOK","Kec. LIMO",16515,"Jln .nusa dua raya blok AO no 6 megapolitan estate cinere limo depok",1,jne,,20000.00,297000.00,,0.00,cod,317000,wait-payment,"09-02-2019 11:26"
70,SHOPBAY.ID,#SB100200,,"I7 TWS HEADSET BLUETOOTH WIRELESS",Tanzil,087894262071,tanzilandrians11@gmail.com,IDN,"NUSA TENGGARA BARAT","KOTA MATARAM","Kec. CAKRANEGARA",83239,"bank mandirii Jl. A. A Gede Ngurah No.48 A-B cakranegara mataram NTB",1,jne,,20000.00,297000.00,freeongkir,20000.00,cod,297000,wait-payment,"09-02-2019 10:39"
71,SHOPBAY.ID,#SB100199,,"I7 TWS HEADSET BLUETOOTH WIRELESS",Firdariana,082277055054,Firdariana72@gmail.com,IDN,"SUMATERA UTARA","KOTA MEDAN","Kec. MEDAN SUNGGAL",20352,"Jalan sei mencirim dsn 2 paya geli gg.surya no.85A",1,jne,,20000.00,297000.00,,0.00,cod,614000,wait-payment,"09-02-2019 05:43"
72,SHOPBAY.ID,#SB100198,,"I7 TWS HEADSET BLUETOOTH WIRELESS","fauzan hakim",082150560202,fauzanhakim.fh77@gmail.com,IDN,"KALIMANTAN SELATAN","KOTA BANJARMASIN","Kec. BANJARMASIN TENGAH",70231,"jl.kampung melayu darat gang al.amin no 142 /31 rt.04 rw.01 rmh haji imar",1,jne,,20000.00,297000.00,,0.00,cod,317000,wait-payment,"09-02-2019 00:16"
73,SHOPBAY.ID,#SB100197,,"I7 TWS HEADSET BLUETOOTH WIRELESS","arya nugroho",082345943636,mustanzierarya@gmail.com,IDN,"SULAWESI TENGGARA","KOTA KENDARI","Kec. Kambu",93111,"btn revalina blok e1",1,jne,,20000.00,297000.00,,0.00,cod,317000,wait-payment,"08-02-2019 15:06"
74,SHOPBAY.ID,#SB100196,,"I7 TWS HEADSET BLUETOOTH WIRELESS","Arif Yuswandono",081514786360,luqmanelhakiem1924@gmail.com,IDN,"DKI JAKARTA","KOTA JAKARTA PUSAT","Kec. SENEN",10620,"Jl. Kepu Timur No.7, RT.4/RW.1",1,jne,,20000.00,297000.00,,0.00,cod,317000,wait-payment,"08-02-2019 11:08"
75,SHOPBAY.ID,#SB100195,,"I7 TWS HEADSET BLUETOOTH WIRELESS",Falah,081296331599,Falahy7696@gmail.com,IDN,"DKI JAKARTA","KOTA JAKARTA SELATAN","Kec. PASAR MINGGU",12520,"Jalan Tanjung No 30 RT 11/RW 10 Pasar minggu",1,jne,,20000.00,297000.00,,0.00,cod,317000,wait-payment,"08-02-2019 11:03"
76,SHOPBAY.ID,#SB100194,,"I7 TWS HEADSET BLUETOOTH WIRELESS","AHMAD SYAEFUDIN",081217130371,achmad.syaefudin27@gmail.com,IDN,"JAWA TENGAH","KOTA SEMARANG","Kec. SEMARANG BARAT",50148,"Flochi Hostel, No. 8 Pamularsih, Jl. Kumudasmoro Tengah Raya, Bongsari, Semarang Bar., Kota Semarang, Jawa Tengah 50148",1,jne,,20000.00,297000.00,,0.00,cod,317000,wait-payment,"08-02-2019 10:20"
77,SHOPBAY.ID,#SB100193,,"I7 TWS HEADSET BLUETOOTH WIRELESS","Dadi pahlevy",082153962061,dadipahlevy@yahoo.com,IDN,"SUMATERA SELATAN","KOTA PALEMBANG","Kec. SEBERANG ULU   I",30257,"Jln palem raya blok ff no 15 perum atlit TOP jakabaring palembang",1,jnt,0114671900000028,20000.00,297000.00,,0.00,transfer,317000,completed,"08-02-2019 08:28"
78,SHOPBAY.ID,#SB100192,,"I7 TWS HEADSET BLUETOOTH WIRELESS",Ezaa,O82113260051,Ezzajhie@gmail.com,IDN,"KALIMANTAN TIMUR","KABUPATEN KUTAI TIMUR","Kec. MUARA WAHAU",75655,"Jalan poros sp 1",1,jne,,20000.00,297000.00,,0.00,cod,317000,wait-payment,"08-02-2019 06:57"
79,SHOPBAY.ID,#SB100191,,"I7 TWS HEADSET BLUETOOTH WIRELESS","Nanang alamsyah",082397778188,Debimelon338@gmail.com,IDN,"KALIMANTAN SELATAN","KABUPATEN TANAH BUMBU","Kec. SATUI",72276,"Jalan karia bersama rt 20 no 29",1,jnt,,20000.00,297000.00,,0.00,cod,317000,wait-payment,"08-02-2019 03:39"
80,SHOPBAY.ID,#SB100190,,"I7 TWS HEADSET BLUETOOTH WIRELESS","Surya baskara jaya",081354752277,Suryabaskara88@gmail.com,IDN,"JAWA TIMUR","KOTA SURABAYA","Kec. Dukuh pakis",60189,"Dukuh kupang surabaya selatan",1,jnt,,20000.00,297000.00,,0.00,cod,317000,wait-payment,"08-02-2019 01:59"
81,SHOPBAY.ID,#SB100189,,"I7 TWS HEADSET BLUETOOTH WIRELESS","Ahmad Jaka Soemantrie",082277438983,Ahmadjaka1113@gmail.com,IDN,ACEH,"KOTA BANDA ACEH","Kec. KUTA ALAM",23126,"Jl. Cumi-cumi no.14 lampriet bandar baru banda aceh",1,jnt,,20000.00,297000.00,,0.00,cod,317000,wait-payment,"08-02-2019 01:39"
82,SHOPBAY.ID,#SB100188,,"I7 TWS HEADSET BLUETOOTH WIRELESS","Wayan Galang Juni rastika","0821 45769066?",WayanGalang65@Gmail.com,IDN,BALI,"KABUPATEN BADUNG","Kec. ABIANSEMAL",80352,"Jalan Sudirman No. 9 Br umahanyar Darmasaba badung Bali",1,jne,,20000.00,297000.00,,0.00,cod,317000,wait-payment,"07-02-2019 18:17"
83,SHOPBAY.ID,#SB100187,,"I7 TWS HEADSET BLUETOOTH WIRELESS","ROHMAT KHOLIS",081288183400,rohmatkholis.01@gmaal.com,IDN,"DKI JAKARTA","KOTA JAKARTA TIMUR","Kec. DUREN SAWIT",13470,"YAYASAN NURUL IHSAN. JL. I gusti ngurahrai buaran I RT 07 RW 12 kelurahan klender",1,jne,,20000.00,297000.00,,0.00,cod,317000,wait-payment,"07-02-2019 17:38"
84,SHOPBAY.ID,#SB100186,,"I7 TWS HEADSET BLUETOOTH WIRELESS","Ray Nizar",081290898896,ray.nizar26@gmail.com,IDN,"DKI JAKARTA","KOTA JAKARTA PUSAT","Kec. CEMPAKA PUTIH",10570,"JL. Let Jend Ahmad yani. Kav 49. Managment office green pramuka square Lantai P1",1,jnt,,20000.00,297000.00,,0.00,cod,317000,wait-payment,"07-02-2019 16:35"
85,SHOPBAY.ID,#SB100185,,"I7 TWS HEADSET BLUETOOTH WIRELESS","Feri Nuryadi ",081344697488,Feryagam21@gmail.com,IDN,ACEH,"KOTA BANDA ACEH","Kec. SYIAH KUALA",23115,"Desa lamgugob",1,jnt,,20000.00,297000.00,,0.00,cod,317000,wait-payment,"07-02-2019 15:09"
86,SHOPBAY.ID,#SB100184,,"I7 TWS HEADSET BLUETOOTH WIRELESS","mohammad soleh",08175103563,msoleh272@gmail.com,IDN,"JAWA TIMUR","KABUPATEN BANGKALAN","Kec. Arosbaya",69115,"dsn.lebak barat",1,jne,,20000.00,297000.00,,0.00,cod,317000,wait-payment,"07-02-2019 14:04"
87,SHOPBAY.ID,#SB100183,,"I7 TWS HEADSET BLUETOOTH WIRELESS","Soraya manurung",082166024718,Sorayamanurung2@gmail.com,IDN,"SUMATERA UTARA","KOTA PEMATANG SIANTAR","Kec. SIANTAR MARTOBA",21137,"Jln tambun timur perumahan aspol",1,jne,,20000.00,297000.00,,0.00,cod,317000,wait-payment,"07-02-2019 08:42"
88,SHOPBAY.ID,#SB100182,,"I7 TWS HEADSET BLUETOOTH WIRELESS","Gunawan kusnandar",08111288105,guna_kusnandar@yahoo.co.id,IDN,"JAWA BARAT","KABUPATEN KARAWANG","Kec. Karawang Timur",41314,"Jl veteran, gg mulyasari no 9, rt 09/20, guro3, karawang 41314",1,jne,0114671900000036,20000.00,297000.00,,0.00,transfer,317000,completed,"07-02-2019 07:22"
89,SHOPBAY.ID,#SB100181,,"I7 TWS HEADSET BLUETOOTH WIRELESS",Mirwan,082347798369,mirwan88@ymail.com,IDN,"SULAWESI SELATAN","KABUPATEN MAROS","Kec. BANTIMURUNG",90561,"Lingk.pasar pakalu",1,jne,,20000.00,297000.00,,0.00,cod,317000,wait-payment,"07-02-2019 02:09"
90,SHOPBAY.ID,#SB100180,,"I7 TWS HEADSET BLUETOOTH WIRELESS","hendri loupatty",082248566390,denilsonsapari09@gmail.com,IDN,PAPUA,"KOTA JAYAPURA","Kec. JAYAPURA UTARA",99117,"dok 9 pasar impres",1,jne,,20000.00,297000.00,,0.00,cod,317000,wait-payment,"06-02-2019 22:11"
91,SHOPBAY.ID,#SB100179,,"I7 TWS HEADSET BLUETOOTH WIRELESS","Ryan Zulfifa",082289791996,rzulfifa@gmail.com,IDN,JAMBI,"KOTA JAMBI","Kec. KOTA BARU",36128,"Monaco Residence 1 Blok B18 (jl surya dharma 2)",1,jne,,20000.00,297000.00,FREEONGKIR,20000.00,cod,297000,wait-payment,"06-02-2019 19:14"
92,SHOPBAY.ID,#SB100178,,"I7 TWS HEADSET BLUETOOTH WIRELESS",sas,792172917922,sdsd@gmail.com,IDN,"DI YOGYAKARTA","KABUPATEN KULON PROGO","Kec. SENTOLO",12572,sasdSDs,1,jne,,20000.00,297000.00,,0.00,cod,317000,wait-payment,"06-02-2019 17:15"
93,SHOPBAY.ID,#SB100177,,"I7 TWS HEADSET BLUETOOTH WIRELESS",Renaldy,473865302,muhamadrenald@gmail.com,IDN,BALI,"KABUPATEN TABANAN","Kec. KEDIRI",123445,fraeppoa,1,jne,,20000.00,297000.00,,0.00,transfer,317000,wait-payment,"06-02-2019 16:42"
94,SHOPBAY.ID,#SB100176,,"I7 TWS HEADSET BLUETOOTH WIRELESS","Herlin dawo",081289615501,Dawoherliana@yahoo.com,IDN,"DKI JAKARTA","KOTA JAKARTA PUSAT","Kec. GAMBIR",10140,"Jln :duri A9,No 10,Rt 005/ Rt 002.kecamatan :Gambir,kelurahan duri pulo jakarta pusat",1,jne,,20000.00,297000.00,,0.00,cod,317000,wait-payment,"06-02-2019 11:20"
95,SHOPBAY.ID,#SB100175,,"I7 TWS HEADSET BLUETOOTH WIRELESS","Amrizal Rengganis",081374182777,amrizal.rengganis15@gmail.com,IDN,"SUMATERA BARAT","KOTA PADANG","Kec. KURANJI",25565,"jalan Palo Pasa No.56 Korong Gadang",1,jne,,20000.00,297000.00,,0.00,cod,317000,wait-payment,"06-02-2019 01:53"
96,SHOPBAY.ID,#SB100174,,"I7 TWS HEADSET BLUETOOTH WIRELESS",andi,082255708777,andisubair88@gmail.com,IDN,"KALIMANTAN TIMUR","KOTA SAMARINDA","Kec. PALARAN",326181,samarinda,1,jne,,20000.00,297000.00,,0.00,cod,317000,wait-payment,"05-02-2019 20:49"
97,SHOPBAY.ID,#SB100173,,"I7 TWS HEADSET BLUETOOTH WIRELESS","I Kadek Gunung Suyasa",081936566062,dhex.mountain@gmail.com,IDN,"NUSA TENGGARA BARAT","KOTA MATARAM","Kec. Sekarbela",83116,"Jalan Mandalika Wisma Bunda Kekalik Timur",1,jne,,20000.00,297000.00,,0.00,cod,317000,wait-payment,"05-02-2019 19:07"
98,SHOPBAY.ID,#SB100172,,"I7 TWS HEADSET BLUETOOTH WIRELESS",Herry,082192258202,Herrygama15@gmail.com,IDN,"MALUKU UTARA","KABUPATEN HALMAHERA TENGAH","Kec. WEDA",97850,"Desa lelilef sawai belakang gereja pantekosta",1,jne,,20000.00,297000.00,,0.00,transfer,317000,wait-payment,"05-02-2019 18:35"
99,SHOPBAY.ID,#SB100171,,"I7 TWS HEADSET BLUETOOTH WIRELESS","ryan chandra zulkarnaen panto",081340273202,Chandravhica1626@gmail.com,IDN,"SULAWESI UTARA","KOTA MANADO","Kec. MALALAYANG",95115,"Corner Club, Robert Wolter Monginsidi I, Komp. Bahu Mall, Malalayang, Bahu, Malalayang, Bahu, Malalayang, Manado City, North Sulawesi",1,jnt,,20000.00,297000.00,,0.00,cod,317000,wait-payment,"05-02-2019 18:25"
100,SHOPBAY.ID,#SB100170,,"I7 TWS HEADSET BLUETOOTH WIRELESS",arifuddin,085210749663,ariffuddin79139@gmail.com,IDN,BANTEN,"KABUPATEN SERANG","Kec. BOJONEGARA",42616,"Unnamed Road",1,jne,,20000.00,297000.00,,0.00,cod,317000,wait-payment,"05-02-2019 16:32"
101,SHOPBAY.ID,#SB100169,,"I7 TWS HEADSET BLUETOOTH WIRELESS",Roy,082258506562,achmadrijalkholilurr@gmail.com,IDN,BANTEN,"KOTA SERANG","Kec. SERANG",42116,"Jl. Ratu Ayu Manis Blok C1 Rt 01 Rw 12 No 43 Perumnas Ciracas Indah",1,jne,,20000.00,297000.00,,0.00,cod,317000,wait-payment,"05-02-2019 14:45"
102,SHOPBAY.ID,#SB100168,,"I7 TWS HEADSET BLUETOOTH WIRELESS","Andre De Fretes",085256909063,defretes.andre@gmail.com,IDN,"SULAWESI UTARA","KABUPATEN MINAHASA","Kec. TOMBARIRI",95351,"Sarani Matani Jaga 2",1,jne,,20000.00,297000.00,,0.00,cod,317000,wait-payment,"05-02-2019 14:44"
103,SHOPBAY.ID,#SB100167,,"I7 TWS HEADSET BLUETOOTH WIRELESS","Dela Ocmilasari Hutabarat ",082363997002,delahutabarat124@yahoo.com,IDN,"SUMATERA UTARA","KOTA MEDAN","Kec. MEDAN SELAYANG",20131,"Jl bunga cempaka gg cempaka baru kos-kosan pak E. Sianturi pasar 3 Padang bulan medan",1,jne,,20000.00,297000.00,,0.00,cod,317000,wait-payment,"05-02-2019 09:46"
104,SHOPBAY.ID,#SB100166,,"I7 TWS HEADSET BLUETOOTH WIRELESS",Ardiyantosi,085267017333,Ardi_yantosi@yahoo.co.id,IDN,"SUMATERA SELATAN","KABUPATEN MUARA ENIM","Kec. SEMENDO DARAT LAUT",31356,"jln lintas lahat dusun2 desa muara danau",1,jnt,,20000.00,297000.00,,0.00,cod,317000,wait-payment,"05-02-2019 08:20"
105,SHOPBAY.ID,#SB100165,,"I7 TWS HEADSET BLUETOOTH WIRELESS",Sumardi,082384585537,sumarditanjung@yahoo.co.id,IDN,"DKI JAKARTA","KOTA JAKARTA UTARA","Kec. PENJARINGAN",14450,"Jl kerapu 3 depan mesjis AT-TAUFIQUL MUBAROK muara angke penjaringan pluit jakarta utara",1,jne,,20000.00,297000.00,,0.00,cod,317000,wait-payment,"05-02-2019 08:07"
106,SHOPBAY.ID,#SB100164,,"I7 TWS HEADSET BLUETOOTH WIRELESS","Rimbo bujang unit 2 pasar sarina",082174858193,rizkyaulia1919@gmail.com,IDN,JAMBI,"KABUPATEN TEBO","Kec. RIMBO BUJANG",37551,"Rimbo bujang unit 2 pasar sarina",1,jnt,,20000.00,297000.00,,0.00,transfer,317000,wait-payment,"04-02-2019 18:48"
107,SHOPBAY.ID,#SB100163,,"I7 TWS HEADSET BLUETOOTH WIRELESS","Solon Sihombing",08161961836,bigsolon0808@gmail.com,IDN,"DKI JAKARTA","KOTA JAKARTA PUSAT","Kec. KEMAYORAN",10630,"Apt mediterania palace tower C floor 18 EF Kemayoran Jakpus",1,jne,,20000.00,297000.00,,0.00,cod,317000,wait-payment,"04-02-2019 17:46"
108,SHOPBAY.ID,#SB100162,,"I7 TWS HEADSET BLUETOOTH WIRELESS","Ngurah Arya Natih",087761447001,nguraharya582@gmail.com,IDN,BALI,"KOTA DENPASAR","Kec. DENPASAR  TIMUR",80232,"Yayasan Bunga Bali Jln. By Pass Prof. Dr. Ida Bagus Mantra No.111 (sebelah timur polsek dentim) Kesiman Kerthalangu",1,jne,,20000.00,297000.00,,0.00,cod,317000,wait-payment,"04-02-2019 14:42"
109,SHOPBAY.ID,#SB100161,,"I7 TWS HEADSET BLUETOOTH WIRELESS","ryan chandra zulkarnaen panto",081340273202,chandrapanto86@gmail.com,IDN,"SULAWESI UTARA","KOTA MANADO","Kec. MALALAYANG",95115,"Corner Club, Robert Wolter Monginsidi I, Komp. Bahu Mall, Malalayang, Bahu, Malalayang, Bahu, Malalayang, Manado City, North Sulawesi",1,jnt,,20000.00,297000.00,,0.00,cod,317000,wait-payment,"04-02-2019 10:20"
110,SHOPBAY.ID,#SB100160,,"I7 TWS HEADSET BLUETOOTH WIRELESS",Husnulakbar,081269858540,Bayhoki@gmail.com,IDN,"SUMATERA UTARA","KABUPATEN LANGKAT","Kec. PANGKALAN SUSU",20858,"Beras basah gang sehati lingkungan lll",1,jnt,,20000.00,297000.00,,0.00,cod,317000,wait-payment,"04-02-2019 02:23"
111,SHOPBAY.ID,#SB100159,,"I7 TWS HEADSET BLUETOOTH WIRELESS","Chandra wijaya",081362264888,cwijaya233@gmail.com,IDN,"SUMATERA UTARA","KOTA MEDAN","Kec. MEDAN DENAI",20371,"Dusun Vll jl.budi utomo/pancing ll",1,jnt,,20000.00,297000.00,,0.00,cod,317000,wait-payment,"04-02-2019 00:14"
112,SHOPBAY.ID,#SB100158,,"I7 TWS HEADSET BLUETOOTH WIRELESS","Mirza ",081990788899,abangmirza71@gmail.com,IDN,"KALIMANTAN TIMUR","KOTA SAMARINDA","Kec. SAMARINDA SEBERANG",75321,"Jl.bung tomo no30.RT 14 Rw.03 samarinda seberang",1,jne,,20000.00,297000.00,,0.00,cod,317000,wait-payment,"03-02-2019 21:46"
113,SHOPBAY.ID,#SB100157,,"I7 TWS HEADSET BLUETOOTH WIRELESS",sudirman,081226003154,sudirmanrsn@gmail.com,IDN,"SULAWESI SELATAN","KABUPATEN JENEPONTO","Kec. ARUNGKEKE",92361,"PPPM mannilingi bulo-bulo jln mannilingi dg jalling no. 45 desa bulo-bulo kecamatan arungkeke kabupaten jeneponto sulsel.kode pos 92361",1,jne,,20000.00,297000.00,,0.00,cod,317000,wait-payment,"03-02-2019 16:48"
114,SHOPBAY.ID,#SB100156,,"I7 TWS HEADSET BLUETOOTH WIRELESS",sudirman,081226003154,sudirmanrsn@gmail.com,IDN,"SULAWESI SELATAN","KABUPATEN JENEPONTO","Kec. ARUNGKEKE",92361,"PPPM mannilingi bulo-bulo jln mannilingi dg jalling no. 45 desa bulo-bulo kecamatan arungkeke kabupaten jeneponto sulsel.kode pos 92361",1,jne,,20000.00,297000.00,,0.00,cod,317000,wait-payment,"03-02-2019 13:39"
115,SHOPBAY.ID,#SB100155,,"I7 TWS HEADSET BLUETOOTH WIRELESS",Herwin,081212129975,herwinhou@gmail.com,IDN,BALI,"KABUPATEN BADUNG","Kec. JIMBARAN",80361,"perum taman griya,jln.nuansa utama timur lll.no.1,jimbaran kuta",1,jne,,20000.00,297000.00,freeongkir,20000.00,cod,297000,wait-payment,"03-02-2019 13:17"
116,SHOPBAY.ID,#SB100154,,"I7 TWS HEADSET BLUETOOTH WIRELESS",JulkifliYusup,085349720825,djulkifli.djulkifli01@gmail.com,IDN,"MALUKU UTARA","KOTA TERNATE","Kec. PULAU TERNATE",9722,"Kampung makassar barat",1,jne,,20000.00,297000.00,,0.00,transfer,317000,wait-payment,"03-02-2019 12:54"
117,SHOPBAY.ID,#SB100153,,"I7 TWS HEADSET BLUETOOTH WIRELESS","Haryono sapii",08122110674,Haryonosapii1304@gmail.com,IDN,GORONTALO,"KOTA GORONTALO","Kec. DUMBO RAYA",96118,"Jl saptamarga 56 RT/RW 001/001",1,jnt,,20000.00,297000.00,,0.00,transfer,317000,wait-payment,"03-02-2019 07:29"
118,SHOPBAY.ID,#SB100152,,"I7 TWS HEADSET BLUETOOTH WIRELESS",Aden,083866846380,Nugrahaspddendy@gmail.com,IDN,"JAWA BARAT","KABUPATEN PURWAKARTA","Kec. CIBATU",41181,"Kp ciparungmulya rt 10 rw 03 ds cipinang",1,jnt,,20000.00,297000.00,,0.00,cod,317000,wait-payment,"02-02-2019 21:19"
119,SHOPBAY.ID,#SB100151,,"I7 TWS HEADSET BLUETOOTH WIRELESS","Jln. Durian no.  79",+6285397008811,udinheang.hino@gmail.com,IDN,"SULAWESI TENGGARA","KOTA KENDARI","Kec. Wua Wua",93117,"Jln. Durian no.  79",1,jne,,20000.00,297000.00,,0.00,cod,317000,wait-payment,"02-02-2019 19:01"
120,SHOPBAY.ID,#SB100150,,"I7 TWS HEADSET BLUETOOTH WIRELESS","Yofiga Indrawab",082198954444,ivo.viga.iv@gmail.com,IDN,"JAWA TIMUR","KABUPATEN PROBOLINGGO","Kec. Leces",67223,"Jorongan rt/rw :01/01 blok polotan(campuran)",1,jnt,,20000.00,297000.00,,0.00,cod,317000,wait-payment,"02-02-2019 18:37"
121,SHOPBAY.ID,#SB100149,,"I7 TWS HEADSET BLUETOOTH WIRELESS","Putu dedisanjaya",+6281239603006,puturoly@gmail.com,IDN,BALI,"KABUPATEN BADUNG","Kec. KUTA SELATAN",80361,"Kantor taxi kowinu,nusadua,Kuta selatan Badung.",1,jnt,,20000.00,297000.00,,0.00,cod,317000,wait-payment,"02-02-2019 13:19"
122,SHOPBAY.ID,#SB100148,,"I7 TWS HEADSET BLUETOOTH WIRELESS",Rendi,085249776211,ahmadzoulkifli023@gmail.com,IDN,"NUSA TENGGARA BARAT","KABUPATEN LOMBOK TIMUR","Kec. KERUAK",83672,Rendi,1,jne,,20000.00,297000.00,,0.00,transfer,317000,wait-payment,"02-02-2019 02:12"
123,SHOPBAY.ID,#SB100147,,"I7 TWS HEADSET BLUETOOTH WIRELESS","Akmal kurniawan",+6281220433373,akmalkurniawan095@gmail.com,IDN,"SULAWESI SELATAN","KABUPATEN LUWU TIMUR","Kec. NUHA",92984,"Jln g.krakatau no. 287 sorowako",1,jnt,,20000.00,297000.00,,0.00,cod,317000,wait-payment,"02-02-2019 01:00"
124,SHOPBAY.ID,#SB100146,,"I7 TWS HEADSET BLUETOOTH WIRELESS",Hasbi,085261878714,Hasbitkj7@gmail.com,IDN,"SUMATERA UTARA","KOTA MEDAN","Kec. MEDAN KOTA",20159,"Jemput di jne caabang di simpang juanda",1,jne,,20000.00,297000.00,,0.00,transfer,317000,wait-payment,"01-02-2019 21:58"
125,SHOPBAY.ID,#SB100145,,"I7 TWS HEADSET BLUETOOTH WIRELESS","SVANDI SAMPALENG",081243517723,christian.sampaleng060995@gmail.com,IDN,"SULAWESI UTARA","KOTA MANADO","Kec. WENANG",19500,"jl jendral sudirman depan hasjrat abadi komo luar nyiur travel",1,jnt,,20000.00,297000.00,,0.00,cod,317000,wait-payment,"01-02-2019 21:04"
126,SHOPBAY.ID,#SB100144,,"I7 TWS HEADSET BLUETOOTH WIRELESS","Nikodemus norman s.",085255520868,Normannikodemus77@gmail.com,IDN,PAPUA,"KABUPATEN JAYAPURA","Kec. SENTANI",99352,"Jl. Youmakhe pasarbaru sentani",1,jne,,20000.00,297000.00,,0.00,cod,317000,wait-payment,"01-02-2019 19:14"
127,SHOPBAY.ID,#SB100143,,"I7 TWS HEADSET BLUETOOTH WIRELESS","Muhammad mardani",082358232375,Daniumar415@gmail.com,IDN,"KALIMANTAN SELATAN","KABUPATEN HULU SUNGAI UTARA","Kec. AMUNTAI TENGAH",71419,"Jln.saberan effendi,palampitan hilir dekat pasar sejumput gang nangka",1,jnt,,20000.00,297000.00,,0.00,cod,317000,wait-payment,"01-02-2019 17:55"
128,SHOPBAY.ID,#SB100142,,"I7 TWS HEADSET BLUETOOTH WIRELESS","Adhitya putra",081238904781,Adityaputraa.a@gmail.com,IDN,BALI,"KABUPATEN GIANYAR","Kec. UBUD",80571,"Jalan suweta no13",1,jnt,,20000.00,297000.00,,0.00,cod,317000,wait-payment,"01-02-2019 13:36"
129,SHOPBAY.ID,#SB100141,,"I7 TWS HEADSET BLUETOOTH WIRELESS","Romia sari",081267538883,Miamardison3@gmail.com,IDN,RIAU,"KOTA PEKANBARU","Kec. TAMPAN",28293,"Jln.garuda sakti prum unri blok c16 rt 04 rw 11",1,jne,,20000.00,297000.00,,0.00,cod,317000,wait-payment,"01-02-2019 11:30"
130,SHOPBAY.ID,#SB100140,,"I7 TWS HEADSET BLUETOOTH WIRELESS","Muh subri fadli",081998507087,muh.subri96@gmail.com,IDN,BALI,"KABUPATEN BADUNG","Kec. KUTA",80361,"Kuta gang sadasari",1,jne,,20000.00,297000.00,,0.00,transfer,317000,wait-payment,"01-02-2019 02:36"
131,SHOPBAY.ID,#SB100139,,"I7 TWS HEADSET BLUETOOTH WIRELESS","Jerry Andi depari","081362545241 ",jerrydepari96@gmail.com,IDN,"SUMATERA UTARA","KABUPATEN TOBA SAMOSIR","Kec. PORSEA",22384,"Aspol polres tobasa jl siponggol dolok, kec. Siantar narumonda kab. Toba samosir",1,jne,,20000.00,297000.00,,0.00,cod,317000,wait-payment,"31-01-2019 23:05"
132,SHOPBAY.ID,#SB100138,,"I7 TWS HEADSET BLUETOOTH WIRELESS","Akmal kurniawan",+6281220433373,akmalkurniawan095@gmail.com,IDN,"SULAWESI SELATAN","KABUPATEN LUWU TIMUR","Kec. NUHA",92984,"Jln g.krakatau no. 287 sorowako",1,jnt,,20000.00,297000.00,,0.00,transfer,317000,wait-payment,"31-01-2019 19:30"
133,SHOPBAY.ID,#SB100137,,"I7 TWS HEADSET BLUETOOTH WIRELESS",Sudarmin,081350007957,sudarmin76@yahoo.co.id,IDN,"KALIMANTAN TIMUR","KOTA BALIKPAPAN","Kec. BALIKPAPAN TIMUR",76116,"Jl. Mulawarman RT.07 No.02A Kelurahan Manggar Baru",1,jne,,20000.00,297000.00,,0.00,cod,317000,wait-payment,"31-01-2019 16:11"
134,SHOPBAY.ID,#SB100136,,"I7 TWS HEADSET BLUETOOTH WIRELESS","Kardi novriadi sihotang",082240997711,Kardi3888@gmail.com,IDN,"SUMATERA BARAT","KABUPATEN PADANG PARIAMAN","Kec. LUBUK ALUNG",25528,"Perumnas kp ladang belakang telkom",1,jne,,20000.00,297000.00,,0.00,cod,317000,wait-payment,"31-01-2019 12:12"
135,SHOPBAY.ID,#SB100135,,"I7 TWS HEADSET BLUETOOTH WIRELESS","Ramonnico rusli",081276664888,nico.ramon81@gmail.com,IDN,"SUMATERA BARAT","KABUPATEN SOLOK SELATAN","Kec. SEI PAGU",26667,"Jln. Raya batang lawe no21 wisma umi kalsum",1,jne,,20000.00,297000.00,,0.00,cod,317000,wait-payment,"31-01-2019 03:17"
136,SHOPBAY.ID,#SB100134,,"I7 TWS HEADSET BLUETOOTH WIRELESS",Billy,081387968811,yuniar28@gmail.com,IDN,"KALIMANTAN BARAT","KABUPATEN KETAPANG","Kec. MATAN HILIR UTARA",78821,"Jalan, Agus Salim no.9B",1,jnt,,20000.00,297000.00,,0.00,cod,317000,wait-payment,"30-01-2019 22:40"
137,SHOPBAY.ID,#SB100133,,"I7 TWS HEADSET BLUETOOTH WIRELESS","Nur Fitriani",08114535088,nv3ani.0611@gmail.com,IDN,"SULAWESI TENGAH","KOTA PALU","Kec. PALU SELATAN",94126,"Jalan Towua 2 Lorong 2 No. 7A",1,jnt,,20000.00,297000.00,,0.00,cod,317000,wait-payment,"30-01-2019 20:07"
138,SHOPBAY.ID,#SB100132,,"I7 TWS HEADSET BLUETOOTH WIRELESS","Sutomo atmaja",082159182433,Sutomoatmaja@yahoo.com,IDN,"KALIMANTAN TIMUR","KOTA BALIKPAPAN","Kec. BALIKPAPAN UTARA",76126,"Jl.Soekarno Hatta Km 5,5 No.A9 RT.36 (Disamping Maxi)  Telp : 0542-7203289 Fax : 0542-7203290 Kelurahan : Graha Indah Kecamatan : Balikpapan Utara  Kode pos : 76126",1,jne,,20000.00,297000.00,,0.00,cod,317000,wait-payment,"30-01-2019 19:56"
139,SHOPBAY.ID,#SB100131,,"I7 TWS HEADSET BLUETOOTH WIRELESS","Mochammad Fadly Faldt",082167369959,fadlyfaldy77@gmail.com,IDN,"SULAWESI SELATAN","KOTA MAKASSAR","Kec. RAPPOCINI",90221,"Btn Minasa Upa Blok K 6 Nomor 6",1,jne,,20000.00,297000.00,,0.00,cod,317000,wait-payment,"30-01-2019 19:28"
140,SHOPBAY.ID,#SB100130,,"I7 TWS HEADSET BLUETOOTH WIRELESS","andra joistira",081347144636,efndra@gmail.com,IDN,"KALIMANTAN TIMUR","KABUPATEN BERAU","Kec. MARATUA",78560,"jln.batu payung maratua Rt.1",1,jne,,20000.00,297000.00,,0.00,cod,317000,wait-payment,"30-01-2019 14:22"
141,SHOPBAY.ID,#SB100129,,"I7 TWS HEADSET BLUETOOTH WIRELESS",Goeyardi,0816528108,Goeykoji@yahoo.com,IDN,BANTEN,"KOTA TANGERANG","Kec. CIPONDOH",15119,"Ruko permata niaga I no.25, tanah tinggi (sebelah bank cahaya)",1,jnt,,20000.00,297000.00,,0.00,cod,317000,wait-payment,"30-01-2019 09:41"
142,SHOPBAY.ID,#SB100128,,"I7 TWS HEADSET BLUETOOTH WIRELESS",Afrizal,082280558798,rizalriand@gmail.com,IDN,JAMBI,"KABUPATEN BATANG HARI","Kec. MERSAM",36654,"Desa simpang rantau gedang RT 005 (Kantor Desa Simpang Rantau Gedang)",1,jnt,,20000.00,297000.00,,0.00,cod,317000,wait-payment,"30-01-2019 09:24"
143,SHOPBAY.ID,#SB100127,,"I7 TWS HEADSET BLUETOOTH WIRELESS","Rifai Bayu Nugraha",081226675461,bakmijawabayu.magelang@gmail.com,IDN,"JAWA TENGAH","KABUPATEN MAGELANG","Kec. MERTOYUDAN",56172,"Jl melati no 22 rt12 rw04 mertoyudan",1,jnt,,20000.00,297000.00,,0.00,cod,317000,wait-payment,"30-01-2019 00:00"
144,SHOPBAY.ID,#SB100126,,"I7 TWS HEADSET BLUETOOTH WIRELESS",Faisal,082167799956,WE-elinno@yaho.com,IDN,ACEH,"KOTA BANDA ACEH","Kec. LUENG BATA",23248,"Jl.elang timur no 09 Blang cut",1,jne,,20000.00,297000.00,,0.00,cod,317000,wait-payment,"29-01-2019 21:54"
145,SHOPBAY.ID,#SB100125,,"I7 TWS HEADSET BLUETOOTH WIRELESS","Rasyid Ramadhan",085849754171,rasyid.ramadhan01@gmail.com,IDN,"KALIMANTAN SELATAN","KOTA BANJARMASIN","Kec. BANJARMASIN BARAT",70111,"Jalan Mayjend sutoyo s no 408 (Akper Kesdam 6)",1,jne,,20000.00,297000.00,,0.00,cod,317000,wait-payment,"29-01-2019 18:35"
146,SHOPBAY.ID,#SB100124,,"I7 TWS HEADSET BLUETOOTH WIRELESS",endang,081354398449,endangirawaty@yahoo.com,IDN,"JAWA TIMUR","KABUPATEN SIDOARJO","Kec. SIDOARJO",61225,"Pondok Mutiara blok BW no 11",1,jne,,20000.00,297000.00,,0.00,cod,317000,wait-payment,"29-01-2019 18:30"
147,SHOPBAY.ID,#SB100123,,"I7 TWS HEADSET BLUETOOTH WIRELESS","Budi handoko",085647777001,Budihandokopurbalingga@gmail.com,IDN,"JAWA TENGAH","KABUPATEN PURBALINGGA","Kec. PURBALINGGA",53311,"Jln. Kominot Asrama polisi polres purbalingga no 38/09",1,jne,,20000.00,297000.00,,0.00,transfer,317000,wait-payment,"29-01-2019 18:18"
148,SHOPBAY.ID,#SB100122,,"I7 TWS HEADSET BLUETOOTH WIRELESS","syaiful anwar",085238600865,awnk_tea@yahoo.com,IDN,"JAWA BARAT","KABUPATEN CIREBON","Kec. CIREBON BARAT",45154,"toko tiga utama jln.tuparev no.70a cirebon",1,jne,,20000.00,297000.00,,0.00,cod,317000,wait-payment,"29-01-2019 15:56"
149,SHOPBAY.ID,#SB100121,,"I7 TWS HEADSET BLUETOOTH WIRELESS","Rijalmen Mendrofa",08116339898,ricky.mendrova@yahoo.co.id,IDN,"SUMATERA UTARA","KABUPATEN NIAS UTARA","Kec. LAHEWA",22853,"Jln soekarno no 133",1,jne,,20000.00,297000.00,Freeongkir,20000.00,cod,297000,wait-payment,"29-01-2019 15:02"
150,SHOPBAY.ID,#SB100120,,"I7 TWS HEADSET BLUETOOTH WIRELESS","Dimas Prasetyahani",085747183070,dims.prasetya@gmail.com,IDN,"JAWA TENGAH","KABUPATEN BANYUMAS","Kec. PURWOREJO SELATAN",53147,"Jl. Sarwoendah 1 no.21 rt04 rw08",1,jne,,20000.00,297000.00,,0.00,cod,317000,wait-payment,"29-01-2019 13:56"
151,SHOPBAY.ID,#SB100119,,"I7 TWS HEADSET BLUETOOTH WIRELESS","Dimas Prasetyahani",085747183070,dims.prasetya@gmail.com,IDN,"JAWA TENGAH","KABUPATEN BANYUMAS","Kec. PURWOREJO SELATAN",53147,"Jl. Sarwoendah 1 no.21 rt04 rw08",1,jne,,20000.00,297000.00,,0.00,cod,317000,wait-payment,"29-01-2019 13:54"
152,SHOPBAY.ID,#SB100118,,"I7 TWS HEADSET BLUETOOTH WIRELESS",ioou,081909922122,sasa@gmail.com,IDN,"JAWA TENGAH","KABUPATEN SRAGEN","Kec. SIDOHARJO",12212,niko,1,jne,,20000.00,297000.00,FREEONGKIR,20000.00,cod,297000,wait-payment,"29-01-2019 11:32"
153,SHOPBAY.ID,#SB100117,,"I7 TWS HEADSET BLUETOOTH WIRELESS",Dani,085248184800,Danirahman333@gmail.com,IDN,"KALIMANTAN SELATAN","KOTA BANJARMASIN","Kec. BANJARMASIN BARAT",70116,"Jl belitung laut Gg. Sariawan RT 07 No 17",1,jne,,20000.00,297000.00,,0.00,cod,317000,wait-payment,"29-01-2019 11:23"
154,SHOPBAY.ID,#SB100116,,"I7 TWS HEADSET BLUETOOTH WIRELESS",Abdullatif,081360724466,Alabdul.latif1986@gmail.com,IDN,"SUMATERA UTARA","KOTA MEDAN","Kec. MEDAN TEMBUNG",20222,"Abdul latif",1,jnt,,20000.00,297000.00,,0.00,cod,317000,wait-payment,"29-01-2019 11:15"
155,SHOPBAY.ID,#SB100115,,"I7 TWS HEADSET BLUETOOTH WIRELESS","Rudy wijaya salim",0817802029,Rudy29salim@gmail.com,IDN,"DKI JAKARTA","KOTA JAKARTA UTARA","Kec. KELAPA GADING",14250,"Jalan gading nirwana I PF 16 no 8",1,jne,,20000.00,297000.00,,0.00,cod,317000,wait-payment,"29-01-2019 07:56"
156,SHOPBAY.ID,#SB100114,,"I7 TWS HEADSET BLUETOOTH WIRELESS","Fadil muhammad kosim",089648591130,fadilmuhammad1933@gmail.com,IDN,"JAWA BARAT","KABUPATEN BANDUNG","Kec. MARGAHAYU",40226,"Jl. Sekeloa no 24 RT 05 RW 09",1,jne,,20000.00,297000.00,,0.00,cod,317000,wait-payment,"29-01-2019 04:06"
157,SHOPBAY.ID,#SB100113,,"I7 TWS HEADSET BLUETOOTH WIRELESS","H Muhammad Chatab",08111077118,mchattab@yahoo.com,IDN,"KALIMANTAN TIMUR","KOTA SAMARINDA","Kec. SAMARINDA ULU",75117,"Jl Sei Brantas No 6",1,jne,,20000.00,297000.00,,0.00,transfer,317000,wait-payment,"29-01-2019 00:30"
158,SHOPBAY.ID,#SB100112,,"I7 TWS HEADSET BLUETOOTH WIRELESS","Chandra wijaya",081362264888,cwijaya233@gmail.com,IDN,"SUMATERA UTARA","KOTA MEDAN","Kec. MEDAN TIMUR",20371,"Dusun VII jl.budi utomo/pancing II",1,jnt,,20000.00,297000.00,,0.00,cod,317000,wait-payment,"28-01-2019 22:11"
159,SHOPBAY.ID,#SB100111,,"I7 TWS HEADSET BLUETOOTH WIRELESS",Milawati,+62822-5143-0201,devitrk915@gmail.com,IDN,"KALIMANTAN UTARA","KOTA TARAKAN","Kec. TARAKAN TENGAH",77113,"Selumit Darat, Gang Kenari RT.13, no.39",1,jne,,20000.00,297000.00,,0.00,cod,317000,wait-payment,"28-01-2019 20:15"
160,SHOPBAY.ID,#SB100110,,"I7 TWS HEADSET BLUETOOTH WIRELESS",Vika,082255239110,Selvennylisan@gmail.com,IDN,"KALIMANTAN BARAT","KOTA SINGKAWANG","Kec. SINGKAWANG TENGAH",73321,"Jln ks tubun",1,jne,,20000.00,297000.00,,0.00,cod,317000,wait-payment,"28-01-2019 11:18"
161,SHOPBAY.ID,#SB100109,,"I7 TWS HEADSET BLUETOOTH WIRELESS","Putri Brilliantin",085397296464,putribrilliantin@ymail.com,IDN,"SULAWESI SELATAN","KABUPATEN GOWA","Kec. SOMBA OPU",92114,"Kompleks anggrek blok AM 5 no 4, Minasa Upa",1,jnt,,20000.00,297000.00,,0.00,cod,317000,wait-payment,"28-01-2019 10:28"
162,SHOPBAY.ID,#SB100108,,"I7 TWS HEADSET BLUETOOTH WIRELESS","Teja Sungkawa",08122123164,teja140186@gmail.com,IDN,"JAWA BARAT","KABUPATEN BANDUNG","Kec. BALEENDAH",40375,"Jl. Adipati Agung No. 91 Kel. Baleendah",1,jnt,,20000.00,297000.00,,0.00,cod,317000,wait-payment,"28-01-2019 08:45"
163,SHOPBAY.ID,#SB100107,,"I7 TWS HEADSET BLUETOOTH WIRELESS",Ibrahim,085398807237,ktl_ibrahim@yahoo.com,IDN,"SULAWESI TENGGARA","KABUPATEN MUNA","Kec. KATOBU",93611,"Jalan Kantolalo",1,jnt,,20000.00,297000.00,FREEONGKIR,20000.00,cod,297000,wait-payment,"28-01-2019 08:41"
164,SHOPBAY.ID,#SB100106,,"I7 TWS HEADSET BLUETOOTH WIRELESS","Yudi irwansyah toha",085263007555,yudiirwansyahtoha@gmail.com,IDN,"SUMATERA UTARA","KOTA MEDAN","Kec. MEDAN LABUHAN",20251,"Jln. KL yos sudarso km 13.5 no 25 lk II ",1,jne,,20000.00,297000.00,,0.00,cod,317000,wait-payment,"27-01-2019 15:26"
165,SHOPBAY.ID,#SB100105,,"I7 TWS HEADSET BLUETOOTH WIRELESS","Tsaqila Muvidah Halimah",08129129747,Tsaqilahalimah@gmail.com,IDN,"JAWA BARAT","KOTA BEKASI","Kec. JATISAMPURNA",17435,"Citra Gran Cibubur Blok G 1 no 15, Central Garden Bulevard",1,jne,,20000.00,297000.00,,0.00,cod,317000,wait-payment,"27-01-2019 14:08"
166,SHOPBAY.ID,#SB100104,,"I7 TWS HEADSET BLUETOOTH WIRELESS","ahmad maryadi",0811937228,project5depok@gmail.com,IDN,"KALIMANTAN TIMUR","KOTA SAMARINDA","Kec. SAMARINDA ULU",75123,"	Jl. Aw Syahrani, Gg. 3B No.1, Air Hitam, Samarinda Ulu, Kota Samarinda, Kalimantan Timur 75123",1,jne,,20000.00,297000.00,,0.00,transfer,317000,payment-success,"27-01-2019 08:15"
167,SHOPBAY.ID,#SB100103,,"I7 TWS HEADSET BLUETOOTH WIRELESS",Taufiq,082252200275,jibunkatu@gmail.com,IDN,"KALIMANTAN SELATAN","KOTA BANJARMASIN","Kec. BANJARMASIN TIMUR",7024,"Jl. Pramuka komp. Tirta dharma . Dinas kesehatan kota Banjarmasin",1,jnt,,20000.00,297000.00,,0.00,cod,317000,wait-payment,"26-01-2019 16:22"
168,SHOPBAY.ID,#SB100102,,"I7 TWS HEADSET BLUETOOTH WIRELESS","Umar hadi",081325142631,Owner.bajoe@gmail.com,IDN,"KALIMANTAN TIMUR","KABUPATEN BERAU","Kec.  TANJUNG REDEB",77311,"Pesantren hidayatullah, Jl. P. HIDAYATULLAH ",1,jne,,20000.00,297000.00,,0.00,cod,317000,wait-payment,"26-01-2019 10:40"
169,SHOPBAY.ID,#SB100101,,"I7 TWS HEADSET BLUETOOTH WIRELESS","Olprine pangalasen",081244969032,mateipangalasen@gmail.com,IDN,"SULAWESI UTARA","KABUPATEN KEPULAUAN TALAUD","Kec. KABARUAN",95872,"Dusun II DESA PANGERAN ",1,jne,,20000.00,297000.00,,0.00,cod,317000,wait-payment,"25-01-2019 21:16"
170,SHOPBAY.ID,#SB100100,,"I7 TWS HEADSET BLUETOOTH WIRELESS","Foreman Hutasoit",085360821883,foremanhutasoit@gmail.com,IDN,"SUMATERA UTARA","KABUPATEN TAPANULI UTARA","Kec. SIBORONG - BORONG",22474,"Jln.sisingamangaraja no.102, disamping bank sumut siborongborong. ",1,jnt,,20000.00,297000.00,,0.00,cod,317000,wait-payment,"25-01-2019 16:04"
171,SHOPBAY.ID,#SB100099,,"I7 TWS HEADSET BLUETOOTH WIRELESS",Henderiwijaya,089643506224,Hendriwikaya778@gmail.com,IDN,"DKI JAKARTA","KOTA JAKARTA BARAT","Kec. KALI DERES",11830,"Jl.satu maret No7 pegadungan kalideres",1,jne,,20000.00,297000.00,,0.00,cod,317000,wait-payment,"25-01-2019 14:41"
172,SHOPBAY.ID,#SB100098,,"I7 TWS HEADSET BLUETOOTH WIRELESS","Tresa ",081222006922,wirantonoagus@yahoo.com,IDN,"JAWA TIMUR","KOTA SURABAYA","Kec. Rungkut",60296,"Wonorejo Permai VIII / 46",1,jne,,20000.00,297000.00,,0.00,cod,317000,wait-payment,"25-01-2019 13:15"
173,SHOPBAY.ID,#SB100097,,"I7 TWS HEADSET BLUETOOTH WIRELESS",andimangunsong,081918773436,andimangunsong666@gmail.com,IDN,"SUMATERA UTARA","KOTA MEDAN","Kec. MEDAN BARAT",20116,"jl pajak karya",1,jne,,20000.00,297000.00,,0.00,cod,317000,wait-payment,"25-01-2019 11:32"
174,SHOPBAY.ID,#SB100096,,"I7 TWS HEADSET BLUETOOTH WIRELESS","BAYU RAHMAWIJAYA DWIKUSUMA",082290211594,bayurahmawijaya@gmail.com,IDN,"SULAWESI TENGGARA","KABUPATEN KONAWE SELATAN","Kec. PALANGGA",93383,"Dusun bangun sari, desa Mekarsari kec. Palangga",1,jnt,,20000.00,297000.00,,0.00,cod,317000,wait-payment,"25-01-2019 10:34"
175,SHOPBAY.ID,#SB100095,,"I7 TWS HEADSET BLUETOOTH WIRELESS","Zainul Arisi",085934546302,enolengko@gmail.com,IDN,"NUSA TENGGARA BARAT","KABUPATEN LOMBOK TIMUR","Kec. PRINGGABAYA",83651,"Dasan tapen,desa telaga waru,kecamatan pringgabaya",1,jne,,20000.00,297000.00,,0.00,cod,317000,wait-payment,"25-01-2019 07:25"
176,SHOPBAY.ID,#SB100094,,"I7 TWS HEADSET BLUETOOTH WIRELESS","Rohmat kholis",081288183400,rohmatkholis.01@gmail.com,IDN,"DKI JAKARTA","KOTA JAKARTA TIMUR","Kec. DUREN SAWIT",13470,"YAYASAN NURUL IHSAN , Jl. I gustingurahrai buaran 1 RT 7/12 kel. Klender",1,jne,,20000.00,297000.00,,0.00,cod,317000,wait-payment,"25-01-2019 07:25"
177,SHOPBAY.ID,#SB100093,,"I7 TWS HEADSET BLUETOOTH WIRELESS","Abu Zed ",081517222222,abuzed@istiqamah.id,IDN,"SULAWESI SELATAN","KABUPATEN MAROS","Kec. MANDAI",90552,"Pesantren darul istiqamah pusat",1,jnt,,20000.00,297000.00,,0.00,cod,317000,wait-payment,"25-01-2019 04:34"
178,SHOPBAY.ID,#SB100092,,"I7 TWS HEADSET BLUETOOTH WIRELESS","Hanica Ayunia",089694861588,Hanicaayunia1@gmail.com,IDN,"SULAWESI UTARA","KOTA MANADO","Kec. MAPANGET",95252,"Perumahan Griya Paniki Indah Jl Bougenville 2 No 3",1,jnt,,20000.00,297000.00,FREEONGKIR,20000.00,cod,297000,wait-payment,"24-01-2019 20:45"
179,SHOPBAY.ID,#SB100091,,"I7 TWS HEADSET BLUETOOTH WIRELESS","Muslim baharudin",+6281266966804,Baharudin1519@gmail.com,IDN,"KEPULAUAN RIAU","KOTA B A T A M","Kec. Sagulung",29424,"Perum:BATU AJI RIAU BERTUAH TAHAP 1,Block i No 16",1,jne,,20000.00,297000.00,,0.00,cod,317000,wait-payment,"24-01-2019 19:06"
180,SHOPBAY.ID,#SB100090,,"I7 TWS HEADSET BLUETOOTH WIRELESS",testing,02312321,test@yahoo.com,IDN,RIAU,"KABUPATEN PELALAWAN","Kec. BUNUT",10234,"Jl Aja",1,jne,,20000.00,297000.00,,0.00,cod,317000,wait-payment,"24-01-2019 18:31"
181,SHOPBAY.ID,#SB100089,,"I7 TWS HEADSET BLUETOOTH WIRELESS",ssdsds,123232322,wds@gmail.com,IDN,"DI YOGYAKARTA","KABUPATEN KULON PROGO","Kec. WATES",12122,dsdsSDsd,1,jne,,20000.00,297000.00,,0.00,cod,317000,wait-payment,"24-01-2019 16:14"
182,SHOPBAY.ID,#SB100088,,"I7 TWS HEADSET BLUETOOTH WIRELESS","Risky Yohanes Ligouw",082188383570,yohanesmozartligouw@yahoo.co.id,IDN,"SULAWESI UTARA","KABUPATEN MINAHASA","Kec. PINELENG",95662,"Perumahana pineleng permai blok A no 1",1,jne,,20000.00,297000.00,,0.00,cod,317000,wait-payment,"24-01-2019 14:11"
183,SHOPBAY.ID,#SB100087,,"I7 TWS HEADSET BLUETOOTH WIRELESS","I Made Yogi Adi Nugraha",083117933097,Kadek.sidii@gmail.com,IDN,BALI,"KABUPATEN TABANAN","Kec. KEDIRI",82121,"Perumahan Griya Mulya Asri, pandak kebon",1,jne,,20000.00,297000.00,,0.00,transfer,317000,wait-payment,"24-01-2019 11:28"
184,SHOPBAY.ID,#SB100086,,"I7 TWS HEADSET BLUETOOTH WIRELESS","Koresh Kelelufna",081316228519,chorez_vhier85@yahoo.com,IDN,"PAPUA BARAT","KABUPATEN RAJA AMPAT","Kec. WAIGEO SELATAN",98482,"Waisai,komplek PSG, Kelurahan Warmasen",1,jne,,20000.00,297000.00,,0.00,cod,317000,wait-payment,"24-01-2019 10:38"
185,SHOPBAY.ID,#SB100085,,"I7 TWS HEADSET BLUETOOTH WIRELESS","Abdul aziz h e",085394928903,abdulazizoase@gmail.com,IDN,"SULAWESI TENGAH","KOTA PALU","Kec. PALU TIMUR",94114,"Jln setia budi no 9 lorong gapensi",1,jnt,,20000.00,297000.00,,0.00,cod,317000,wait-payment,"23-01-2019 19:11"
186,SHOPBAY.ID,#SB100084,,"I7 TWS HEADSET BLUETOOTH WIRELESS",Tust,0832424213,testus@yahoo.com,IDN,"DKI JAKARTA","KOTA JAKARTA TIMUR","Kec. CIPAYUNG",11470,"Jl. Testus",1,jne,,8000.00,297000.00,FREEONGKIR,20000.00,cod,285000,wait-payment,"23-01-2019 16:58"
187,SHOPBAY.ID,#SB100083,,"I7 TWS HEADSET BLUETOOTH WIRELESS",Test,08766342342,test@yahoo.com,IDN,"SUMATERA BARAT","KABUPATEN SOLOK","Kec. BUKIT SUNDI",19283,"Jl. Jilin",1,jne,,39000.00,297000.00,FREEONGKIR,20000.00,cod,316000,wait-payment,"23-01-2019 16:54"
188,SHOPBAY.ID,#SB100082,,"I7 TWS HEADSET BLUETOOTH WIRELESS","Michael Hadiyanto",0811843429,michael_hadiyanto@yahoo.com,IDN,"DKI JAKARTA","KOTA JAKARTA SELATAN","Kec. PASAR MINGGU",12520,"Cipta Bangun Jaya, jl. Ragunan no 51 pasar minggu. Dpn PD Pasar Jaya. Deretan polsek pasar minggu",1,jne,,8000.00,297000.00,,0.00,cod,305000,wait-payment,"22-01-2019 15:05"
189,SHOPBAY.ID,#SB100081,,"I7 TWS HEADSET BLUETOOTH WIRELESS",Rofi'uddin,087788363860,Ofik186lh@gmail.com,IDN,"DKI JAKARTA","KOTA JAKARTA PUSAT","Kec. GAMBIR",10110,"Lenggang jakarta",1,jne,,8000.00,297000.00,,0.00,cod,305000,wait-payment,"22-01-2019 13:08"
190,SHOPBAY.ID,#SB100080,,"I7 TWS HEADSET BLUETOOTH WIRELESS","Imam fausi",083853144441,Fauzidrt15@gmail.com,IDN,"JAWA TIMUR","KABUPATEN BANGKALAN","Kec. Socah",69161,"Dsn jaddih selatan 02",1,jnt,,30000.00,297000.00,,0.00,cod,327000,wait-payment,"22-01-2019 12:24"
191,SHOPBAY.ID,#SB100079,,"I7 TWS HEADSET BLUETOOTH WIRELESS",Imron,085363220000,Imronmanwar19@gmail.com,IDN,"SUMATERA SELATAN","KABUPATEN OGAN KOMERING ULU TIMUR","Kec. MADANG SUKU   I",32162,"Desa Rasuan Rt 01 Rw 05 ",1,jnt,,30000.00,297000.00,,0.00,cod,327000,wait-payment,"21-01-2019 23:17"
192,SHOPBAY.ID,#SB100078,,"I7 TWS HEADSET BLUETOOTH WIRELESS",Syela,081212906003,Syela.mantiri@yahoo.com,IDN,BANTEN,"KOTA TANGERANG","Kec. TANGERANG",15810,"Cluster Sapphire Jl. Kintamani Golf 13 no.10 PHG sumarecon gading serpong",1,jne,,8000.00,297000.00,,0.00,cod,305000,wait-payment,"21-01-2019 19:54"
193,SHOPBAY.ID,#SB100077,,"I7 TWS HEADSET BLUETOOTH WIRELESS","Said juttar",082291459262,Zhaid02.mmm@gmail.com,IDN,"SULAWESI SELATAN","KABUPATEN BULUKUMBA","Kec. KAJANG",92574,"Desa bontorannu kec kajang",1,jnt,,30000.00,297000.00,,0.00,transfer,327000,wait-payment,"21-01-2019 18:12"
194,SHOPBAY.ID,#SB100076,,"I7 TWS HEADSET BLUETOOTH WIRELESS",Ariani,081233349707,They.qni01@gmail.com,IDN,BALI,"KABUPATEN BADUNG","Kec. KUTA SELATAN",80363,"Jalan Pratama 77 Tanjung Benoa coconut resto depan Taman bagawan ",1,jne,,19000.00,297000.00,,0.00,cod,316000,wait-payment,"21-01-2019 16:06"
195,SHOPBAY.ID,#SB100075,,"I7 TWS HEADSET BLUETOOTH WIRELESS","Nuzulul Furqon",081217897291,furqonnuzulul24@gmail.com,IDN,"JAWA TIMUR","KABUPATEN BANGKALAN","Kec. Bangkalan",69112,"Jl.raya bancaran kamp.leban rt02/rw07",1,jne,,21000.00,297000.00,,0.00,cod,318000,wait-payment,"21-01-2019 10:56"
196,SHOPBAY.ID,#SB100074,,"I7 TWS HEADSET BLUETOOTH WIRELESS",Kurniawan,081351926099,Benyamin.kurniawan@gmail.com,IDN,"KALIMANTAN BARAT","KABUPATEN KETAPANG","Kec. SANDAI",78871,"Jln.istana jaya 2 dusun terap",1,jnt,,30000.00,297000.00,,0.00,cod,327000,wait-payment,"21-01-2019 06:54"
197,SHOPBAY.ID,#SB100073,,"I7 TWS HEADSET BLUETOOTH WIRELESS","Malun bariroh",081349606622,Riyamalun@gmail.com,IDN,"KALIMANTAN TENGAH","KABUPATEN KOTAWARINGIN TIMUR","Kec. BAAMANG",74312,"Jln Sari Gading Darat no 52",1,jnt,,30000.00,297000.00,,0.00,cod,327000,wait-payment,"20-01-2019 23:25"
198,SHOPBAY.ID,#SB100072,,"I7 TWS HEADSET BLUETOOTH WIRELESS","Hunafa Shidqi Prawira",085381265806,prawira123@gmail.com,IDN,"SUMATERA UTARA","KOTA MEDAN","Kec. MEDAN AMPLAS",20147,"Jl. Bajak 2 gg. Cengkeh no. 75g",1,jne,,27000.00,297000.00,,0.00,cod,324000,wait-payment,"20-01-2019 20:24"
199,SHOPBAY.ID,#SB100071,,"I7 TWS HEADSET BLUETOOTH WIRELESS","Deden Sutrisna ",081284138811,dedenbrennan@gmail.com,IDN,BALI,"KOTA DENPASAR","Kec. DENPASAR BARAT",80114,"a/n : Deden Brennan  Alamat : Appartement Ganidha  Jl. Gunung soputan 1a no 5. Room A 101 Denpasar - 80119. Denpasar - Bali.(081284138811) Reg Note : Tolong kurir SMS/telp jika barang Sudah sampe!",1,jne,,19000.00,297000.00,,0.00,cod,316000,wait-payment,"20-01-2019 12:59"
200,SHOPBAY.ID,#SB100070,,"I7 TWS HEADSET BLUETOOTH WIRELESS","Khayyul Imdad",081325764222,imdadkhayyul@gmail.com,IDN,"JAWA TENGAH","KABUPATEN JEPARA","Kec. WELAHAN",59464,"Kalipucangkulon 006/003",1,jnt,,30000.00,297000.00,,0.00,transfer,327000,wait-payment,"20-01-2019 08:44"
201,SHOPBAY.ID,#SB100069,,"I7 TWS HEADSET BLUETOOTH WIRELESS","Oji Widaryanto",081281180407,Ojiqbord@yahoo.com,IDN,"JAWA BARAT","KABUPATEN BEKASI","Kec. TAMBUN UTARA",17510,"Bumi Anggrek blok R180, Karang Satria, Tambun Utara, Bekasi",1,jnt,,30000.00,297000.00,,0.00,transfer,327000,wait-payment,"20-01-2019 08:21"
202,SHOPBAY.ID,#SB100068,,"I7 TWS HEADSET BLUETOOTH WIRELESS","Achmad Maulizal",081210668545,ach.maulizal@gmail.com,IDN,"DKI JAKARTA","KOTA JAKARTA TIMUR","Kec. DUREN SAWIT",13460,"Jl. Delima 3 No. K19 Klender Buaran",1,jne,,8000.00,297000.00,,0.00,cod,305000,wait-payment,"19-01-2019 19:36"
203,SHOPBAY.ID,#SB100067,,"I7 TWS HEADSET BLUETOOTH WIRELESS",Ariwijaya,08125952910,ariwijaya754@gmail.com,IDN,"KALIMANTAN TIMUR","KOTA SAMARINDA","Kec. SAMARINDA ILIR",75114,"Jl.sultan alimuddin no.16 rt.25 kelurahan selili",1,jnt,,30000.00,297000.00,,0.00,cod,327000,wait-payment,"19-01-2019 08:40"
204,SHOPBAY.ID,#SB100066,,"I7 TWS HEADSET BLUETOOTH WIRELESS","Redi sunandar",081288117677,redisunandar@gmail.com,IDN,"KALIMANTAN BARAT","KABUPATEN KAPUAS HULU","Kec. PUTUSSIBAU",78711,"Samsat Putussibau jalan pendidikan no.1 Putussibau kel.putussibau kota lec.putussibau utara ",1,jnt,,30000.00,297000.00,FREEONGKIR,20000.00,cod,307000,wait-payment,"19-01-2019 07:41"
205,SHOPBAY.ID,#SB100065,,"I7 TWS HEADSET BLUETOOTH WIRELESS","Adih setiadi",082339293378,Adisetiadi299@gmail.com,IDN,"NUSA TENGGARA BARAT","KOTA BIMA","Kec. RASANAE TIMUR",841119,"Jln,terusan sape kodo2 rt02/01 rasanae timur",1,jnt,,30000.00,297000.00,,0.00,cod,327000,wait-payment,"19-01-2019 07:28"
206,SHOPBAY.ID,#SB100064,,"I7 TWS HEADSET BLUETOOTH WIRELESS","ode rajab",082248466916,oderajab1707@gmail.com,IDN,PAPUA,"KABUPATEN KEPULAUAN YAPEN","Kec. YAPEN TIMUR",98252,awunawai,1,jnt,,30000.00,297000.00,,0.00,cod,327000,wait-payment,"19-01-2019 03:06"
207,SHOPBAY.ID,#SB100063,,"I7 TWS HEADSET BLUETOOTH WIRELESS","Hardiantaa ginting",081282071431,herdiantaginting60@gmail.com,IDN,"DKI JAKARTA","KOTA JAKARTA PUSAT","Kec. KEMAYORAN",09809,"Jln bendungan jago gang teratai 1 no 4",1,jne,,8000.00,297000.00,,0.00,cod,305000,wait-payment,"19-01-2019 01:18"
208,SHOPBAY.ID,#SB100062,,"I7 TWS HEADSET BLUETOOTH WIRELESS",Yanti,085270978080,anosionzalukhu@gmail.com,IDN,"SUMATERA UTARA","KABUPATEN NIAS UTARA","Kec. LAHEWA",22856,"JL. IDANONDRAWA LOAWOWAGA DEPAN PUSTU IDANONDRAWA",1,jnt,,30000.00,297000.00,,0.00,cod,327000,wait-payment,"18-01-2019 11:27"
209,SHOPBAY.ID,#SB100061,,"I7 TWS HEADSET BLUETOOTH WIRELESS",Harvin,"0821 1208 8895",harvinsumampouw82@gmail.com,IDN,PAPUA,"KABUPATEN MIMIKA","Kec. MIMIKA  BARU",99910,"Jl.Yos Sudarso No.5",1,jnt,,30000.00,297000.00,,0.00,cod,327000,wait-payment,"18-01-2019 06:57"
210,SHOPBAY.ID,#SB100060,,"I7 TWS HEADSET BLUETOOTH WIRELESS","Andes Mariyanto",082338185899,andesmariyanto55@gmail.com,IDN,BALI,"KABUPATEN BADUNG","Kec. KUTA SELATAN",8361,"Jln.uluwatu kelan-kedonganan gg.soka 1 No.09",1,jne,,19000.00,297000.00,,0.00,cod,316000,wait-payment,"18-01-2019 06:25"
211,SHOPBAY.ID,#SB100059,,"I7 TWS HEADSET BLUETOOTH WIRELESS","Muhammad shaleh",0812-1209-6012,shalehalimin90@gmail.com,IDN,"SULAWESI TENGAH","KABUPATEN MOROWALI","Kec. BUNGKU TENGAH",92545,"Desa keurea",1,jnt,,30000.00,297000.00,,0.00,cod,327000,wait-payment,"17-01-2019 12:42"
212,SHOPBAY.ID,#SB100058,,"I7 TWS HEADSET BLUETOOTH WIRELESS",suparto,0895335996550,pirtikpanhoten@gmail.com,IDN,"SUMATERA UTARA","KOTA MEDAN","Kec. MEDAN TEMBUNG",20224,"jln pukat 1 komplek junction 43a",1,jne,,27000.00,297000.00,,0.00,cod,324000,wait-payment,"16-01-2019 22:27"
213,SHOPBAY.ID,#SB100057,,"I7 TWS HEADSET BLUETOOTH WIRELESS",budi,085251466666,imoet.budi@gmail.com,IDN,"KALIMANTAN TIMUR","KABUPATEN PASER","Kec. TANAH GROGOT",76211,"jl.DI.Panjaitan gang batu alam RT02 RW03 Desa Tapis ",1,jnt,,30000.00,297000.00,,0.00,cod,327000,wait-payment,"16-01-2019 20:36"
214,SHOPBAY.ID,#SB100056,,"I7 TWS HEADSET BLUETOOTH WIRELESS","Daniel octovan",081241218299,Multimediaku266@yahoo.co.id,IDN,PAPUA,"KOTA JAYAPURA","Kec. ABEPURA",90001,"Jln proyek masa indah dpn lapangan bola abhokhow waena distrik heram kel yabansai waena jayapura papua",1,jnt,,30000.00,297000.00,,0.00,cod,327000,wait-payment,"16-01-2019 16:04"
215,SHOPBAY.ID,#SB100055,,"I7 TWS HEADSET BLUETOOTH WIRELESS",Sofyan,0811526532,Kausarpalangkaraya@yahoo.com,IDN,"KALIMANTAN TENGAH","KOTA PALANGKA RAYA","Kec. PAHANDUT",73111,"Jalan darmosugondo 52 palangkaraya",1,jnt,,30000.00,297000.00,,0.00,cod,624000,wait-payment,"16-01-2019 11:43"
216,SHOPBAY.ID,#SB100054,,"I7 TWS HEADSET BLUETOOTH WIRELESS",Putraleo,081395340685,Putraleozendt@gmail.com,IDN,"SUMATERA UTARA","KOTA MEDAN","Kec. MEDAN POLONIA",20152,"Jl. Muara takus samping kantor pos medan polonia",1,jne,,27000.00,297000.00,,0.00,cod,324000,wait-payment,"16-01-2019 10:10"
217,SHOPBAY.ID,#SB100053,,"I7 TWS HEADSET BLUETOOTH WIRELESS","Daeng Iqbal",085345241456,Samsung.sst6776@gmail.com,IDN,"KALIMANTAN BARAT","KABUPATEN KUBU RAYA","Kec. TELUK PAKEDAI",78383,"Jln pematang mas desa selat remis Rt03/03 no30 kec teluk pakedai",1,jne,,49000.00,297000.00,,0.00,cod,346000,wait-payment,"15-01-2019 23:55"
218,SHOPBAY.ID,#SB100052,,"I7 TWS HEADSET BLUETOOTH WIRELESS","andul mutakhir",081342927602,airah277@gmail.com,IDN,"SULAWESI TENGGARA","KOTA KENDARI","Kec. MANDONGA",93111,"jln. malik raya by pass wisma putri dara samping graha pena kendari pos",1,jne,,45000.00,297000.00,,0.00,cod,342000,wait-payment,"15-01-2019 17:57"
219,SHOPBAY.ID,#SB100051,,"I7 TWS HEADSET BLUETOOTH WIRELESS","Olprine Pangalasen ",081244969032,mateipangalasen@gmail.com,IDN,"SULAWESI UTARA","KABUPATEN KEPULAUAN TALAUD","Kec. KABARUAN",95872,"Dusun II desa Pangeran Kec. Kabaruan",1,jne,,69000.00,297000.00,,0.00,cod,366000,wait-payment,"15-01-2019 16:32"
220,SHOPBAY.ID,#SB100050,,"I7 TWS HEADSET BLUETOOTH WIRELESS","Ahmad subhan",08989885521,achmadsubhan272@gmail.com,IDN,"JAWA TENGAH","KABUPATEN PEMALANG","Kec. RANDUDONGKAL",52353,"Ds. Semingkir Rt 01/02",1,jne,,23000.00,297000.00,,0.00,cod,320000,wait-payment,"15-01-2019 07:51"
221,SHOPBAY.ID,#SB100049,,"I7 TWS HEADSET BLUETOOTH WIRELESS","Ipung maulana",085349703277,kentopunk88@gmail.com,IDN,"KALIMANTAN TIMUR","KABUPATEN BERAU","Kec.  TANJUNG REDEB",773111,"Karang Ambon,GG swadayya",1,jne,,56000.00,297000.00,,0.00,transfer,353000,wait-payment,"15-01-2019 07:10"
222,SHOPBAY.ID,#SB100048,,"I7 TWS HEADSET BLUETOOTH WIRELESS","Amri Gustian",085211498011,eralsaputra12@gmail.com,IDN,RIAU,"KABUPATEN INDRAGIRI HULU","Kec. RENGAT BARAT",29351,"JL.lintas timur pematang rebah/gang KEMUNING pematang rebah",1,jnt,,30000.00,297000.00,,0.00,cod,327000,wait-payment,"14-01-2019 22:50"
223,SHOPBAY.ID,#SB100047,,"I7 TWS HEADSET BLUETOOTH WIRELESS","Alfons Laia",082273611493,alfonslaia900@gmail.com,IDN,"SUMATERA UTARA","KABUPATEN NIAS","Kec. GUNUNG SITOLI",22815,"Paroki St. Maria BPB, Jln Karet no. 33a",1,jnt,,30000.00,297000.00,,0.00,cod,327000,wait-payment,"14-01-2019 20:33"
224,SHOPBAY.ID,#SB100046,,"I7 TWS HEADSET BLUETOOTH WIRELESS",Rosdiana,085224436464,dian.azkaghaniabqari@yahoo.co.id,IDN,"JAWA BARAT","KABUPATEN TASIKMALAYA","Kec. SINGAPARNA",46414,"Kantor Kecamatn Singaparna jl. Bojongkoneng Singaparna Tasikmalaya",1,jne,,15000.00,297000.00,,0.00,cod,312000,wait-payment,"14-01-2019 12:20"
225,SHOPBAY.ID,#SB100045,,"I7 TWS HEADSET BLUETOOTH WIRELESS",Yonga,085216796363,Yongadunhill@gmail.com,IDN,"DKI JAKARTA","KOTA JAKARTA UTARA","Kec. PENJARINGAN",14450,"Jln c no 73a",1,jne,,8000.00,297000.00,,0.00,transfer,305000,wait-payment,"14-01-2019 09:06"
226,SHOPBAY.ID,#SB100039,,"I7 TWS HEADSET BLUETOOTH WIRELESS",mahyanuddin,081360362251,spulim43@gmail.com,IDN,ACEH,"KOTA LANGSA","Kec. ",24415,"jln perumnas desa birem puntong (kantor kpu kota langsa)",1,jne,,20000.00,297000.00,,0.00,cod,317000,wait-payment,"13-01-2019 17:59"
227,SHOPBAY.ID,#SB100038,,"I7 TWS HEADSET BLUETOOTH WIRELESS","Vieko Rompas",082290460133,mocosz.13@gmail.com,IDN,"SULAWESI UTARA","KOTA BITUNG","Kec. ",95514,"PT.Indofoot sukses makmur TBK cabang bitung",1,jne,,20000.00,297000.00,,0.00,transfer,317000,wait-payment,"13-01-2019 16:29"
228,SHOPBAY.ID,#SB100037,,"I7 TWS HEADSET BLUETOOTH WIRELESS","Andi Muhammad Rizal Wawo ",085234562627,rizal.wawo@icloud.com,IDN,"SULAWESI SELATAN","KOTA MAKASSAR","Kec. ",90231,"Jl. Pengayoman kompleks Bougenville blok. C No.1",1,jne,,20000.00,297000.00,,0.00,cod,317000,wait-payment,"13-01-2019 13:32"
229,SHOPBAY.ID,#SB100036,,"I7 TWS HEADSET BLUETOOTH WIRELESS","Reza maulana",08175910133,Rezamaualan@gmail.com,IDN,"JAWA TIMUR","KOTA MALANG","Kec. ",65139,"Jl.sawunggaling no 77",1,jne,,20000.00,297000.00,,0.00,cod,317000,wait-payment,"12-01-2019 22:42"
230,SHOPBAY.ID,#SB100035,,"I7 TWS HEADSET BLUETOOTH WIRELESS",Harman,085398087772,pnpm.barat@gmail.com,IDN,"SULAWESI SELATAN","KABUPATEN BONE","Kec. ",92700,"Jalan lapawawoi karaeng sigeri lorong persatuan samping mesjid supukalau",1,jne,,20000.00,297000.00,,0.00,cod,317000,wait-payment,"12-01-2019 03:08"
231,SHOPBAY.ID,#SB100034,,"I7 TWS HEADSET BLUETOOTH WIRELESS","Deden Sutrisna ",081284138811,dedenbrennan@gmail.com,IDN,"DKI JAKARTA","KOTA JAKARTA PUSAT","Kec. ",10240,"Appartement Citylofts Citywalk unit.2822 Sudirman Jakarta Pusat",1,jne,,20000.00,297000.00,,0.00,cod,317000,wait-payment,"11-01-2019 22:19"
232,SHOPBAY.ID,#SB100033,,"I7 TWS HEADSET BLUETOOTH WIRELESS","Kurniadi Syahputra",085271010121,Kurniadisyah@gmail.com,IDN,RIAU,"KOTA PEKANBARU","Kec. ",28125,"Jl.Air Dingin Perumahan D'Anugrah Block E7",1,jne,,20000.00,297000.00,,0.00,cod,317000,wait-payment,"11-01-2019 20:50"
233,SHOPBAY.ID,#SB100032,,"I7 TWS HEADSET BLUETOOTH WIRELESS","Jl.Yos Sudarso No.5",+6282112088895,harvinsumampouw82@gmail.com,IDN,PAPUA,"KABUPATEN MIMIKA","Kec. ",99910,"Jl.Yos Sudarso No.5",1,jne,,20000.00,297000.00,,0.00,cod,317000,wait-payment,"11-01-2019 16:54"
234,SHOPBAY.ID,#SB100031,,"I7 TWS HEADSET BLUETOOTH WIRELESS","Nemin. ",081362635477,nemin.aminudin97@gmail.com,IDN,ACEH,"KABUPATEN SIMEULUE","Kec. ",83893,"Labuhan bakti ",1,jne,,20000.00,297000.00,,0.00,cod,317000,wait-payment,"11-01-2019 16:15"
235,SHOPBAY.ID,#SB100030,,"I7 TWS HEADSET BLUETOOTH WIRELESS",Susandi,085247020767,Shandyselow@gmail.com,IDN,"KALIMANTAN BARAT","KOTA PONTIANAK","Kec. ",78235,"Tj,raya 1 kampung dalam belakang mesjid jami",1,jne,,20000.00,297000.00,,0.00,cod,317000,wait-payment,"11-01-2019 09:17"
236,SHOPBAY.ID,#SB100029,,"I7 TWS HEADSET BLUETOOTH WIRELESS","Dede purwanto",087743554323,dedepurwanto77249@gmail.com,IDN,"JAWA BARAT","KABUPATEN BANDUNG","Kec. ",40614,"Jl soekarnohatta no 851 cibiru depan stikes bhakti kencana bandung",1,jnt,,20000.00,297000.00,,0.00,cod,317000,wait-payment,"10-01-2019 23:50"
237,SHOPBAY.ID,#SB100021,,"I7 TWS HEADSET BLUETOOTH WIRELESS","Bintang Suryo",08972332342,bintang.suryo@gmail.com,IDN,BANTEN,"KOTA TANGERANG SELATAN","Kec. ",15417,"Jalan Kemuning 5, Pamulang Park Residence Blok K24, Pamulang Barat",1,jnt,,20000.00,299000.00,FREEONGKIR,20000.00,transfer,299000,wait-payment,"09-01-2019 11:55"
238,SHOPBAY.ID,#SB100019,,"I7 TWS HEADSET BLUETOOTH WIRELESS",Syapri,08126044852,syapri.lawyer@gmail.com,IDN,"SUMATERA UTARA","KABUPATEN DELI SERDANG","Kec. ",20371,"Jalan Beringin Pasar V No. 16 Tembung, Percut Sei Tua ",1,jnt,,20000.00,299000.00,,0.00,cod,319000,delivery-process,"08-01-2019 22:32"
