No,Account,"Order Code","Product Code","Product Name","Customer Name",Mobile-Phone,Email,Country,Province,City,Area,"Zip Code",Address,"Order Quantity","Logistic Company","Tracking Code","Shipping Cost",Price,"Coupon Code","Value Coupon","Payment Method",Total,Status,Date
1,NEXBAY.ID,#NEX100513,NBS00000005JBLGO,"JBL GO 2","luriza alfariez",0616645646,azazelaguero@gmail.com,IDN,"SUMATERA UTARA","KOTA MEDAN","Kec. MEDAN TIMUR",20239,"Jl. Komisi C Komp. DPRD No 11 TK1",1,jne,,20000.00,299000.00,,0.00,cod,319000,wait-payment,"20-04-2019 13:55"
2,NEXBAY.ID,#NEX100512,NBS00000005JBLGO,"JBL GO 2","MELY BAGIAN DOCUMENT",081382188863,Putrishafaaaa@gmail.com,IDN,"DKI JAKARTA","KOTA JAKARTA BARAT","Kec. TAMAN SARI",11150,"Pt.anta vaya tour n travel Jl.hayam wuruk raya no 88",1,jnt,,20000.00,299000.00,,0.00,cod,319000,wait-payment,"20-04-2019 13:18"
3,NEXBAY.ID,#NEX100511,NBS00000004JBLGO,"JBL GO 2","Alduvan Zakariah Hamzah",085230120043,alazah99@gmail.com,IDN,"JAWA TIMUR","KOTA SURABAYA","Kec. Gubeng",60286,"Jl Karangmenjangan VI no 45B",1,jne,,20000.00,299000.00,,0.00,cod,319000,wait-payment,"20-04-2019 12:48"
4,NEXBAY.ID,#NEX100510,NBS00000004JBLGO,"JBL GO 2","Umair sulaiman",082111294062,Umairsulaiman@ymail.com,IDN,BANTEN,"KOTA TANGERANG","Kec. CIPONDOH",15141,"jl. Ketapang poncol, RT 003 / RW 003 No.64, Ketapang, Cipondoh, Tangerang",1,jne,,20000.00,299000.00,,0.00,transfer,319000,cancel,"20-04-2019 12:02"
5,NEXBAY.ID,#NEX100509,NBS00000001JBLGO,"JBL GO 2","Catherine Larasati",081282852886,caterinalarasati@yahoo.com,IDN,"JAWA BARAT","KOTA DEPOK","Kec. SUKMAJAYA",16416,"perumahan taman duta jalan teratai 3 blok a6 no 3 RT 002 RW 010 kelurahan cisalak kode pos 16416 kota depok provinsi jawa barat Kecamatan:sukmajaya",1,jne,,20000.00,299000.00,,0.00,cod,319000,payment-success,"20-04-2019 11:30"
6,NEXBAY.ID,#NEX100508,NBS00000005JBLGO,"JBL GO 2","Michael Kristianto",081215867776,michael.gmbjunior@gmail.com,IDN,"JAWA TENGAH","KOTA SURAKARTA","Kec. LAWEYAN",57141,"Jl. Angling Darmo 2/7A. Penumping, Laweyan. Solo",1,jnt,,20000.00,299000.00,,0.00,cod,319000,payment-success,"20-04-2019 11:17"
7,NEXBAY.ID,#NEX100507,NBS00000001JBLGO,"JBL GO 2","Dimas amalia",081806360029,Dimasamalia3@gmail.com,IDN,BANTEN,"KABUPATEN TANGERANG","Kec. PASAR KEMIS",15560,"Bumi Pasar Kemis Indah Blok E2 No 11. Rt 06 Rw 06. Kabupaten Tangerang.",1,jnt,,20000.00,299000.00,,0.00,cod,319000,payment-success,"20-04-2019 11:05"
8,NEXBAY.ID,#NEX100506,NBS00000002JBLGO,"JBL GO 2","alam dava arkananta",085335147320,alamdava@gmail.com,IDN,"JAWA TIMUR","KOTA SURABAYA","Kec. Wiyung",60227,"karangan mulya 1 no.37",1,jnt,,20000.00,299000.00,freeongkir,20000.00,transfer,299000,wait-payment,"20-04-2019 11:00"
9,NEXBAY.ID,#NEX100505,NBS00000002JBLGO,"JBL GO 2","agus fonna",085277344075,agusfonna@yahoo.com,IDN,ACEH,"KOTA BANDA ACEH","Kec. SYIAH KUALA",23115,"jl peurada utama lr akasia no 18",1,jne,,20000.00,299000.00,,0.00,transfer,319000,payment-success,"20-04-2019 10:53"
10,NEXBAY.ID,#NEX100504,NBS00000001JBLGO,"JBL GO 2","Muhammad reza alkindi",081266997884,mhdreza8888@gmail.com,IDN,RIAU,"KOTA PEKANBARU","Kec. MARPOYAN DAMAI",28125,"Jln inpres komplek bumi sari asri blok b 2 no 10",1,jne,,20000.00,299000.00,,0.00,transfer,319000,wait-payment,"20-04-2019 10:22"
11,NEXBAY.ID,#NEX100503,NBS00000001JBLGO,"JBL GO 2","Ngakan arimbawa",081915664190,ngakanbetok87@gmail.com,IDN,BALI,"KOTA DENPASAR","Kec. DENPASAR BARAT",80014,"Jln Pulau nusa penida no 26 dauh puri kelod, denpasar barat ",1,jne,,20000.00,299000.00,,0.00,cod,319000,payment-success,"20-04-2019 10:11"
12,NEXBAY.ID,#NEX100502,NBS00000002JBLGO,"JBL GO 2","Richard Junior",082111111725,richardpjr98@gmail.com,IDN,"DKI JAKARTA","KOTA JAKARTA SELATAN","Kec. PASAR MINGGU",12510,"Jl. Poltangan 1 No. 35 RT. 1 RW. 10 Pejaten Timur",1,jnt,,20000.00,299000.00,FREEONGKIR,20000.00,cod,299000,payment-success,"20-04-2019 09:47"
13,NEXBAY.ID,#NEX100501,NBS00000001JBLGO,"JBL GO 2","Yogi Alif Rahmanda",087771296186,Yoginaila75@gmail.com,IDN,BANTEN,"KOTA TANGERANG SELATAN","Kec. Pamulang",15415,"JL.kavling keuangan Gg.masjid jam’i at-tauhid RT.03 RW.12 no.25",1,jne,,20000.00,299000.00,,0.00,cod,319000,payment-success,"20-04-2019 09:45"
14,NEXBAY.ID,#NEX100500,NBS00000005JBLGO,"JBL GO 2","Andhika zakaria anwar",087774645498,Andikazakariaa@yahoo.com,IDN,"DKI JAKARTA","KOTA JAKARTA TIMUR","Kec. PASAR REBO",13770,"Asr den ang mor rt 003/006",1,jnt,,20000.00,299000.00,,0.00,cod,319000,wait-payment,"20-04-2019 09:41"
15,NEXBAY.ID,#NEX100499,NBS00000004JBLGO,"JBL GO 2","H HERSETO",081392064414,hherseto94@gmail.com,IDN,"DKI JAKARTA","KOTA JAKARTA TIMUR","Kec. JATINEGARA",13340,"BHINEKA RAYA NO 65, CIPINANG CEMPEDAK, CAWANG BARU, JATINEGARA",1,jne,,20000.00,299000.00,FREEONGKIR,20000.00,cod,299000,payment-success,"20-04-2019 09:32"
16,NEXBAY.ID,#NEX100498,NBS00000003JBLGO,"JBL GO 2","Debby Hutabarat",082166853873,debby.dbrh29@gmail.com,IDN,"JAWA BARAT","KOTA BANDUNG","Kec. SUKAJADI",40163,"Jl. Sukakarya I no 13, Home Sweet Home, Sukagalih, Sukajadi, Bandung",1,jne,,20000.00,299000.00,,0.00,transfer,319000,wait-payment,"20-04-2019 09:25"
17,NEXBAY.ID,#NEX100497,NBS00000004JBLGO,"JBL GO 2","H HERSETO",081392064414,hherseto94@gmail.com,IDN,"DKI JAKARTA","KOTA JAKARTA TIMUR","Kec. JATINEGARA",13340,"BHINEKA RAYA NO 65 CIPINANG CEMPEDAK, CAWANG, JAKARTA TIMUR",1,jne,,20000.00,299000.00,,0.00,cod,319000,cancel,"20-04-2019 08:21"
18,NEXBAY.ID,#NEX100496,NBS00000002JBLGO,"JBL GO 2","Igede ariyawan","0821 94276878",Igedeariyawan@yahoo.com,IDN,BALI,"KABUPATEN BADUNG","Kec. ABIANSEMAL",80352,"Abiansemal,br pande ,badung",1,jne,,20000.00,299000.00,,0.00,cod,319000,payment-success,"20-04-2019 08:01"
19,NEXBAY.ID,#NEX100495,NBS00000004JBLGO,"JBL GO 2","Rakanda eka prasetyo",08112291396,rakandaekap@gmail.com,IDN,"JAWA BARAT","KOTA BANDUNG","Kec. BABAKAN CIPARAY",40223,"Jl caringin gg lumbung 2 no 5 rt 03/rw03 babakan ciparay (smpn 21 bandung )",1,jne,,20000.00,299000.00,,0.00,cod,319000,wait-payment,"20-04-2019 07:51"
20,NEXBAY.ID,#NEX100494,NBS00000002JBLGO,"JBL GO 2","Bambang rendy pratama",082220095432,Bambang.rendy23@gmail.com,IDN,"JAWA TENGAH","KABUPATEN SEMARANG","Kec. Ungaran Timur",50661,"Dsn krandegan desa sidomukti rt02/rw02 kecamatan bandungan kab semarang kodepos 50661",1,jne,,20000.00,299000.00,,0.00,cod,319000,payment-success,"20-04-2019 07:29"
21,NEXBAY.ID,#NEX100493,NBS00000004JBLGO,"JBL GO 2","Desi Natalia Nainggolan",082161502286,desi.ngl@yahoo.com,IDN,"KALIMANTAN TIMUR","KOTA BALIKPAPAN","Kec. BALIKPPAN SELATAN",76114,"Cluster orlando blok dc-16",1,jne,,20000.00,299000.00,,0.00,cod,319000,payment-success,"20-04-2019 07:27"
22,NEXBAY.ID,#NEX100492,NBS00000004JBLGO,"JBL GO 2","Naufaldy Obianka ",081383887716,n.obianka.1@gmail.com,IDN,"JAWA BARAT","KOTA BEKASI","Kec. BEKASI  TIMUR",17167,"Pondok timur indah II B505",1,jne,,20000.00,299000.00,,0.00,cod,319000,payment-success,"20-04-2019 07:23"
23,NEXBAY.ID,#NEX100491,NBS00000005JBLGO,"JBL GO 2",Jumrina,085242450030,Anaahjm@gmail.com,IDN,"SULAWESI TENGGARA","KOTA KENDARI","Kec. Kendari Barat",93121,"Jalan bunga palem",1,jnt,,20000.00,299000.00,,0.00,cod,319000,payment-success,"20-04-2019 03:57"
24,NEXBAY.ID,#NEX100490,NBS00000002JBLGO,"JBL GO 2","Nabila Rahma G",082236333206,nabhilarahmagustami@gmail.com,IDN,"JAWA TENGAH","KABUPATEN KLATEN","Kec. KLATEN UTARA",57434,"Perum dadimulyo gergunung klaten utara rt 01 rw 05",1,jnt,,20000.00,299000.00,,0.00,cod,319000,wait-payment,"20-04-2019 03:55"
25,NEXBAY.ID,#NEX100489,NBS00000003JBLGO,"JBL GO 2","Ericson Posmanov Martua Silalahi",087787083766,ericsonpms@gmail.com,IDN,"JAWA TIMUR","KOTA SURABAYA","Kec. Sukolilo",60111,"Keputih gang 1D No.14b",1,jnt,,20000.00,299000.00,,0.00,transfer,319000,payment-success,"20-04-2019 03:25"
26,NEXBAY.ID,#NEX100488,NBS00000002JBLGO,"JBL GO 2","Krishna Syahrifky",081808200512,krishna.syarifky@gmail.com,IDN,"JAWA BARAT","KABUPATEN SUMEDANG","Kec. JATINANGOR",45670,"jl.sukawening No.78 Dusun Sukanegla Rt.02 Rw.05 Desa Hegarmanah,Jatinangor, Sumedang. PANORAMA RESIDENCE.",1,jne,,20000.00,299000.00,,0.00,cod,319000,payment-success,"20-04-2019 02:58"
27,NEXBAY.ID,#NEX100487,NBS00000002JBLGO,"JBL GO 2","Agung Ari Putra",082150010733,agungariputraa@gmail.com,IDN,"KALIMANTAN BARAT","KOTA PONTIANAK","Kec. PONTIANAK BARAT",78116,"Jalan Uray Bawadi, Gg.Mardirahayu No.10, Rt.03 Rw.07, Pontianak",1,jnt,,20000.00,299000.00,,0.00,transfer,319000,wait-payment,"20-04-2019 01:44"
28,NEXBAY.ID,#NEX100486,NBS00000002JBLGO,"JBL GO 2","Faizal Refandi",085230284902,faizalrbpx@gmail.com,IDN,"JAWA TIMUR","KOTA KEDIRI","Kec. Mojoreto",64111,"jl. merbabu gg.5 depan sdn dermo 1",1,jne,,20000.00,299000.00,,0.00,cod,319000,payment-success,"20-04-2019 01:00"
29,NEXBAY.ID,#NEX100485,NBS00000002JBLGO,"JBL GO 2","Tegar Indhira T",081225568867,tegarindhira4@gmail.com,IDN,"JAWA TENGAH","KABUPATEN BANYUMAS","Kec. PURWOKERTO UTARA",53121,"Jl. Wiryodiharjo no.12",1,jne,,20000.00,299000.00,,0.00,transfer,319000,payment-success,"20-04-2019 00:35"
30,NEXBAY.ID,#NEX100484,NBS00000004JBLGO,"JBL GO 2","Andika Indra Wardana",085643820128,andika.indra.e@gmail.com,IDN,"DI YOGYAKARTA","KOTA YOGYAKARTA","Kec. JETIS",55128,".Bank Mandiri (Persero) Tbk. Area Yogyakarta Unit Business Development. D.I. Yogyakarta Jl. jend. Sudirman No.32 Yogyakarta, Indonesia.",1,jne,,20000.00,299000.00,Freeongkir,20000.00,cod,299000,payment-success,"20-04-2019 00:29"
31,NEXBAY.ID,#NEX100483,NBS00000002JBLGO,"JBL GO 2","Wulan oktaviana",081297797211,Wulanoktaviana10@gmail.com,IDN,"JAWA BARAT","KOTA BEKASI","Kec. BEKASI  SELATAN",17148,"Jl bacang raya rt 10 rw 04 no 39 pekayon jaya bekasi selatan",1,jne,,20000.00,299000.00,,0.00,cod,319000,payment-success,"20-04-2019 00:25"
32,NEXBAY.ID,#NEX100482,NBS00000003JBLGO,"JBL GO 2","Satya yustisio",081233549605,Satyayustisio2000@gmail.com,IDN,"JAWA TIMUR","KABUPATEN JOMBANG","Kec. Jombang",61419,"Jl.wisynu wardhana Gg IV/61 (depan polsek kota)",1,jne,,20000.00,299000.00,,0.00,transfer,319000,payment-success,"20-04-2019 00:18"
33,NEXBAY.ID,#NEX100481,NBS00000004JBLGO,"JBL GO 2","A. Muh. Nuzul",082129023166,uchunurlan@gmail.com,IDN,"SULAWESI SELATAN","KOTA MAKASSAR","Kec. TAMALATE",90000,"Jl. Telaga Pelangi No.62 Perumahan Taman Kayangan Tanjung Bunga",1,jnt,,20000.00,299000.00,,0.00,cod,319000,payment-success,"20-04-2019 00:12"
34,NEXBAY.ID,#NEX100480,NBS00000005JBLGO,"JBL GO 2",Albaihaqi,08116855502,albaihaqioki13@gmail.com,IDN,ACEH,"KOTA BANDA ACEH","Kec. LUENG BATA",23245,"Jl.angsa dusun suka jaya desa batoh",1,jnt,,20000.00,299000.00,FREEONGKIR,20000.00,cod,299000,payment-success,"20-04-2019 00:11"
35,NEXBAY.ID,#NEX100479,NBS00000005JBLGO,"JBL GO 2","Andi faizal",0895806553318,Ical06091998@yahoo.co.id,IDN,"SULAWESI SELATAN","KOTA MAKASSAR","Kec. RAPPOCINI",90222,"Jl wijaya kusuma no.6(toko sinar jaya) samping rumah sakit mata BKMM",1,jnt,,20000.00,299000.00,FREEONGKIR,20000.00,cod,299000,payment-success,"20-04-2019 00:00"
36,NEXBAY.ID,#NEX100478,NBS00000002JBLGO,"JBL GO 2","angga putra",085887990545,anggaaditya05@gmail.com,IDN,"DKI JAKARTA","KOTA JAKARTA PUSAT","Kec. TANAH ABANG",10220,"apartemen sudirman park tower B lantai 33 AE",1,jnt,,20000.00,299000.00,,0.00,cod,319000,payment-success,"19-04-2019 22:34"
37,NEXBAY.ID,#NEX100477,NBS00000003JBLGO,"JBL GO 2","DESTOMI JONANDA",085395237095,destogiflord@gmail.com,IDN,"DKI JAKARTA","KOTA JAKARTA BARAT","Kec. GROGOL PETAMBURAN",11450,"JL. Dr susilo 2c No. 61",1,jnt,,20000.00,299000.00,FREEONGKIR,20000.00,cod,299000,payment-success,"19-04-2019 21:29"
38,NEXBAY.ID,#NEX100476,NBS00000004JBLGO,"JBL GO 2","Agnes Tiurma Manurung",081276998205,agnestmanurung@gmail.com,IDN,"SUMATERA UTARA","KOTA MEDAN","Kec. MEDAN TIMUR",12345,"Jl.Riau no.89 Toko JNE Express",1,jne,,20000.00,299000.00,,0.00,transfer,319000,wait-payment,"19-04-2019 21:19"
39,NEXBAY.ID,#NEX100475,NBS00000002JBLGO,"JBL GO 2","Felix Andika Wicaksono",082244379917,felixandika8@gmail.com,IDN,"JAWA TIMUR","KOTA SURABAYA","Kec. Tambaksari",60134,"Jl. Lebak Rejo II no 26a",1,jne,,20000.00,299000.00,,0.00,cod,319000,payment-success,"19-04-2019 21:10"
40,NEXBAY.ID,#NEX100474,NBS00000004JBLGO,"JBL GO 2","Kadek Ari Sukmantara",087761581681,arick.ciil@yahoo.com,IDN,BALI,"KABUPATEN BADUNG","Kec. KUTA",80361,"Jln Pararaton II Kuta (Mess Bali United)",1,jnt,,20000.00,299000.00,,0.00,cod,319000,wait-payment,"19-04-2019 20:45"
41,NEXBAY.ID,#NEX100473,NBS00000003JBLGO,"JBL GO 2","Annisa Rahmawati",081229482545,annsarahmawati@gmail.com,IDN,"DI YOGYAKARTA","KOTA YOGYAKARTA","Kec. JETIS",55233,"Cokrokusuman JT2/909 YK",1,jne,,20000.00,299000.00,FREEONGKIR,20000.00,transfer,299000,payment-success,"19-04-2019 20:41"
42,NEXBAY.ID,#NEX100472,NBS00000005JBLGO,"JBL GO 2",Nana,081314935696,adityasusilo13@gmail.com,IDN,"DKI JAKARTA","KOTA JAKARTA BARAT","Kec. KEBON JERUK",11530,"Jl. Tosiga III Blok N/8 ",1,jne,,20000.00,299000.00,FREEONGKIR,20000.00,transfer,299000,payment-success,"19-04-2019 20:39"
43,NEXBAY.ID,#NEX100471,NBS00000005JBLGO,"JBL GO 2","Tomy Nur Hermawan",082251502817,tommynurh@yahoo.com,IDN,"KALIMANTAN TIMUR","KOTA SAMARINDA","Kec. SAMARINDA ULU",75122,Jl.Arjuna,1,jnt,,20000.00,299000.00,,0.00,cod,319000,cancel,"19-04-2019 20:24"
44,NEXBAY.ID,#NEX100470,NBS00000005JBLGO,"JBL GO 2","Sarah agustini",089630185723,Sunshinebae98@gmail.com,IDN,"DKI JAKARTA","KOTA JAKARTA BARAT","Kec. CENGKARENG",11740,"Jl madrasah I rt.06/04 no.19A",1,jnt,,20000.00,299000.00,Freeongkir,20000.00,transfer,299000,payment-success,"19-04-2019 19:10"
45,NEXBAY.ID,#NEX100469,NBS00000004JBLGO,"JBL GO 2","nahdah zhafirah",081362495273,nahdahz24@gmail.com,IDN,"SULAWESI TENGGARA","KOTA KENDARI","Kec. KENDARI",93231,"citraland kendari cluster spazia arcade non food area ruko E01 kav no 002 kendari sulawesi tenggara",1,jnt,,20000.00,299000.00,,0.00,cod,319000,payment-success,"19-04-2019 18:54"
46,NEXBAY.ID,#NEX100468,NBS00000004JBLGO,"JBL GO 2","videlia veriska",081299851905,videliaveriska@yahoo.com,IDN,"JAWA BARAT","KOTA DEPOK","Kec. BEJI",16421,"jl delima V no 11a perumahan beji permai, block N",1,jne,,20000.00,299000.00,,0.00,cod,319000,payment-success,"19-04-2019 18:43"
47,NEXBAY.ID,#NEX100467,NBS00000004JBLGO,"JBL GO 2",Apinxz,081220508787,Ap1nxz@hotmail.com,IDN,"DKI JAKARTA","KOTA JAKARTA UTARA","Kec. KELAPA GADING",14240,"Janur kuning 2 wh2 no 3",1,jne,,20000.00,299000.00,Freeongkir,20000.00,cod,299000,cancel,"19-04-2019 18:26"
48,NEXBAY.ID,#NEX100466,NBS00000002JBLGO,"JBL GO 2","Ayu Putri Malika",082254562199,putrimalika19@gmail.com,IDN,"KALIMANTAN TIMUR","KABUPATEN KUTAI KARTANEGARA","Kec. TENGGARONG",75511,"jln kh ahmad muksin gang 4 rt 26",1,jnt,,20000.00,299000.00,,0.00,transfer,319000,payment-success,"19-04-2019 18:17"
49,NEXBAY.ID,#NEX100465,NBS00000004JBLGO,"JBL GO 2",Supiyanto,081233840801,ersalia124@gmail.com,IDN,"JAWA TIMUR","KOTA SURABAYA","Kec. Gayungan",60234,"Jl.dukuh menanggal IX no.29",1,jnt,,20000.00,299000.00,,0.00,cod,319000,payment-success,"19-04-2019 18:03"
50,NEXBAY.ID,#NEX100464,NBS00000003JBLGO,"JBL GO 2","sabrina aulia nasywa",081295500505,sabrinanasywa33@gmail.com,IDN,"DKI JAKARTA","KOTA JAKARTA TIMUR","Kec. DUREN SAWIT",13460,"jl bunga rampai 8 gang5 rt3 rw6 no33, kel malaka jaya, kecamatan duren sawit, perumnas klender, jakarta timur.",1,jne,,20000.00,299000.00,,0.00,transfer,319000,payment-success,"19-04-2019 18:01"
51,NEXBAY.ID,#NEX100463,NBS00000002JBLGO,"JBL GO 2","Stefanus tanner",081367536736,stefanustanner15@gmail.com,IDN,"SUMATERA SELATAN","KOTA PALEMBANG","Kec. KEMUNING",30128,"Jl rawajaya gang amal no 66/574",1,jnt,,20000.00,299000.00,FREEONGKIR,20000.00,cod,299000,payment-success,"19-04-2019 17:59"
52,NEXBAY.ID,#NEX100462,NBS00000003JBLGO,"JBL GO 2","Genial S",081320906832,genialsm@yahoo.com,IDN,"JAWA BARAT","KOTA BANDUNG","Kec. CIBEUNYING KALER",40122,"Jl. Supratman No. 90",1,jnt,,20000.00,299000.00,FREEONGKIR,20000.00,cod,299000,payment-success,"19-04-2019 17:57"
53,NEXBAY.ID,#NEX100461,NBS00000003JBLGO,"JBL GO 2","Genial S Muslima",081320906832,genialsm@yahoo.com,IDN,"JAWA BARAT","KOTA BANDUNG","Kec. CIBEUNYING KALER",40122,"Jl. Supratman No.90",1,jnt,,20000.00,299000.00,,0.00,transfer,319000,cancel,"19-04-2019 17:53"
54,NEXBAY.ID,#NEX100460,NBS00000004JBLGO,"JBL GO 2","Ghina Nsirina",085222334334,Ghinanisrina35@gmail.com,IDN,"JAWA BARAT","KABUPATEN INDRAMAYU","Kec. HAURGEULIS",", ID, 4524","Jl. siliwangi  rt 014 , Rw 004 no. 28,",1,jnt,,20000.00,299000.00,,0.00,transfer,319000,wait-payment,"19-04-2019 17:51"
55,NEXBAY.ID,#NEX100459,NBS00000005JBLGO,"JBL GO 2","Nahdah Zhafirah",081362495273,nahdahz24@gmail.com,IDN,"SULAWESI TENGGARA","KOTA KENDARI","Kec. KENDARI",93231,"citraland kendari cluster spazia arcade non food area. Ruka E01 kav no 002 kendari sulawesi tenggara 93231",1,jnt,,20000.00,299000.00,,0.00,cod,319000,cancel,"19-04-2019 17:24"
56,NEXBAY.ID,#NEX100458,NBS00000005JBLGO,"JBL GO 2","Anggi Afriani",087820846261,anggiafriani28@gmail.com,IDN,"DKI JAKARTA","KOTA JAKARTA SELATAN","Kec. PESANGGRAHAN",12250,"Jl. H. Ridi, Gg. Tabah, RT/RW 16/03 No. 82, Ulujami",1,jnt,,20000.00,299000.00,,0.00,cod,319000,wait-payment,"19-04-2019 17:19"
57,NEXBAY.ID,#NEX100457,NBS00000005JBLGO,"JBL GO 2","Louis gustanto",081331138988,Louisgustanto@gmail.com,IDN,"JAWA TIMUR","KOTA SURABAYA","Kec. Gayungan",60231,"Jl. Ketintang baru 2 no.10",1,jne,,20000.00,299000.00,,0.00,cod,319000,wait-payment,"19-04-2019 17:10"
58,NEXBAY.ID,#NEX100456,NBS00000005JBLGO,"JBL GO 2","Nadia Safira",082231336679,nadiadwishafiraa311@gmail.com,IDN,"JAWA TIMUR","KOTA SURABAYA","Kec. Rungkut",60293,"Jl. Rungkut Mejoyo Selatan 6/17",1,jne,,20000.00,299000.00,FREEONGKIR,20000.00,cod,299000,payment-success,"19-04-2019 17:08"
59,NEXBAY.ID,#NEX100455,NBS00000002JBLGO,"JBL GO 2","Hirzi Mahardhika Iskandar",081220248979,hrzi6892@gmail.com,IDN,"DI YOGYAKARTA","KABUPATEN SLEMAN","Kec. MLATI",55285,"PONDOK PERMAI PALAGAN B2, JATIREJO, RT 6 RW 22 KELURAHAN SENDANGADI",1,jne,,20000.00,299000.00,,0.00,cod,319000,payment-success,"19-04-2019 16:45"
60,NEXBAY.ID,#NEX100454,NBS00000003JBLGO,"JBL GO 2",prevalno,081298851571,prevalno@yahoo.com,IDN,"DKI JAKARTA","KOTA JAKARTA SELATAN","Kec. JAGAKARSA",12530,"jalan tanjung 8 boulevard kavling xi, rancho indah",1,jnt,,20000.00,299000.00,,0.00,transfer,319000,cancel,"19-04-2019 16:36"
61,NEXBAY.ID,#NEX100453,NBS00000002JBLGO,"JBL GO 2","Tetty Pangesti",081288617527,tettypangesti96@gmail.com,IDN,"DKI JAKARTA","KOTA JAKARTA UTARA","Kec. PENJARINGAN",14440,"pluit sea view tower C-9-18 muara baru penjaringan , pluit - jakarta utara",1,jne,,20000.00,299000.00,,0.00,cod,319000,payment-success,"19-04-2019 16:15"
62,NEXBAY.ID,#NEX100452,NBS00000005JBLGO,"JBL GO 2",Syofyan,081212666671,Syofyan26nst@yahoo.com,IDN,BALI,"KABUPATEN BADUNG","Kec. KUTA SELATAN",80363,"Jl darmawangsa Pondok kampial permai no.5 nusadua bali",1,jne,,20000.00,299000.00,,0.00,cod,319000,payment-success,"19-04-2019 15:47"
63,NEXBAY.ID,#NEX100451,NBS00000002JBLGO,"JBL GO 2","sintia oktavia",0895357273539,sintiaoktavia12@gmail.com,IDN,"SUMATERA SELATAN","KOTA PALEMBANG","Kec. Alang-alang Lebar",38611,"komplek griya bahagia jln bahagia 3 blok A29 KM 10",1,jnt,,20000.00,299000.00,,0.00,cod,319000,cancel,"19-04-2019 15:38"
64,NEXBAY.ID,#NEX100450,NBS00000002JBLGO,"JBL GO 2","titania ayu marsya",081310750068,titaniamarsya26@gmail.com,IDN,"DKI JAKARTA","KOTA JAKARTA TIMUR","Kec. DUREN SAWIT",13450,"Kavling DKI PTB jl.pondok kelapa XI blok E XI no.9",1,jne,,20000.00,299000.00,FREEONGKIR,20000.00,cod,299000,payment-success,"19-04-2019 15:20"
65,NEXBAY.ID,#NEX100449,NBS00000004JBLGO,"JBL GO 2","Raihan Tsany N",081217192827,raihannurcahya@gmail.com,IDN,"JAWA TIMUR","KOTA KEDIRI","Kec. Mojoreto",64112,"JL. KH A Dahlan no. 84A (Warung Bu Yatik)",1,jne,,20000.00,299000.00,,0.00,transfer,319000,cancel,"19-04-2019 15:13"
66,NEXBAY.ID,#NEX100448,NBS00000002JBLGO,"JBL GO 2","Romi ardiansyah",081278904454,Romiardiansyah123@gmail.com,IDN,"DKI JAKARTA","KOTA JAKARTA BARAT","Kec. TAMBORA",11320,"GRAHA WRS ruko season city blok A 33-35, jl. DR latumenten",1,jne,,20000.00,299000.00,,0.00,cod,319000,payment-success,"19-04-2019 14:39"
67,NEXBAY.ID,#NEX100447,NBS00000002JBLGO,"JBL GO 2","nadhisa arnes",0811707678,nadhisa.arnes@gmail.com,IDN,RIAU,"KOTA PEKANBARU","Kec. PEKANBARU KOTA",28280,"jln. sudirman no.265 (indonesia textile)",1,jnt,,20000.00,299000.00,,0.00,cod,319000,payment-success,"19-04-2019 14:25"
68,NEXBAY.ID,#NEX100446,NBS00000004JBLGO,"JBL GO 2","siti akilah labitta",081311139197,akilahlabitta23@gmail.com,IDN,"JAWA BARAT","KOTA BOGOR","Kec. TANAH SAREAL",16158,"villa bogor indah 5 blok cb 1 nomor 12/14 cluster nuri",1,jne,,20000.00,299000.00,,0.00,cod,319000,payment-success,"19-04-2019 14:11"
69,NEXBAY.ID,#NEX100445,NBS00000002JBLGO,"JBL GO 2","Muhammad Davy Huditama",087885416055,huditamadavy@gmail.com,IDN,"DKI JAKARTA","KOTA JAKARTA BARAT","Kec. KEMBANGAN",11640,"Komp.DKI blok E bawah no.16 Rt 02/ Rw 08, joglo",1,jne,,20000.00,299000.00,,0.00,transfer,319000,payment-success,"19-04-2019 13:52"
70,NEXBAY.ID,#NEX100444,NBS00000003JBLGO,"JBL GO 2","Alifia Bunga Geraldin",081311100606,Abgeraldin10@gmail.com,IDN,"JAWA BARAT","KOTA BOGOR","Kec. KOTA BOGOR TENGAH",16128,"jl danau matana blok c5 no.15 (kos stone house) bogor tengah, bogor, jawa barat 16128",1,jnt,,20000.00,299000.00,,0.00,transfer,319000,payment-success,"19-04-2019 13:43"
71,NEXBAY.ID,#NEX100443,NBS00000002JBLGO,"JBL GO 2",Mirany,082250400711,mirany.ranimy@gmail.com,IDN,"DKI JAKARTA","KOTA JAKARTA BARAT","Kec. KEBON JERUK",11510,"Jl. Sahabat Baru RT 008/001 No 23 F",1,jne,,20000.00,299000.00,,0.00,cod,319000,payment-success,"19-04-2019 13:32"
72,NEXBAY.ID,#NEX100442,NBS00000005JBLGO,"JBL GO 2","Saiful bahri",082115656984,Ompuompu00@gmail.com,IDN,"DI YOGYAKARTA","KABUPATEN BANTUL","Kec. SEWON",55141,"Jln. Parangtritis km 4.5 kampus STTKD Yk",1,jnt,,20000.00,299000.00,,0.00,cod,319000,payment-success,"19-04-2019 13:26"
73,NEXBAY.ID,#NEX100441,NBS00000005JBLGO,"JBL GO 2","Felix Uranus",081809100891,uranus.felix@gmail.com,IDN,"KALIMANTAN BARAT","KOTA PONTIANAK","Kec. PONTIANAK SELATAN",78124,"Komplek Royal Serdam 2 Residence blok F7",1,jnt,,20000.00,299000.00,,0.00,cod,319000,payment-success,"19-04-2019 13:20"
74,NEXBAY.ID,#NEX100440,NBS00000005JBLGO,"JBL GO 2","Mizan Alfiansyah",082299071057,Mizansyah26@gmail.com,IDN,"JAWA TIMUR","KOTA MADIUN","Kec. Manguharjo",63128,"Jl.Lodan 3 Kel.Nambangan Kidul Kec.Manguharjo",1,jnt,,20000.00,299000.00,,0.00,cod,319000,payment-success,"19-04-2019 13:17"
75,NEXBAY.ID,#NEX100439,NBS00000005JBLGO,"JBL GO 2","Faradisa mutiara",085732662722,Faradisainsani@gmail.com,IDN,"JAWA TIMUR","KOTA MALANG","Kec. Lowokwaru",65141,"Perum griya shanta inside blok HH no.59 soekarno hatta,  malangkota ",1,jne,,20000.00,299000.00,,0.00,cod,319000,payment-success,"19-04-2019 12:40"
76,NEXBAY.ID,#NEX100438,NBS00000002JBLGO,"JBL GO 2","Muhammad Raihan Gisdamuron",08114112309,muhammadraihangisdamuron@gmail.com,IDN,"SULAWESI SELATAN","KOTA MAKASSAR","Kec. MANGGALA",9234,"Jln. Nipa Nipa Raya No. 166 Blok 3 Perumnas Antang",1,jne,,20000.00,299000.00,,0.00,cod,319000,payment-success,"19-04-2019 12:30"
77,NEXBAY.ID,#NEX100437,NBS00000003JBLGO,"JBL GO 2","Gista permata",085750005991,gistagistaa@yahoo.co.id,IDN,"JAWA BARAT","KABUPATEN BANDUNG","Kec. BOJONGSOANG",40286,"Komplek Griya Bandung Indah, Blok C 9 No.11 Bandung",1,jnt,,20000.00,299000.00,,0.00,cod,319000,payment-success,"19-04-2019 12:02"
78,NEXBAY.ID,#NEX100436,NBS00000001JBLGO,"JBL GO 2","Christopher Kenneth ",081236777488,Christopherkenneth48@gmail.com,IDN,"JAWA TIMUR","KOTA SURABAYA","Kec. Lakarsantri",60211,"Surabaya citraland golf avenue gv 5 nomer 12",1,jne,,20000.00,299000.00,,0.00,cod,319000,payment-success,"19-04-2019 11:54"
79,NEXBAY.ID,#NEX100435,NBS00000001JBLGO,"JBL GO 2","Andika sewanto",081228000769,Andikasewanto@gmail.com,IDN,"KEPULAUAN BANGKA BELITUNG","KABUPATEN BELITUNG","Kec. TANJUNG PANDAN",33412,"Jln jend sudirman no 11. Rt 020 rw 009. (Belakang Pom Astika)",1,jnt,,20000.00,299000.00,,0.00,cod,319000,payment-success,"19-04-2019 11:37"
80,NEXBAY.ID,#NEX100434,NBS00000001JBLGO,"JBL GO 2","William Gavin",081398836433,Petrus_hwa@yahoo.com,IDN,"JAWA BARAT","KABUPATEN KARAWANG","Kec. KOTABARU",41374,"Perumahan rawamas blok RE no 5 rt 01 rw 008 desa jomin barat kecamatan kota baru",1,jne,,20000.00,299000.00,FREEONGKIR,20000.00,cod,299000,payment-success,"19-04-2019 11:35"
81,NEXBAY.ID,#NEX100433,NBS00000003JBLGO,"JBL GO 2","Dwi Syahrul",085646032851,Dwi.syahrul1@gmail.com,IDN,"JAWA TIMUR","KOTA SURABAYA","Kec. Jambangan",60232,"Jl.karah 2 no 26 rt 2 rw 2 kelurahan karah",1,jnt,,20000.00,299000.00,,0.00,cod,319000,payment-success,"19-04-2019 11:22"
82,NEXBAY.ID,#NEX100432,NBS00000005JBLGO,"JBL GO 2","Dheva Vembyawan Rahadi",082135384548,dhevavr@gmail.com,IDN,"DI YOGYAKARTA","KABUPATEN BANTUL","Kec. BANGUNTAPAN",55198,"Jl. Pura No. 380, Plumbon, Sorowajan",1,jne,,20000.00,299000.00,,0.00,cod,319000,cancel,"19-04-2019 11:19"
83,NEXBAY.ID,#NEX100431,NBS00000001JBLGO,"JBL GO 2","Bagus alfian",081311315746,Bagusalfian007@gmail.com,IDN,"DKI JAKARTA","KOTA JAKARTA PUSAT","Kec. TANAH ABANG",10260,"Jl. Administrasi II Blok A no 13",1,jne,,20000.00,299000.00,,0.00,cod,319000,payment-success,"19-04-2019 10:59"
84,NEXBAY.ID,#NEX100430,NBS00000003JBLGO,"JBL GO 2","Dhafi rahmatul ikma",081273288992,Dhafirahmatulikma@gmail.com,IDN,"JAWA TENGAH","KOTA SEMARANG","Kec. TEMBALANG",50275,"Jln nirwanasari raya gang melati no 9A banjarsari",1,jne,,20000.00,299000.00,,0.00,transfer,319000,payment-success,"19-04-2019 10:51"
85,NEXBAY.ID,#NEX100429,NBS00000002JBLGO,"JBL GO 2","Kadek indah dwi cahyani",085964318577,Kadekindah13@icloud.com,IDN,BALI,"KABUPATEN TABANAN","Kec. KEDIRI",82121,"Jl. Pantai Kedungu No.66X, Nyitdah, Kediri, Kabupaten Tabanan, Bali",1,jne,,20000.00,299000.00,,0.00,cod,319000,payment-success,"19-04-2019 10:43"
86,NEXBAY.ID,#NEX100428,NBS00000001JBLGO,"JBL GO 2","Regina Maghvironi",081374700738,reginamaghuirani@gmail.com,IDN,"SUMATERA SELATAN","KOTA PALEMBANG","Kec. SUKARAMI",30961,"Komplek Sukarela Sejahtera Jl. Sukarela KM.7, kec. Sukarami, Kota Palembang",1,jne,,20000.00,299000.00,,0.00,transfer,319000,cancel,"19-04-2019 10:18"
87,NEXBAY.ID,#NEX100427,NBS00000005JBLGO,"JBL GO 2","Joshua Erlangga",082110181811,djozh.harzo@gmail.com,IDN,"JAWA BARAT","KOTA DEPOK","Kec. TAPOS",16459,"Persada Depok C3/3",1,jne,,20000.00,299000.00,,0.00,cod,319000,payment-success,"19-04-2019 08:50"
88,NEXBAY.ID,#NEX100426,NBS00000004JBLGO,"JBL GO 2","Rino Novidias Gia Cinta",089637408923,rinonovidias11@gmail.com,IDN,BANTEN,"KOTA TANGERANG SELATAN","Kec. Serpong Utara",15326,"Perumahan Villa Melati Mas. Blok Vista 9. No 23",1,jne,,20000.00,299000.00,,0.00,cod,319000,wait-payment,"19-04-2019 07:50"
89,NEXBAY.ID,#NEX100425,NBS00000001JBLGO,"JBL GO 2","Andi Muhammad Imam Ridzali",082299425236,Amirridzali@gmail.com,IDN,"SUMATERA SELATAN","KOTA PALEMBANG","Kec. Alang-alang Lebar",30154,"Citra Grand City, The Pavillion Blok E15",1,jnt,,20000.00,299000.00,,0.00,transfer,319000,payment-success,"19-04-2019 07:41"
90,NEXBAY.ID,#NEX100424,NBS00000005JBLGO,"JBL GO 2","A.A istri fermas paramitha",081236685399,mithafermas@gmail.com,IDN,BALI,"KOTA DENPASAR","Kec. DENPASAR SELATAN",0361,"Jln. Praja sentral block C20/21, linkungan bualu, nusa dua",1,jne,,20000.00,299000.00,,0.00,cod,319000,payment-success,"19-04-2019 07:38"
91,NEXBAY.ID,#NEX100423,NBS00000001JBLGO,"JBL GO 2","amanda aprilia",081382331578,amandaapriliaa343@gmail.com,IDN,BANTEN,"KOTA TANGERANG","Kec. PERIUK",15132,"Grand Duta Tangerang Cluster Dolomite Blok D1/40 RT 001/019",1,jne,,20000.00,299000.00,,0.00,transfer,319000,payment-success,"19-04-2019 07:36"
92,NEXBAY.ID,#NEX100422,NBS00000005JBLGO,"JBL GO 2",Fachruddin,081354898767,Dudii1707@gmail.com,IDN,"KALIMANTAN SELATAN","KOTA BANJAR BARU","Kec. LANDASAN ULIN",70721,"Jln Sriwijaya Km.21 Kompleks Pesona Langit blok A no.2",1,jnt,,20000.00,299000.00,,0.00,cod,319000,payment-success,"19-04-2019 07:29"
93,NEXBAY.ID,#NEX100421,NBS00000005JBLGO,"JBL GO 2","Dava Ardiansyah Abid Tunggono",085860576254,ardiansyahdava55@gmail.com,IDN,"JAWA TENGAH","KABUPATEN KLATEN","Kec. CEPER",57466,"Doyo Rt 24 Rw 11, Ngawonggo, Ceper, Klaten 57465",1,jnt,,20000.00,299000.00,,0.00,transfer,319000,wait-payment,"19-04-2019 07:16"
94,NEXBAY.ID,#NEX100420,NBS00000005JBLGO,"JBL GO 2","Fairuz tsabit prasetyo",085265297587,Fairuztsabit04@gmail.com,IDN,"DI YOGYAKARTA","KABUPATEN SLEMAN","Kec. DEPOK",56285,"Jl. Paingan 7 no.103",1,jne,,20000.00,299000.00,,0.00,cod,319000,cancel,"19-04-2019 02:14"
95,NEXBAY.ID,#NEX100419,dada,Smart,"Muhamad Sabri",081808331458,Muhamadsabriardian@gmail.com,IDN,"DKI JAKARTA","KOTA JAKARTA PUSAT","Kec. KEMAYORAN",10640,"Cempaka Putih Utara No 19",1,jne,,20000.00,90000.00,FREEONGKIR,20000.00,cod,90000,cancel,"19-04-2019 02:03"
96,NEXBAY.ID,#NEX100418,NBS00000005JBLGO,"JBL GO 2","Muhammad Rifki",081314395085,mrifki1510@gmail.com,IDN,"JAWA BARAT","KABUPATEN BANDUNG","Kec. DAYEUHKOLOT",40257,"STT Telkom, Jl. H. Umayah 2 Kost Pondok Dian (309), bojongsoang, dayeuhkolot, kab. bandung. kode pos 40257",1,jne,,20000.00,299000.00,,0.00,transfer,319000,payment-success,"19-04-2019 01:33"
97,NEXBAY.ID,#NEX100417,NBS00000001JBLGO,"JBL GO 2","Nicolas jonathan",081219942298,Nicolasjonathan11@gmail.com,IDN,"JAWA TIMUR","KOTA SURABAYA","Kec. Lakarsantri",60217,"Pwk k2/3",1,jnt,,20000.00,299000.00,,0.00,cod,319000,payment-success,"19-04-2019 01:07"
98,NEXBAY.ID,#NEX100416,NBS00000001JBLGO,"JBL GO 2","Ajeng Alfiani",082143355742,ajealfiani@gmail.com,IDN,BANTEN,"KOTA TANGERANG SELATAN","Kec. Pondok Aren",15222,"Jl. Delima III Blok A4 no.19 PJMI",1,jne,,20000.00,299000.00,,0.00,transfer,319000,cancel,"19-04-2019 00:26"
99,NEXBAY.ID,#NEX100415,NBS00000003JBLGO,"JBL GO 2","Indah wulansari",01990311331,Wulansaryi@yahoo.co.id,IDN,"SULAWESI SELATAN","KOTA MAKASSAR","Kec. RAPPOCINI",90211,"Btn minasa upa blok L5/18",1,jne,,20000.00,299000.00,,0.00,transfer,319000,cancel,"19-04-2019 00:23"
100,NEXBAY.ID,#NEX100414,NBS00000003JBLGO,"JBL GO 2","Albert Tandiawan",081231533333,abe_tandiawan@yahoo.com,IDN,"SULAWESI TENGGARA","KOTA KENDARI","Kec. BARUGA",93116,"Toko Mujur Jaya, Jl. Kapten Piere Tendean",1,jnt,,20000.00,299000.00,Freeongkir,20000.00,cod,299000,payment-success,"19-04-2019 00:17"
101,NEXBAY.ID,#NEX100413,NBS00000005JBLGO,"JBL GO 2","Septiana Rizky",0811569116,Srizkyy2@gmail.com,IDN,"KALIMANTAN BARAT","KOTA PONTIANAK","Kec. PONTIANAK BARAT",78113,"Jalan komyos sudarso gg blitar no 42",1,jne,,20000.00,299000.00,FREEONGKIR,20000.00,transfer,299000,payment-success,"19-04-2019 00:12"
102,NEXBAY.ID,#NEX100412,NBS00000005JBLGO,"JBL GO 2","Albina kanaya",081299021084,Kanayaalbina@gmail.com,IDN,"JAWA BARAT","KOTA DEPOK","Kec. PANCORAN MAS",16434,"Perumahan puri anggrek mas blok c3/no2-3. jln anggrek 1 A ",1,jnt,,20000.00,299000.00,,0.00,transfer,319000,cancel,"19-04-2019 00:12"
103,NEXBAY.ID,#NEX100411,NBS00000003JBLGO,"JBL GO 2","Muhammad Ilham Al Ghifari",081574327201,ilhamghifari2705@gmail.com,IDN,BANTEN,"KABUPATEN SERANG","Kec. ANYAR",42466,"Gg. Masjid No.12 Rt. 003/001 Kec. Anyer Kab. Serang",1,jnt,,20000.00,299000.00,,0.00,transfer,319000,cancel,"18-04-2019 23:10"
104,NEXBAY.ID,#NEX100410,NBS00000005JBLGO,"JBL GO 2","Dea Sasangga",081326309056,Dyanggac@gmail.com,IDN,"DKI JAKARTA","KOTA JAKARTA SELATAN","Kec. SETIA BUDI",12910,"Jalan taman setiabudi gg. E no. 7 rt.02 rw.02 setiabudi jakarata selatan",1,jne,,20000.00,299000.00,,0.00,cod,319000,payment-success,"18-04-2019 22:46"
105,NEXBAY.ID,#NEX100405,NBS00000003JBLGO,"JBL GO 2","Fradila audrey sekar putri ",08111242205,Fradilaaudrey1@gmail.com,IDN,BANTEN,"KOTA SERANG","Kec. SERANG",42116,"Komplek pasir indah jalan gandaria blok A no 45 rt01 rw 08 kelurahan kaligandu kecematan serang",1,jne,,20000.00,299000.00,,0.00,cod,319000,payment-success,"18-04-2019 22:26"
106,NEXBAY.ID,#NEX100403,NBS00000005JBLGO,"JBL GO 2","Rhiryn Tirsyad",082292147928,rrhiryn@rocketmail.com,IDN,"SULAWESI SELATAN","KOTA MAKASSAR","Kec. MAKASSAR",90145,"Jl.S.Poso Lr.77 A No.12",1,jnt,,20000.00,299000.00,,0.00,cod,319000,payment-success,"18-04-2019 21:27"
107,NEXBAY.ID,#NEX100402,NBS00000004JBLGO,"JBL GO 2","Armilia Ailsa Ahnaf","+62 812 96536870",miliahnaf@gmail.com,IDN,"DKI JAKARTA","KOTA JAKARTA TIMUR","Kec. CIPAYUNG",13810,"Jl. Monumen Pancasila Sakti, Gg.An-Nur, Rt/Rw 003/010 No.87B, Lubang Buaya, Cipayung, Jakarta Timur",1,jne,,20000.00,299000.00,FREEONGKIR,20000.00,cod,299000,payment-success,"18-04-2019 21:24"
108,NEXBAY.ID,#NEX100401,NBS00000001JBLGO,"JBL GO 2","Alfit jenifer",081279416900,Alfitjeni@gmail.com,IDN,"SUMATERA SELATAN","KOTA PALEMBANG","Kec. Alang-alang Lebar",30154,"Jalan Sultan Mahmud badaruddin 2 no 159 rt 18 rw 4 (belakang ruko murah meriah, seberang simpang kades) ",1,jnt,,20000.00,299000.00,,0.00,cod,319000,payment-success,"18-04-2019 21:24"
109,NEXBAY.ID,#NEX100400,NBS00000002JBLGO,"JBL GO 2",Awaluddin,082293299297,Awalrenang31@gmail.com,IDN,"SULAWESI TENGGARA","KABUPATEN KOLAKA","Kec. KOLAKA",93513,"Jalan kadue no 18 tk mulia maros",1,jnt,,20000.00,299000.00,FREEONGKIR,20000.00,cod,299000,payment-success,"18-04-2019 21:18"
110,NEXBAY.ID,#NEX100398,NBS00000003JBLGO,"JBL GO 2","Angga Pratama",082168203639,mangga440@gmail.com,IDN,"SUMATERA UTARA","KOTA MEDAN","Kec. MEDAN SELAYANG",20133," Medan selayang Alamat Lengkap: kopi gunung Jl. Ring Road, Tj. Sari, Medan Selayang, Kota Medan, Sumatera Utara 20133",1,jne,,20000.00,299000.00,,0.00,cod,319000,payment-success,"18-04-2019 20:00"
111,NEXBAY.ID,#NEX100397,NBS00000005JBLGO,"JBL GO 2",Devina,089522553025,devz.ho@gmail.com,IDN,"KALIMANTAN BARAT","KOTA PONTIANAK","Kec. PONTIANAK KOTA",78121,"Jl. Gajah Mada no.177 ( Hotel Neo)",1,jne,,20000.00,299000.00,,0.00,cod,319000,payment-success,"18-04-2019 19:49"
112,NEXBAY.ID,#NEX100396,NBS00000004JBLGO,"JBL GO 2","Baskoro saputro",081283130476,bas.absend@gmail.com,IDN,"DKI JAKARTA","KOTA JAKARTA TIMUR","Kec. CIPAYUNG",13810,"Jln. Amil sa'ali no. 114 rt/rw. 06/05",1,jne,,20000.00,299000.00,,0.00,cod,319000,payment-success,"18-04-2019 19:41"
113,NEXBAY.ID,#NEX100395,NBS00000002JBLGO,"JBL GO 2","Gregorius Christian H D h",(021)7661538/082210249793,gregoriuschristian12@gmail.com,IDN,"DKI JAKARTA","KOTA JAKARTA SELATAN","Kec. CILANDAK",12420," Nama : bapak sambudi/Christian No hp : 082210249793/0217661538 Alamat:  jln. Margaguna raya no.1 RT. 11 RW.001 komplek depsos radio dalam Jakarta Selatan, kelurahan Gandaria selatan kecamatan cilandak kode pos 12420",1,jne,,20000.00,299000.00,,0.00,cod,319000,payment-success,"18-04-2019 19:35"
114,NEXBAY.ID,#NEX100394,dada,Smart,"Azka Ciptadi",081312800086,azkaciptadi@gmail.com,IDN,"JAWA BARAT","KABUPATEN BANDUNG BARAT","Kec. PADALARANG",40553,"Tatar Wangsakerta, Jl.Wangsaningrat no.14, Kota Baru Parahyangan, RT 001 RW 008, Desa Cipeundeuy, Kecamatan Padalarang",1,jnt,,20000.00,90000.00,,0.00,cod,110000,payment-success,"18-04-2019 19:27"
115,NEXBAY.ID,#NEX100393,NBS00000002JBLGO,"JBL GO 2","Awan heryanto",082199594899,awanheryanto0@gmail.com,IDN,"SULAWESI SELATAN","KOTA PAREPARE","Kec. BACUKIKI",91123,"Jalan latasakka tonrangeng dalam no.1",1,jne,,20000.00,299000.00,,0.00,cod,319000,payment-success,"18-04-2019 19:21"
116,NEXBAY.ID,#NEX100392,NBS00000005JBLGO,"JBL GO 2","I WAYAN ARYA PRANATA",087889224059,aryapranata29@gmail.com,IDN,BALI,"KOTA DENPASAR","Kec. DENPASAR SELATAN",80226,"Kantor Bawaslu Provinsi Bali, jln. Moh. Yamin, no. 17, Renon",1,jne,,20000.00,299000.00,FREEONGKIR,20000.00,cod,299000,payment-success,"18-04-2019 19:14"
117,NEXBAY.ID,#NEX100391,NBS00000002TAS,"Smart Backpack","Azka Ciptadi",081312800086,azkaciptadi@gmail.com,IDN,"JAWA BARAT","KABUPATEN BANDUNG BARAT","Kec. PADALARANG",40553,"Tatar Wangsakerta, Jl.Wangsaningrat no.14, Kota Baru Parahyangan, RT 001 RW 008, Desa Cipeundeuy, Kecamatan Padalarang",1,jnt,,20000.00,330000.00,,0.00,transfer,350000,payment-success,"18-04-2019 19:06"
118,NEXBAY.ID,#NEX100390,NBS00000002JBLGO,"JBL GO 2","Christ Simon",081265370332,simonchrist119@gmail.com,IDN,"SUMATERA UTARA","KOTA SIBOLGA","Kec. SIBOLGA SELATAN",22533,"jln. SINGAMANGARAJA NO.374",1,jne,,20000.00,299000.00,,0.00,cod,319000,payment-success,"18-04-2019 18:56"
119,NEXBAY.ID,#NEX100389,NBS00000001JBLGO,"JBL GO 2","Reyhan satya imani",081291118920,Reyhanmamonn@gmail.com,IDN,"JAWA TIMUR","KOTA MALANG","Kec. Lowokwaru",65141,"Jl papaungu no 36 ",1,jnt,,20000.00,299000.00,,0.00,cod,319000,payment-success,"18-04-2019 18:48"
120,NEXBAY.ID,#NEX100388,NBS00000005JBLGO,"JBL GO 2","Muammar ichsan Harahap",081977857132,aggerdani@gmail.com,IDN,"SUMATERA UTARA","KOTA MEDAN","Kec. MEDAN AMPLAS",20122,"Jalan Tuar Komplek Astra Blok 2 No 25",1,jne,,20000.00,299000.00,,0.00,cod,319000,payment-success,"18-04-2019 18:37"
121,NEXBAY.ID,#NEX100387,NBS00000001JBLGO,"JBL GO 2","ADITYA YULIANSYAH",0895-6354-46065,adityayuliansyah23@gmail.com,IDN,"DKI JAKARTA","KOTA JAKARTA BARAT","Kec. PALMERAH",11480,"JL. PALMERAH UTARA 3 RT 1 RW 3 BEDENK DEPAN PABRIK TAHU",1,jne,,20000.00,299000.00,,0.00,cod,319000,payment-success,"18-04-2019 18:34"
122,NEXBAY.ID,#NEX100386,NBS00000004JBLGO,"JBL GO 2",Habibi,082281154381,Habibi.agustiawan88@gmail.com,IDN,JAMBI,"KOTA JAMBI","Kec. TELANAI PURA",36129,"Dinas Kelautan dan Perikanan Provinsi. Jalan MT. Haryono No.09, Telanaipura, Kota Jambi ",1,jne,,20000.00,299000.00,FREEONGKIR,20000.00,cod,299000,payment-success,"18-04-2019 18:12"
123,NEXBAY.ID,#NEX100385,NBS00000004JBLGO,"JBL GO 2","Sultiah devi asdir",082192059946,asdirsultiah59@gmail.con,IDN,"SULAWESI SELATAN","KABUPATEN LUWU TIMUR","Kec. NUHA",92984,"Jalan Mappaware No.17 tapuondau Soroako",1,jnt,,20000.00,299000.00,,0.00,cod,319000,payment-success,"18-04-2019 17:50"
124,NEXBAY.ID,#NEX100384,NBS00000002JBLGO,"JBL GO 2","Widhi Jaya Saputra",085338405960,widhi7286@gmail.com,IDN,BALI,"KABUPATEN BADUNG","Kec. KUTA",80361,"Komplek Burung Jalan Kutilang 26 Tuban",1,jne,,20000.00,299000.00,,0.00,cod,319000,payment-success,"18-04-2019 17:39"
125,NEXBAY.ID,#NEX100383,NBS00000005JBLGO,"JBL GO 2","Benyamin TS",082289110315,Benyamintomas99@gmail.com,IDN,"DKI JAKARTA","KOTA JAKARTA BARAT","Kec. GROGOL PETAMBURAN",11450,"Jl tawakal 6 no 19 A ",1,jnt,,20000.00,299000.00,,0.00,cod,319000,payment-success,"18-04-2019 17:23"
126,NEXBAY.ID,#NEX100382,NBS00000002JBLGO,"JBL GO 2","Maharani Br Ginting",085830834179,mhrnginting10@gmail.com,IDN,"SUMATERA UTARA","KOTA MEDAN","Kec. MEDAN SELAYANG",20131,"jl.Bunga Sedap Malam III F (Tekang Catering)",1,jne,5405721900000143,20000.00,299000.00,,0.00,cod,319000,delivery-process,"18-04-2019 16:04"
127,NEXBAY.ID,#NEX100381,NBS00000001JBLGO,"JBL GO 2",Ayu,081279009014,Wahyutriedea@yahoo.com,IDN,LAMPUNG,"KABUPATEN LAMPUNG SELATAN","Kec. NATAR",35362,"Natar induk ",1,jnt,5405721900000150,20000.00,349000.00,,0.00,cod,369000,delivery-process,"18-04-2019 15:20"
128,NEXBAY.ID,#NEX100378,NBS00000001TAS,"Smart Backpack ","IPEN ",085277712998,Ipen65@gmail.com,IDN,ACEH,"KOTA BANDA ACEH","Kec. KUTA RAJA",23128,"Jl T Dianjong Dusun Tuan Dibanda No 334 Gampong Jawa",1,jne,5405721900000168,20000.00,330000.00,,0.00,cod,350000,delivery-process,"18-04-2019 10:29"
129,NEXBAY.ID,#NEX100368,NBS00000001TAS,"Smart Backpack ","Mutia Sahara R",081377181699,reiya_rofanda@yahoo.co.id,IDN,"JAWA BARAT","KOTA BANDUNG","Kec. BOJONGLOA KIDUL",40235,"Jl. Mekarsari Makmur No.17",1,jnt,,20000.00,330000.00,,0.00,transfer,350000,wait-payment,"16-04-2019 16:20"
130,NEXBAY.ID,#NEX100366,NBS00000001TAS,"Smart Backpack ","Veronica Parhusip",082167924646,veronicarumata0805@gmail.com,IDN,"SUMATERA UTARA","KABUPATEN SAMOSIR","Kec. NAINGGOLAN",22394,HutaBolon,1,jne,5405721900000119,20000.00,330000.00,,0.00,cod,350000,delivery-process,"15-04-2019 21:58"
131,NEXBAY.ID,#NEX100365,NBS00000002TAS,"Smart Backpack","maulana alim simanjuntak",082167693267,alimmaulana32@gmail.com,IDN,"SUMATERA UTARA","KABUPATEN TAPANULI UTARA","Kec. SIPOHOLON",22452,"smk nahanson jln balige km 07 sipoholon",1,jnt,5405721900000127,20000.00,330000.00,,0.00,cod,350000,delivery-process,"15-04-2019 21:14"
132,NEXBAY.ID,#NEX100364,NBS00000002TAS,"Smart Backpack","Fakhrur Razi",085270070300,Fachrurrazi.fr@gmail.com,IDN,ACEH,"KABUPATEN ACEH TENGGARA","Kec. BABUSSALAM",24651,"Komp. Perumahan Nuansa Alas Indah Block B.II No.17 Desa Kutagaluh Asli",1,jne,5405721900000135,20000.00,330000.00,,0.00,cod,350000,delivery-process,"15-04-2019 20:15"
133,NEXBAY.ID,#NEX100363,NBS00000001TAS,"Smart Backpack ","Satria nindita",081286013574,Satriazero@gmail.com,IDN,"DI YOGYAKARTA","KABUPATEN SLEMAN","Kec. DEPOK",19461,"Jl lely 4 no. 191 candi indah, condong catur, depok, sleman, yogyakarta",1,jne,5405721900000101,20000.00,330000.00,,0.00,transfer,350000,delivery-process,"14-04-2019 19:10"
134,NEXBAY.ID,#NEX100362,NBS00000002TAS,"Smart Backpack","Fallentino Febriyan",081290731065,Falentino05@gmail.com,IDN,BANTEN,"KOTA TANGERANG SELATAN","Kec. Setu",15313,"Komplek Batan Indah Blok J-44 Rt/Rw 03/04",1,jnt,5405721900000069,20000.00,330000.00,,0.00,cod,350000,completed,"13-04-2019 07:50"
135,NEXBAY.ID,#NEX100361,NBS00000001TAS,"Smart Backpack ",Michael,085146294378,michaelyhuanlee@gmail.com,IDN,"SULAWESI SELATAN","KABUPATEN TANA TORAJA","Kec. MAKALE",81268,"Jln. Poros  makale  bera",1,jne,,20000.00,330000.00,,0.00,cod,350000,cancel,"12-04-2019 22:20"
136,NEXBAY.ID,#NEX100360,NBS00000002TAS,"Smart Backpack","Grace Kurniawan",08989100608,grace.kurniawan721@gmail.com,IDN,"DKI JAKARTA","KOTA JAKARTA BARAT","Kec. GROGOL PETAMBURAN",11460,"Taman Duta Mas Blok B8 No 19 RT 03 RW 09",1,jne,5405721900000093,20000.00,330000.00,,0.00,cod,350000,completed,"12-04-2019 17:50"
137,NEXBAY.ID,#NEX100359,NBS00000001TAS,"Smart Backpack ","Alisa Khodarinnada",081249021998,khodarinnada1006@gmail.com,IDN,"JAWA TIMUR","KABUPATEN KEDIRI","Kec. GURAH",64181,"Dsn ringin rejo, ds. Tiru lor",1,jne,5405721900000077,20000.00,330000.00,,0.00,cod,350000,delivery-process,"12-04-2019 16:48"
138,NEXBAY.ID,#NEX100358,NBS00000002TAS,"Smart Backpack","Christian sam",081248050581,greatofgamer@gmail.com,IDN,PAPUA,"KABUPATEN MIMIKA","Kec. MIMIKA  BARU",99910,"Jl budi utomo blakang bca",1,jnt,5405721900000085,20000.00,330000.00,,0.00,cod,350000,cancel,"12-04-2019 16:33"
139,NEXBAY.ID,#NEX100357,NBS00000002TAS,"Smart Backpack","Eprisan grace meliala",+6282168072855,eprisansembiring366@gmail.com,IDN,"SUMATERA UTARA","KABUPATEN DELI SERDANG","Kec. SIBIRU-BIRU",20358,"Dusun 2 periaria",1,jne,,20000.00,330000.00,,0.00,cod,350000,cancel,"12-04-2019 07:08"
140,NEXBAY.ID,#NEX100356,NBS00000001TAS,"Smart Backpack ","Dewa ketut mahesa",082293002170,Dewa.123mahesa@gmail.com,IDN,"SULAWESI TENGAH","KABUPATEN POSO","Kec. PAMONA BARAT","Pamona barat 94662","Provinsi Sulawesi tengah, kabupaten poso, kecamatan pamona barat, desa salukaia, jalan parawisata no 310",1,jnt,5405721900000051,20000.00,330000.00,,0.00,cod,350000,delivery-process,"12-04-2019 05:50"
141,NEXBAY.ID,#NEX100355,NBS00000001TAS,"Smart Backpack ","Riyan Afiafara",085695668985,masqollby001@gmail.com,IDN,"JAWA TIMUR","KABUPATEN MOJOKERTO","Kec. Jetis",61352,"Dusun Sambi Gembol Rt.1 Rw.4 Desa Lakardowo",1,jne,5405721900000044,20000.00,330000.00,,0.00,cod,350000,completed,"11-04-2019 22:19"
142,NEXBAY.ID,#NEX100354,NBS00000001TAS,"Smart Backpack ",Nikma,081230018543,Adityareza90@gmail.com,IDN,"JAWA TIMUR","KOTA SURABAYA","Kec. Wonocolo",60229,"Jl a yani no 117 jemurwonosari",1,jne,,20000.00,330000.00,,0.00,transfer,350000,cancel,"11-04-2019 21:01"
143,NEXBAY.ID,#NEX100353,NBS00000001TAS,"Smart Backpack ","Nur Widia Ningsih",082363813679,ningsih310@gmail.com,IDN,ACEH,"KABUPATEN ACEH TAMIANG","Kec. BENDAHARA",24472,"Dusun Dana Mulia, Desa Suka Jadi, Kecamatan Banda Mulia, Kabupaten Aceh Tamiang",1,jnt,5405721900000036,20000.00,330000.00,,0.00,cod,350000,cancel,"11-04-2019 19:59"
144,NEXBAY.ID,#NEX100352,NBS00000002TAS,"Smart Backpack","Ahmad Husaini",082151866163,ahmad.husainikdg@gmail.com,IDN,"KALIMANTAN SELATAN","KABUPATEN HULU SUNGAI SELATAN","Kec. KANDANGAN",71213,"d/a: Penerbit Sahabat Pustaka Jalan Kolonel Sugiono/Nirwana 3/II No. 61 Kandangan 71213 Kalimantan Selatan INDONESIA",1,jnt,5405721900000028,20000.00,330000.00,,0.00,cod,350000,completed,"11-04-2019 16:29"
145,NEXBAY.ID,#NEX100351,NBS00000002TAS,"Smart Backpack","Robby Rahadi Putra",085370328577,robbyrahadi7@gmail.com,IDN,"SUMATERA UTARA","KOTA MEDAN","Kec. MEDAN JOHOR",20142,"Jl. Jamin Ginting Km 8 Perumahan Buena Vista Blok B no 12, Kelurahan Kwala Bekala",1,jnt,5405721900000010,20000.00,330000.00,,0.00,cod,350000,refund,"11-04-2019 09:20"
