"Batch Status Update Resi Pengiriman"
"Dont change the data, only fill the resi column ( Column 7)"
"if resi column blank, the rows data not updated"
"if resi column filled, data will be update & customer will receive an update (via wa & email)"

=============================================================
No,"Order ID","Payment Method",Nama,Alamat,Email,"No Resi"
1,#NEX100649,transfer,"Gabriela Simanjuntak","Jl. Bunga Terompet no. 119 (depan Akper Elizabeth), Kel. Sempakata-KOTA MEDAN",gabrielasimanjuntak@gmail.com,
2,#NEX100648,transfer,"Gabriela Simanjuntak","Jl. Bunga Terompet no. 119 (depan Akper Elizabeth)-KOTA MEDAN",gabrielasimanjuntak@gmail.com,
3,#NEX100647,cod,"Ratih setia gina","Desa margomulyo rt 3 rw 2 kec. Panggungrejo Kab. Blitar-KABUPATEN BLITAR",Ratihsetiagina170494@gmail.com,
4,#NEX100646,transfer,"Izdihar Rahmadinda","Jalan Kamelia No. 27-KOTA MALANG",izdiharrahmadinda@gmail.com,
5,#NEX100645,cod,"Irma Rogabe Sembiring","Jl. Abdul Majid Dalam III no. 4-KOTA JAKARTA SELATAN",Irmasembiring18@gmail.com,
6,#NEX100644,cod,"Tascha Titi Radhani","jl.layur 7 no.3 minomartani-KABUPATEN SLEMAN",tascharadhani@gmail.com,
7,#NEX100643,cod,"RANGGA ADITYA PUTRA","Tangerang Golden City Blok B7 No 11 Sepatan-KABUPATEN TANGERANG",didiet710@gmail.com,
8,#NEX100642,transfer,"Mikhael Tarigan","Jl. Kolonel Ahmad Syam Komplek Puri Indah Blok D4 No. 18-KABUPATEN SUMEDANG",tariganmikhael@gmail.com,
9,#NEX100641,cod,Sutrisno,"Jl. Parangtritis 115e-KOTA YOGYAKARTA",trisno2879@gmail.com,
10,#NEX100640,cod,"Gusti adelia amali","Jalan dahlia-KOTA BANJARMASIN",Gustiadeli26@gmail.com,
11,#NEX100639,cod,"Dian Hutami Rahmawati","Perum sulfat greenland c4-KOTA MALANG",dianhutamirahmawati@gmail.com,
12,#NEX100638,cod,"Ni luh kadek mia suci artini","Jl.raya uluwatu, gg. pesakapan indah no.1 , Ungasan . ( gang rumah tepat di depan restaurant Jibob , sebelum pertamina ungasan-uluwatu) -KABUPATEN BADUNG",miasuci990@yahoo.co.id,
13,#NEX100637,transfer,"Djulida Husin","Jl. Kolonel Atmo 382G-KOTA PALEMBANG",Rckychndr04@gmail.com,
14,#NEX100636,cod,"Naudy Germanimo Laksmana","Kantor GO-JEK, Pasaraya Blok M Gedung B Lantai.5, Jalan Iskandarsyah II No.2, Jakarta Selatan-KOTA JAKARTA SELATAN",naudy.laksmana@gmail.com,
15,#NEX100635,cod,"Oekik Dhian Damajanti","Jl. Raya Darmo no 5 Surabaya . PT Bank BCA Kanwil 3 Lantai 6 PIKW-KOTA SURABAYA",fakhrilmaulanahabibi@gmail.com,
16,#NEX100634,cod,"Intan Andini","Jl. Pinus 2 blok D2. No. 29-KOTA TANGERANG SELATAN",ippa1994@gmail.com,
17,#NEX100633,transfer,"Hafidz Qusyairi","Jl. Batu Zamrut No. 38, Pulomas-KOTA JAKARTA TIMUR",qusyairihafidz@gmail.com,
18,#NEX100632,transfer,"Hafidz Qusyairi","Jl. Batu Zamrut No. 38, Pulomas-KOTA JAKARTA TIMUR",qusyairihafidz@gmail.com,
19,#NEX100631,transfer,"Fitria Haryani","Jl. Puri Indah Raya Blok S-2 RT1/RW 2 (RSPI Puri Indah)-KOTA JAKARTA BARAT",Fharyani6@gmail.com,
20,#NEX100630,transfer,vierdellana,"Anomal Coffee Setiabudi One, Jl HR. Rasuna Said no 62-KOTA JAKARTA SELATAN",vierdellana@gmail.com,
21,#NEX100629,transfer,"Syefrina salsabila","Jalan wijaya XVI no.7 melawai kebayoran baru jakarta selatan-KOTA JAKARTA SELATAN",syefrina.salsabila@gmail.com,
22,#NEX100628,cod,"putri indah p","jalan abadi regency no.1A-KOTA BANDUNG",putrindahper@gmail.com,
23,#NEX100627,transfer,"Syefrina salsabila","Jalan wijaya XVI no.7 melawai kebayoran baru jakarta selatan-KOTA JAKARTA SELATAN",syefrina.salsabila@gmail.com,
24,#NEX100626,cod,"Bahy jaya rosella","Sayaangkaak no.34 rt02/06 kel kebon kayanti kec kiaracondong bandung-KOTA BANDUNG",Bahe.jaya@gmail.com,
25,#NEX100625,cod,"Benny Hot Martua","Jl. KH. Tb. Mardjuk No.90-KOTA CILEGON",benny_alone81@yahoo.com,
26,#NEX100624,cod,"Teuku Nuzul Akbar","Jl. Asrama Komplek Bumi Asri Blok E No. 197-KOTA MEDAN",t.nuzul14@gmail.com,
27,#NEX100623,transfer,"dinar fenisia","komp. cipinang indah 1, jl. nusa indah 2, blok. o, no. w-KOTA JAKARTA TIMUR",dfenisia79@gmail.com,
28,#NEX100622,transfer,"Aurora ivana ","Jalan Siwalankerto VIII blok AB 8-KOTA SURABAYA",Auroraivanaa@gmail.com,
29,#NEX100621,cod,"Alia Khalisa","Perumahan Jati Warna Indah Jl. Bunga Matahari Utama Blok d no.4 bekasi kode pos: 17415-KOTA BEKASI",aliakhalisa@yahoo.com,
30,#NEX100620,cod,"Elalqodris Armadian","Polsek Lubuk Baja, Jl. Bunga Raya No.1 -KOTA B A T A M",earmadian@gmail.com,
31,#NEX100619,cod,"Afrizal Albar R","Apartemen City Park Tower G Lt. 12 No 1-KOTA JAKARTA BARAT",izalalbaar@gmail.com,
32,#NEX100618,cod,"Dadang Sulaeman","Jl syeh maulana akbar no.268 rt9 rw3-KABUPATEN KUNINGAN",dadang.sulaeman805@gmail.com,
33,#NEX100617,cod,"Anastasya Christie Liando","Nama: Anastasya Liando Alamat: PT. Bank Mandiri (Persero) Tbk. SME Area Manado. Jl Dotulolong Lasut No.9, Manado 95122-KOTA MANADO",Achaliando@yahoo.com,
34,#NEX100616,cod,"Yely Decylia","Citra Garden City 3 blok D9 no. 12-KOTA JAKARTA BARAT",yely_fang@yahoo.com,
35,#NEX100615,cod,"Djody Mochammad abdullah / Dimas","Jl. Palagan Monjali, Gang Serbaguna No.67C Sedan (masuk sebelah apotek kimia farma) dusun Sedan. Desa Sari Harjo.-KABUPATEN SLEMAN",dimasdjody21@gmail.com,
36,#NEX100614,cod,"Talenta erixon","Jalan upah tendi sebayang Gang Cahaya No. 4 Kabanjahe-KABUPATEN KARO",talentfreeman@gmail.com,
37,#NEX100613,cod,"Andi famita","Perumahan duta garden blok beverly hills D2 no.11-KOTA TANGERANG",a.famitaaliah@gmail.com,
38,#NEX100612,cod,"Devi putri k","Perumahan wahana mulia 2B -KABUPATEN SLEMAN",Devipk72@gmail.com,
39,#NEX100611,transfer,"Gradia Man","Rumah Jabatan Wakil Walikota Kupang Jln. R.W Monginsidi no. 1 Kel. Pasir Panjang, Kec. Kelapa Lima... Kupang-NTT-KOTA KUPANG",maria.gradia@gmail.com,
40,#NEX100610,transfer,"Afif Fadhyla Hernawan","Perum Mitra Griya Asri E-16 Wedomartani-KABUPATEN SLEMAN",reita.afif@yahoo.com,
41,#NEX100609,cod,heldin,"p. gangga lingk 1 samping asrama jayawijaya-KOTA MANADO",kasihaheldin@yahoo.co.id,
42,#NEX100608,transfer,"Viori dela detami","Jalan Hos Cokroaminoto, perumahan Ubud Village blok legian F1 no. 23 Sudimara Timur, Ciledug, Kota Tangerang, Banten 15151-KOTA TANGERANG",viora.detami@gmail.com,
43,#NEX100607,cod,"Aswin Panjaitan","Jl. Lamongan No. 6 Antapani Bandung  -KOTA BANDUNG",aswin.panjaitan@gmail.com,
44,#NEX100606,cod,"Ni putu jeni clara santi ariska","Banjar / jln penestanan kelod, desa sayan ( di rumah bela / di jaya galeri sebelah pura dalem )-KABUPATEN GIANYAR",Jeniclara88@gmail.com,
45,#NEX100605,cod,"Dara Arvianty Zein","KOI Cafe Indonesia, Plaza Kedoya Elok, Blok DE no. 1 dan 2. Jl. Panjang Kedoya - Kb. Jeruk, Jakarta Barat 11520-KOTA JAKARTA BARAT",Daraazein@gmail.com,
46,#NEX100604,cod,Novi,"Jl. Buru no.  41b -KOTA MAKASSAR",novi.tangkilisan@gmail.com,
47,#NEX100603,cod,"Resnu Adi","Jl. Pinus II GA:21, Solo Baru, Grogol, Sukoharjo 57552-KABUPATEN SUKOHARJO",Wicaksonoresnuadi@yahoo.com,
48,#NEX100602,transfer,Ira,"Citra 1 Blok D4 no 1-KOTA JAKARTA BARAT",hello.iraxu@gmail.com,
49,#NEX100601,cod,Riki,"Jl. Gunung sahari komp ruko marinatama i10-11-KOTA JAKARTA UTARA",Richieivanderwongso890@gmail.com,
50,#NEX100600,cod,"Muhammad Fuad Fajri","Kantor Kecamatan Salam (BAWASLU), Semen, Sucen, Salam, Magelang, 56484-KABUPATEN MAGELANG",fajrifuad24@gmail.com,
51,#NEX100599,transfer,"Fikirialdi Aditya","Jl. H. Abdul Gani II, Amarylis Garden No. A17-KABUPATEN BOGOR",Fikrialdi.aditya@gmail.com,
52,#NEX100598,cod,"Ben desky","Jln sembada xvi komplek grand koserna residence no 88Q-KOTA MEDAN",Bendesky02@gmail.com,
53,#NEX100597,cod,"Muhammad Surya","Jalan Kelingkit No.79, Jakarta Selatan -KOTA JAKARTA SELATAN",iamsurya20@yahoo.com,
54,#NEX100596,cod,"Wina Hardini","Plaza Oleos tower 1, jl tb simatupang nomor 53A, PT Homecredit Indonesia-KOTA JAKARTA SELATAN",wina.hardini@gmail.com,
55,#NEX100595,transfer,"Anastasia Yuanita ","Jln. Suryodiningratan 37 -KOTA YOGYAKARTA",yuanitanastasia@gmail.com,
56,#NEX100594,cod,"Kiki kurniawan","Ruko poris indah blok A-9 kel. Cipondoh indah kec. Cipondoh kota tangerang-KOTA TANGERANG",Kikialditsa@gmail.com,
57,#NEX100593,transfer,"Deden Maulana","Jalan Muchtar Raya Gang Haji Itih, RT 012/RW 001, No.45. Kelurahan Petukangan Utara-KOTA JAKARTA SELATAN",maulanadedenn@yahoo.com,
58,#NEX100592,cod,"Rafli Ferdiyanto","Kavling Pratama jl.Tongkol no.76 Rt015/005 kode pos 14140, Kelurahan Rorotan, Kecamatan Cilincing Jakarta Utara-KOTA JAKARTA UTARA",rafliferdiyanto98@gmail.com,
59,#NEX100591,cod,"Rionaldy Surya","Jln. Danau sunter utara blok b 1a no12 Toko Taja Durian-KOTA JAKARTA UTARA",Rionaldy35@gmail.com,
