"RECEIVER NAME*","RECEIVER ADDRESS*","RECEIVER CITY*","RECEIVER ZIP","RECEIVER REGION*","RECEIVER CONTACT","RECEIVER PHONE*",QTY*,WEIGHT*,"GOODS DESC*","GOODS VALUE","SPECIAL INSTRUCTION",SERVICE*,"ORDER ID/REFERENCE NUMBER*",INSURANCE*
"Geny Aprilia Triani","Jl. Pada Asri no. 20, Kel: Padasuka, Komplek: Bumi Asri 4, Rt/Rw 004/005 - Kec: CIMENYAN","KABUPATEN BANDUNG",40192,"JAWA BARAT","Geny Aprilia Triani",'087713780605,1,1,"JBL GO 2 Warna Green",319000,Handed,REG,#NEX100752,N
"Kristina yuliyanti","Taman levina cluster puring no 43 jalan maesa  - Kec: CURUG","KABUPATEN TANGERANG",15810,BANTEN,"Kristina yuliyanti",'081220739895,1,1,"JBL GO 2 Warna Black",299000,Handed,REG,#NEX100749,N
Bella,"PT Tanjungpura Lintas Borneo Jl kebun sirih III no16 - Kec: TANAH ABANG","KOTA JAKARTA PUSAT",10250,"DKI JAKARTA",Bella,'082255753090,1,1,"JBL GO 2 Warna Red",299000,Handed,REG,#NEX100747,N
"Lois Karmelia Sumbung","Jl. Socrate AG/23 (PERDOS UNHAS TAMALANREA) - Kec: TAMALANREA","KOTA MAKASSAR",90245,"SULAWESI SELATAN","Lois Karmelia Sumbung",'081244221119,1,1,"JBL GO 2 Warna Black",319000,Handed,REG,#NEX100745,N
"Adeputri Suci Harum Dewi","JL DR SOETOMO 31, RT 001 RW 001 KELURAHAN LETEH - Kec: REMBANG","KABUPATEN REMBANG",59217,"JAWA TENGAH","Adeputri Suci Harum Dewi",'082242701965,1,1,"JBL GO 2 Warna Black",319000,Handed,REG,#NEX100735,N
"Vicky Putriningtyas","Legenda wisata Cibubur, zona rembrandt h5/ no.46 - Kec: CIRACAS","KOTA JAKARTA TIMUR",16960,"DKI JAKARTA","Vicky Putriningtyas",'08569832727,1,1,"JBL GO 2 Warna Green",319000,Handed,REG,#NEX100728,N
"Een Danti Maladi","(Niera Kost) Pogung Kidul SIA 16 No. 1B Rt 3 Rw 49 Mlati Sleman Yogyakarta 55284 - Kec: MLATI","KABUPATEN SLEMAN",55284,"DI YOGYAKARTA","Een Danti Maladi",'082299448657,1,1,"JBL GO 2 Warna Black",299000,Handed,REG,#NEX100711,N
"Andre surya winata","Jalan industri 5 no. 5 rt 014/001 gunung sahari utara, sawah besar, jakarta 10720 - Kec: SAWAH BESAR","KOTA JAKARTA PUSAT",10720,"DKI JAKARTA","Andre surya winata",'083895834049,1,1,"JBL GO 2 Warna Black",299000,Handed,REG,#NEX100707,N
"Dede Amalo","PERUM DE GRAHA SUCI RESIDENCE No. 108 Jalan Poros Tebalo, Suci Manyar Gresik ( Kolam Pemancingan PPS Belakang )  - Kec: Manyar","KABUPATEN GRESIK",61151,"JAWA TIMUR","Dede Amalo",'081334194449,1,1,"JBL GO 2 Warna Gold",319000,Handed,REG,#NEX100685,N
"Lidya Sasmita Indriany","Jl. Ketintang Baru No. 11 - Kec: Gayungan","KOTA SURABAYA",60231,"JAWA TIMUR","Lidya Sasmita Indriany",'082116406433,1,1,"JBL GO 2 Warna Green",319000,Handed,REG,#NEX100680,N
"Octitania Berlianinda Pristianto","Jalan Candi Mendut 4 Perum Bamboo Park Kavling 5, RT 02 RW 08, Tulusrejo, Lowokwaru, Kota Malang 65142 - Kec: Lowokwaru","KOTA MALANG",65142,"JAWA TIMUR","Octitania Berlianinda Pristianto",'081299090489,1,1,"JBL GO 2 Warna Green",299000,Handed,REG,#NEX100679,N
"yofik nugroho","jalan ahmad yani no : 26 (Ringin Semar) Surakarta - Kec: JEBRES","KOTA SURAKARTA",57128,"JAWA TENGAH","yofik nugroho",'081331068458,1,1,"JBL GO 2 Warna Black",299000,Handed,REG,#NEX100671,N
"Sang Ayu K","Komp. Pradha Ciganitri no 3A - Kec: BOJONGSOANG","KABUPATEN BANDUNG",40287,"JAWA BARAT","Sang Ayu K",'081224022051,1,1,"JBL GO 2 Warna Green",319000,Handed,REG,#NEX100668,N
"Muhammad Farhan Ino","Jl.taman malaka selatan,komp.Buaran Regency blok E.15/16,pondok kelapa,duren sawit,jakarta timur. - Kec: DUREN SAWIT","KOTA JAKARTA TIMUR",13450,"DKI JAKARTA","Muhammad Farhan Ino",'081284244747,1,1,"JBL GO 2 Warna Black",319000,Handed,REG,#NEX100662,N
Khaleda,"Bank Mega Cikini, jl. Cikini Raya no.28A - Kec: MENTENG","KOTA JAKARTA PUSAT",10330,"DKI JAKARTA",Khaleda,'087880088923,1,1,"JBL GO 2 Warna Gold",299000,Handed,REG,#NEX100661,N
