"RECEIVER NAME*","RECEIVER ADDRESS*","RECEIVER CITY*","RECEIVER ZIP","RECEIVER REGION*","RECEIVER CONTACT","RECEIVER PHONE*",QTY*,WEIGHT*,"GOODS DESC*","GOODS VALUE","SPECIAL INSTRUCTION",SERVICE*,"ORDER ID/REFERENCE NUMBER*",INSURANCE*,"ORDER DATE"
"Patriyo azhar","Jl. Bendera cijantung rt.09 rw.011 no.2 kel. Cijantung  - Kec: PASAR REBO","KOTA JAKARTA TIMUR",13770,"DKI JAKARTA","Patriyo azhar",'081908831893,1,1,"JBL GO 2 Warna Gold",319000,Handed,REG,#NEX100966,N,"30-04-2019 08:50"
"Axel Wowiling","BTN SKYLINE INDAH kotaraja jln.rajawali No. 16 - Kec: UNURUM GUAY","KABUPATEN JAYAPURA",99351,PAPUA,"Axel Wowiling",'082248580306,1,1,"Smart Wireless LED Bluetooth Speaker 2019 Dengan Mode Sentuh.",319000,Handed,REG,#NEX100961,N,"30-04-2019 07:34"
"Anggita Maharani","AVANI ECO HUB - Jl. Cargo Permai No.188, Dusun Liligundi - Ubung Kaja - Kec: Denpasar Utara","KOTA DENPASAR",80116,BALI,"Anggita Maharani",'081294411352,1,1,"JBL GO 2 Warna Gold",319000,Handed,REG,#NEX100959,N,"30-04-2019 07:18"
"Nabilla Dwi Agintha","Jalan Ring Road Utara Gang Narodo No.4b, Manggung, Caturtunggal, Kec. Depok, Kabupaten Sleman, Daerah Istimewa Yogyakarta - Kec: DEPOK","KABUPATEN SLEMAN",55281,"DI YOGYAKARTA","Nabilla Dwi Agintha",'08116381313,1,1,"JBL GO 2 Warna Black",319000,Handed,REG,#NEX100953,N,"30-04-2019 02:46"
"Fabianus abraham","Ruko grand galaxi city RRG 9 no. 52 (resto TARIDA) - Kec: BEKASI  SELATAN","KOTA BEKASI",17146,"JAWA BARAT","Fabianus abraham",'087886273229,1,1,"JBL GO 2 Warna Black",319000,Handed,REG,#NEX100948,N,"30-04-2019 00:15"
"Inaz Diandra","Jl. Kalisari II No.76 RT 006/002 - Kec: PASAR REBO","KOTA JAKARTA TIMUR",13790,"DKI JAKARTA","Inaz Diandra",'081222238810,1,1,"JBL GO 2 Warna Black",319000,Handed,REG,#NEX100924,N,"29-04-2019 18:42"
Mardiana,"Plaza PP Lt 3 Divisi EPC Jl. TB Simatupang No. 57 - Kec: PASAR REBO","KOTA JAKARTA TIMUR",13760,"DKI JAKARTA",Mardiana,'08119585098,1,1,"JBL GO 2 Warna Red",319000,Handed,REG,#NEX100836,N,"28-04-2019 17:37"
