"Batch Status Update Resi Pengiriman"
"Dont change the data only fill the resi column ( Column 5)"
"if resi column blank the rows data not updated"
"if resi column filled data will be update & customer will receive an update (via wa & email)"
======================================================================
No,"Order ID","Payment Method",Nama,"No Resi"
1,#NEX100651,cod,"Agung Detritha Martha",
2,#NEX100650,transfer,"Alfi syahrin",
3,#NEX100649,transfer,"Gabriela Simanjuntak",
4,#NEX100648,transfer,"Gabriela Simanjuntak",
5,#NEX100647,cod,"Ratih setia gina",
6,#NEX100646,transfer,"Izdihar Rahmadinda",
7,#NEX100645,cod,"Irma Rogabe Sembiring",
8,#NEX100644,cod,"Tascha Titi Radhani",
9,#NEX100643,cod,"RANGGA ADITYA PUTRA",
10,#NEX100642,transfer,"Mikhael Tarigan",
11,#NEX100641,cod,Sutrisno,
12,#NEX100640,cod,"Gusti adelia amali",
13,#NEX100639,cod,"Dian Hutami Rahmawati",
14,#NEX100638,cod,"Ni luh kadek mia suci artini",
15,#NEX100637,transfer,"Djulida Husin",
16,#NEX100636,cod,"Naudy Germanimo Laksmana",
17,#NEX100635,cod,"Oekik Dhian Damajanti",
18,#NEX100634,cod,"Intan Andini",
19,#NEX100633,transfer,"Hafidz Qusyairi",
20,#NEX100632,transfer,"Hafidz Qusyairi",
21,#NEX100631,transfer,"Fitria Haryani",
22,#NEX100630,transfer,vierdellana,
23,#NEX100629,transfer,"Syefrina salsabila",
24,#NEX100628,cod,"putri indah p",
25,#NEX100627,transfer,"Syefrina salsabila",
26,#NEX100626,cod,"Bahy jaya rosella",
27,#NEX100625,cod,"Benny Hot Martua",
28,#NEX100624,cod,"Teuku Nuzul Akbar",
29,#NEX100623,transfer,"dinar fenisia",
30,#NEX100622,transfer,"Aurora ivana ",
31,#NEX100621,cod,"Alia Khalisa",
32,#NEX100620,cod,"Elalqodris Armadian",
33,#NEX100619,cod,"Afrizal Albar R",
34,#NEX100618,cod,"Dadang Sulaeman",
35,#NEX100617,cod,"Anastasya Christie Liando",
36,#NEX100616,cod,"Yely Decylia",
37,#NEX100615,cod,"Djody Mochammad abdullah / Dimas",
38,#NEX100614,cod,"Talenta erixon",
39,#NEX100613,cod,"Andi famita",
40,#NEX100612,cod,"Devi putri k",
41,#NEX100611,transfer,"Gradia Man",
42,#NEX100610,transfer,"Afif Fadhyla Hernawan",
43,#NEX100609,cod,heldin,
44,#NEX100608,transfer,"Viori dela detami",
45,#NEX100607,cod,"Aswin Panjaitan",
46,#NEX100606,cod,"Ni putu jeni clara santi ariska",
47,#NEX100605,cod,"Dara Arvianty Zein",
48,#NEX100604,cod,Novi,
49,#NEX100603,cod,"Resnu Adi",
50,#NEX100602,transfer,Ira,
51,#NEX100601,cod,Riki,
52,#NEX100600,cod,"Muhammad Fuad Fajri",
53,#NEX100599,transfer,"Fikirialdi Aditya",
54,#NEX100598,cod,"Ben desky",
55,#NEX100597,cod,"Muhammad Surya",
56,#NEX100596,cod,"Wina Hardini",
57,#NEX100595,transfer,"Anastasia Yuanita ",
58,#NEX100594,cod,"Kiki kurniawan",
59,#NEX100593,transfer,"Deden Maulana",
60,#NEX100592,cod,"Rafli Ferdiyanto",
61,#NEX100591,cod,"Rionaldy Surya",
62,#NEX100590,cod,"Leonard philippus",
63,#NEX100589,cod,"Garry Geraldy",
64,#NEX100588,transfer,"Dimas Herjuno Darpito",
65,#NEX100586,transfer,"Jaceynda Dinata",
66,#NEX100585,cod,"Trendy Bregantoro",
67,#NEX100584,cod,"Aldo Gifari",
68,#NEX100583,transfer,Natahania,
69,#NEX100582,cod,"Erick stanley",
70,#NEX100581,transfer,"Reza Nur Lesmana",
71,#NEX100579,cod,"Yolanda Karina",
72,#NEX100578,cod,"Andry wibowo",
73,#NEX100577,cod,"Rizky Ginting",
74,#NEX100576,cod,"Andreas Geovani Lukito",
75,#NEX100575,cod,"Fenansia Clara",
76,#NEX100574,transfer,"Candra Kurniawan",
77,#NEX100573,cod,"Abhi Yoga Pradana",
78,#NEX100572,transfer,"Seno saputra",
79,#NEX100571,cod,"Bagas Mardiasyah Prakoso",
80,#NEX100570,cod,"Hafizh Musyafaa Althaf",
81,#NEX100569,cod,Rinaldi,
82,#NEX100568,transfer,"Andik Setiyawan",
83,#NEX100567,cod,"Ferhdy bima sakti",
84,#NEX100566,transfer,"Kadek adi arya indrawan",
85,#NEX100565,cod,"Muh Irsyad",
86,#NEX100564,transfer,"Herdi Wira Aditya",
87,#NEX100563,cod,"galih jananuraga",
88,#NEX100562,transfer,"Dwi Graha Pangestu",
89,#NEX100561,transfer,"kelly krisania",
90,#NEX100560,cod,"Hanggayuh SH",
91,#NEX100559,cod,"Hanna Oktaviana Sutopo",
92,#NEX100558,cod,Didit,
93,#NEX100557,cod,"Jeanne Sarira Mangiwa",
94,#NEX100556,cod,"iqbal saelam harbyanto",
95,#NEX100555,cod,Arkajendra,
96,#NEX100554,cod,"Alfath Rizky ",
97,#NEX100553,cod,"Resmita Dwi Aryani",
98,#NEX100552,transfer,"Azizah Putri Anyani",
99,#NEX100551,cod,"Rani widya",
100,#NEX100550,cod,Amelia,
101,#NEX100549,cod,"Perkasa Pangaribuan",
102,#NEX100548,cod,"fasya tsanaya safira",
103,#NEX100547,cod,"Muhammad Rizal Subkhan",
104,#NEX100546,cod,"Yoga Aziz",
105,#NEX100545,cod,"Muhammad ihsanul amal",
106,#NEX100544,cod,"Muhammad kafin fauzan",
107,#NEX100543,transfer,"Ichsan Dharmawan",
108,#NEX100542,transfer,"Aviva indira",
109,#NEX100541,transfer,"Aviva Indira V",
110,#NEX100540,transfer,"Agung Ari Putra",
111,#NEX100539,cod,"Rayyan fakhri",
112,#NEX100538,cod,"poltak binsar",
113,#NEX100537,cod,"Rian Pramana",
114,#NEX100536,transfer,"Naurafatin Layyina",
115,#NEX100535,cod,"Carolyn Rose",
116,#NEX100534,cod,"Lolak bagaskara",
117,#NEX100533,cod,"Adam Maulana",
118,#NEX100532,cod,"Aufa Sabila",
119,#NEX100530,cod,"Kivry Elrick Salmon",
120,#NEX100531,cod,"Fendy anta jaya",
121,#NEX100529,transfer,"Muhammad Hafief Irfia",
122,#NEX100528,cod,Izzata,
123,#NEX100527,cod,Dwiamanta,
124,#NEX100526,cod,Yande,
125,#NEX100525,cod,"Marcellino Donata",
126,#NEX100524,cod,"Dwiamanta Nuraprilliani",
127,#NEX100523,cod,"sulthan azhar",
128,#NEX100522,cod,"Irwanda prastantia",
129,#NEX100521,cod,Nando,
130,#NEX100520,cod,"Ari Wibowo",
131,#NEX100519,transfer,"Marcha Fairuz Izdihar",
132,#NEX100518,transfer,"Ian tarigan",
133,#NEX100517,cod,"Wulan Lonteng",
134,#NEX100516,transfer,"Ngakan Krisna",
135,#NEX100515,cod,"Kenny Prihantoro",
136,#NEX100514,cod,"Ghifar anshary",
137,#NEX100513,cod,"luriza alfariez",
138,#NEX100512,cod,"MELY BAGIAN DOCUMENT",
139,#NEX100511,cod,"Alduvan Zakariah Hamzah",
140,#NEX100510,transfer,"Umair sulaiman",
141,#NEX100509,cod,"Catherine Larasati",
142,#NEX100508,cod,"Michael Kristianto",
143,#NEX100507,cod,"Dimas amalia",
144,#NEX100506,transfer,"alam dava arkananta",
145,#NEX100505,transfer,"agus fonna",
146,#NEX100504,transfer,"Muhammad reza alkindi",
147,#NEX100503,cod,"Ngakan arimbawa",
148,#NEX100502,cod,"Richard Junior",
149,#NEX100501,cod,"Yogi Alif Rahmanda",
150,#NEX100500,cod,"Andhika zakaria anwar",
151,#NEX100499,cod,"H HERSETO",
152,#NEX100498,transfer,"Debby Hutabarat",
153,#NEX100497,cod,"H HERSETO",
154,#NEX100496,cod,"Igede ariyawan",
155,#NEX100495,cod,"Rakanda eka prasetyo",
156,#NEX100494,cod,"Bambang rendy pratama",
157,#NEX100493,cod,"Desi Natalia Nainggolan",
158,#NEX100492,cod,"Naufaldy Obianka ",
159,#NEX100491,cod,Jumrina,
160,#NEX100490,cod,"Nabila Rahma G",
161,#NEX100489,transfer,"Ericson Posmanov Martua Silalahi",
162,#NEX100488,cod,"Krishna Syahrifky",
163,#NEX100487,transfer,"Agung Ari Putra",
164,#NEX100486,cod,"Faizal Refandi",
165,#NEX100485,transfer,"Tegar Indhira T",
166,#NEX100484,cod,"Andika Indra Wardana",
167,#NEX100483,cod,"Wulan oktaviana",
168,#NEX100482,transfer,"Satya yustisio",
169,#NEX100481,cod,"A. Muh. Nuzul",
170,#NEX100480,cod,Albaihaqi,
171,#NEX100479,cod,"Andi faizal",
172,#NEX100478,cod,"angga putra",
173,#NEX100477,cod,"DESTOMI JONANDA",
174,#NEX100476,transfer,"Agnes Tiurma Manurung",
175,#NEX100475,cod,"Felix Andika Wicaksono",
176,#NEX100474,cod,"Kadek Ari Sukmantara",
177,#NEX100473,transfer,"Annisa Rahmawati",
178,#NEX100472,transfer,Nana,
179,#NEX100471,cod,"Tomy Nur Hermawan",
180,#NEX100470,transfer,"Sarah agustini",
181,#NEX100469,cod,"nahdah zhafirah",
182,#NEX100468,cod,"videlia veriska",
183,#NEX100467,cod,Apinxz,
184,#NEX100466,transfer,"Ayu Putri Malika",
185,#NEX100465,cod,Supiyanto,
186,#NEX100464,transfer,"sabrina aulia nasywa",
187,#NEX100463,cod,"Stefanus tanner",
188,#NEX100462,cod,"Genial S",
189,#NEX100461,transfer,"Genial S Muslima",
190,#NEX100460,transfer,"Ghina Nsirina",
191,#NEX100459,cod,"Nahdah Zhafirah",
192,#NEX100458,cod,"Anggi Afriani",
193,#NEX100457,cod,"Louis gustanto",
194,#NEX100456,cod,"Nadia Safira",
195,#NEX100455,cod,"Hirzi Mahardhika Iskandar",
196,#NEX100454,transfer,prevalno,
197,#NEX100453,cod,"Tetty Pangesti",
198,#NEX100452,cod,Syofyan,
199,#NEX100451,cod,"sintia oktavia",
200,#NEX100450,cod,"titania ayu marsya",
201,#NEX100449,transfer,"Raihan Tsany N",
202,#NEX100448,cod,"Romi ardiansyah",
203,#NEX100447,cod,"nadhisa arnes",
204,#NEX100446,cod,"siti akilah labitta",
205,#NEX100445,transfer,"Muhammad Davy Huditama",
206,#NEX100444,transfer,"Alifia Bunga Geraldin",
207,#NEX100443,cod,Mirany,
208,#NEX100442,cod,"Saiful bahri",
209,#NEX100441,cod,"Felix Uranus",
210,#NEX100440,cod,"Mizan Alfiansyah",
211,#NEX100439,cod,"Faradisa mutiara",
212,#NEX100438,cod,"Muhammad Raihan Gisdamuron",
213,#NEX100437,cod,"Gista permata",
214,#NEX100436,cod,"Christopher Kenneth ",
215,#NEX100435,cod,"Andika sewanto",
216,#NEX100434,cod,"William Gavin",
217,#NEX100433,cod,"Dwi Syahrul",
218,#NEX100432,cod,"Dheva Vembyawan Rahadi",
219,#NEX100431,cod,"Bagus alfian",
220,#NEX100430,transfer,"Dhafi rahmatul ikma",
221,#NEX100429,cod,"Kadek indah dwi cahyani",
222,#NEX100428,transfer,"Regina Maghvironi",
223,#NEX100427,cod,"Joshua Erlangga",
224,#NEX100426,cod,"Rino Novidias Gia Cinta",
225,#NEX100425,transfer,"Andi Muhammad Imam Ridzali",
226,#NEX100424,cod,"A.A istri fermas paramitha",
227,#NEX100423,transfer,"amanda aprilia",
228,#NEX100422,cod,Fachruddin,
229,#NEX100421,transfer,"Dava Ardiansyah Abid Tunggono",
230,#NEX100420,cod,"Fairuz tsabit prasetyo",
231,#NEX100419,cod,"Muhamad Sabri",
232,#NEX100418,transfer,"Muhammad Rifki",
233,#NEX100417,cod,"Nicolas jonathan",
234,#NEX100416,transfer,"Ajeng Alfiani",
235,#NEX100415,transfer,"Indah wulansari",
236,#NEX100414,cod,"Albert Tandiawan",
237,#NEX100413,transfer,"Septiana Rizky",
238,#NEX100412,transfer,"Albina kanaya",
239,#NEX100411,transfer,"Muhammad Ilham Al Ghifari",
240,#NEX100410,cod,"Dea Sasangga",
241,#NEX100405,cod,"Fradila audrey sekar putri ",
242,#NEX100403,cod,"Rhiryn Tirsyad",
243,#NEX100402,cod,"Armilia Ailsa Ahnaf",
244,#NEX100401,cod,"Alfit jenifer",
245,#NEX100400,cod,Awaluddin,
246,#NEX100398,cod,"Angga Pratama",
247,#NEX100397,cod,Devina,
248,#NEX100396,cod,"Baskoro saputro",
249,#NEX100395,cod,"Gregorius Christian H D h",
250,#NEX100394,cod,"Azka Ciptadi",
251,#NEX100393,cod,"Awan heryanto",
252,#NEX100392,cod,"I WAYAN ARYA PRANATA",
253,#NEX100391,transfer,"Azka Ciptadi",
254,#NEX100390,cod,"Christ Simon",
255,#NEX100389,cod,"Reyhan satya imani",
256,#NEX100388,cod,"Muammar ichsan Harahap",
257,#NEX100387,cod,"ADITYA YULIANSYAH",
258,#NEX100386,cod,Habibi,
259,#NEX100385,cod,"Sultiah devi asdir",
260,#NEX100384,cod,"Widhi Jaya Saputra",
261,#NEX100383,cod,"Benyamin TS",
262,#NEX100382,cod,"Maharani Br Ginting",
263,#NEX100381,cod,Ayu,
264,#NEX100378,cod,"IPEN ",
265,#NEX100368,transfer,"Mutia Sahara R",
266,#NEX100366,cod,"Veronica Parhusip",
267,#NEX100365,cod,"maulana alim simanjuntak",
268,#NEX100364,cod,"Fakhrur Razi",
269,#NEX100363,transfer,"Satria nindita",
270,#NEX100362,cod,"Fallentino Febriyan",
271,#NEX100361,cod,Michael,
272,#NEX100360,cod,"Grace Kurniawan",
273,#NEX100359,cod,"Alisa Khodarinnada",
274,#NEX100358,cod,"Christian sam",
275,#NEX100357,cod,"Eprisan grace meliala",
276,#NEX100356,cod,"Dewa ketut mahesa",
277,#NEX100355,cod,"Riyan Afiafara",
278,#NEX100354,transfer,Nikma,
279,#NEX100353,cod,"Nur Widia Ningsih",
280,#NEX100352,cod,"Ahmad Husaini",
281,#NEX100351,cod,"Robby Rahadi Putra",
