Batch Status Update Resi Pengiriman,,,,
Dont change the data only fill the resi column ( Column 5),,,,
if resi column blank the rows data not updated,,,,
if resi column filled data will be update & customer will receive an update (via wa & email),,,,
======================================================================,,,,
No,Order ID,Payment Method,Nama,No Resi
1,#NEX100960,cod,Berwelly Anderson Tanzil,
2,#NEX100959,transfer,Anggita Maharani,
3,#NEX100958,transfer,Anggita Maharani,
4,#NEX100957,cod,farid noor ahmad,
5,#NEX100956,cod,RIZHAR SOLIHIN PRATAMA,
6,#NEX100955,cod,Ahmad yunus,
7,#NEX100954,cod,Wahyu saputra,
8,#NEX100953,transfer,Nabilla Dwi Agintha,
9,#NEX100952,cod,Agung ramadhan latif,
10,#NEX100951,transfer,Dinda Ayu,
11,#NEX100950,transfer,Pius Liu,
12,#NEX100949,cod,Dila fadilah,
13,#NEX100948,transfer,Fabianus abraham,
14,#NEX100947,cod,Hanni Novitasari Tandiari,
15,#NEX100946,transfer,Samuel Rudison,
16,#NEX100945,cod,Dini Fitri Alviani,
17,#NEX100944,transfer,Sondang F Tambunan,
18,#NEX100943,cod,emma asheera,
19,#NEX100942,cod,Yovan Martius,
20,#NEX100941,cod,Yoseptina Enggal Antika,
21,#NEX100940,cod,Dzulkifli Dinar,
22,#NEX100939,transfer,Dixter Nathanael Edward Pepah,
23,#NEX100938,cod,Dhiya Lathifa,
24,#NEX100937,transfer,Dhiya Lathifa,
25,#NEX100936,cod,lia kasmana,
26,#NEX100935,transfer,Gea tamassa,
27,#NEX100934,cod,Jaya,
28,#NEX100933,cod,Learnika,
29,#NEX100932,transfer,Riki Siuwandy,
30,#NEX100931,transfer,Merry Sonia ,
31,#NEX100930,cod,Alvian rizqullah,
32,#NEX100929,cod,Dicky Dias,
33,#NEX100928,cod,Muhammad muflihuen,
34,#NEX100927,cod,Ahmad Farid Al Husain,
35,#NEX100926,cod,Eskhana Carmelia S ,
36,#NEX100925,cod,Eskhana Carmelia s ,
37,#NEX100924,transfer,Inaz Diandra,
38,#NEX100923,cod,Suyudi H,
39,#NEX100922,cod,m rahmat alif,
40,#NEX100921,cod,Jk Arifin,
41,#NEX100920,cod,Josi Nur Panuntas Al Amin,
42,#NEX100919,cod,Aditya Nurcahyadi Putra,
43,#NEX100918,cod,Nadira Desiana Shinta,5405721900003378
44,#NEX100917,transfer,Sella jo,5405721900003873
45,#NEX100916,cod,Ovi Ryan,5405721900003386
46,#NEX100915,transfer,Victor Panca Pardede,5405721900003881
47,#NEX100914,transfer,Nurindra Widan alrahid,5405721900003899
48,#NEX100913,cod,Dewi,5405721900003394
49,#NEX100912,cod,Ajeng Paramidha,5405721900003402
50,#NEX100911,transfer,Riko Arfian,
51,#NEX100910,cod,Widia Pratami,5405721900003410
52,#NEX100909,transfer,Devi auberta,5405721900003907
53,#NEX100908,transfer,Harry Ferdinand Tampubolon,5405721900003915
54,#NEX100907,cod,Arto triputro,
55,#NEX100906,cod,Andreyne Lidya Zhelin Tuuk,5405721900003428
56,#NEX100905,transfer,Wisnu sari hidayat,5405721900003923
57,#NEX100904,transfer,Anggi Ellen,
58,#NEX100903,cod,Fadillah pertiwi,5405721900003436
59,#NEX100902,cod,Adistyanto fahmi wardhana,
60,#NEX100901,cod,DavidSugito,5405721900003444
61,#NEX100900,transfer,rezha amalia,5405721900003931
62,#NEX100899,transfer,Novi jayanti,5405721900003949
63,#NEX100898,cod,Ricky Setiawan,5405721900003451
64,#NEX100897,transfer,Dwi joko ristiyono,
65,#NEX100896,transfer,Melati Ester,
66,#NEX100895,cod,Berlian Rantetondok,
67,#NEX100894,transfer,Dewi Muria,
68,#NEX100893,cod,Egi,
69,#NEX100892,cod,Susanto,
70,#NEX100891,cod,Sheren olivea Oktaviani,5405721900003469
71,#NEX100890,cod,hanna chrismia lisanti,5405721900003477
72,#NEX100889,cod,Ferdian Eris Prianto,5405721900003485
73,#NEX100887,cod,Mentari ayu pratiwi,
74,#NEX100886,transfer,alvin aziz dermawan,
75,#NEX100885,cod,Jeffri,5405721900003493
76,#NEX100884,cod,Ikshan Dozi,5405721900003501
77,#NEX100883,cod,Puteri Reno Fadila,5405721900003519
78,#NEX100882,cod,Jason Reynaldi,5405721900003527
79,#NEX100881,cod,Thendy,
80,#NEX100880,cod,Jepri Herbet Siahaan,
81,#NEX100879,transfer,Ayunda ,
82,#NEX100878,transfer,Prengki,
83,#NEX100877,cod,Bagas Adi Prabowo,5405721900003535
84,#NEX100876,transfer,kevin kurniawan,5405721900003956
85,#NEX100875,transfer,Eskavia,
86,#NEX100874,transfer,Eskavia,
87,#NEX100873,cod,Wika Kusuma,5405721900003543
88,#NEX100872,cod,Tika Suciana Putri,5405721900003550
89,#NEX100871,cod,Desti Marlina,
90,#NEX100870,cod,Monika Brenna,5405721900003568
91,#NEX100869,cod,Michael Langelo,5405721900003576
92,#NEX100868,transfer,Dimas agus septian,
93,#NEX100867,transfer,Abdi Rahadyan Perdana Putra,
94,#NEX100866,cod,Erzan Ramdhani,5405721900003584
95,#NEX100865,cod,Rezha Pratama Adigunawan,
96,#NEX100864,cod,baruna,
97,#NEX100863,cod,Cicilia,
98,#NEX100862,cod,Imam mustofa,
99,#NEX100861,cod,Diantyriany,5405721900003592
100,#NEX100860,transfer,Xhintica wuland yuriza,5405721900003964
101,#NEX100859,transfer,Gian Satria Jasman,5405721900003972
102,#NEX100858,transfer,JESSICA CARERA SIMAMORA,
103,#NEX100857,cod,SRI SUPARTI,5405721900003600
104,#NEX100856,transfer,JESSICA CARERA SIMAMORA,
105,#NEX100855,cod,Budisetiadi Mardi,5405721900003618
106,#NEX100854,cod,Nada S Nazifa,5405721900003626
107,#NEX100853,cod,Naim dwianansya,5405721900003634
108,#NEX100852,transfer,Nicky Rayan,
109,#NEX100851,transfer,Puspa Imas Citrawati,5405721900003980
110,#NEX100850,transfer,Jose swiss,5405721900003998
111,#NEX100849,transfer,inten trisna putri,5405721900004004
112,#NEX100848,cod,Leory feitya,5405721900003642
113,#NEX100847,transfer,Robbi Marantika,5405721900004012
114,#NEX100846,cod,Regina Jessica Angeline Purba,5405721900003659
115,#NEX100845,cod,Kadek Agus widnyana,5405721900003667
116,#NEX100844,cod,Rizky Ridwansyah ,5405721900003675
117,#NEX100843,cod,Akbar Galuh,5405721900003683
118,#NEX100842,cod,Jhoni,5405721900003691
119,#NEX100841,cod,Natasya mahdalita,5405721900003709
120,#NEX100840,cod,Patria Eka Ratih,5405721900003717
121,#NEX100839,cod,Billy Wibisana Gunawan ,5405721900003725
122,#NEX100838,cod,Afriyansyah,5405721900003733
123,#NEX100837,transfer,Tarcisia Diatania,
124,#NEX100836,transfer,Mardiana,
125,#NEX100835,cod,Andrean Yang,5405721900003741
126,#NEX100834,cod,MUTHIA DWI WULANDARI,5405721900003758
127,#NEX100833,cod,Febria Yostian Naldi,5405721900003766
128,#NEX100832,cod,Geti pratiwi dwikadastry,5405721900003774
129,#NEX100831,cod,Jovian alexander,
130,#NEX100830,transfer,aldo fikri munandar,
131,#NEX100829,cod,Toko Udin bambu larangan,5405721900003782
132,#NEX100828,cod,Danu pangestu,5405721900003790
133,#NEX100827,cod,Paul Kevin,
134,#NEX100826,cod,Ni putu jeni clara santi ariska,
135,#NEX100825,transfer,Rezky Anthony,5405721900004020
136,#NEX100824,cod,steven wilbert,
137,#NEX100823,cod,Nurul qalbi mardin,
138,#NEX100822,transfer,Izhy Syah,
139,#NEX100821,cod,safa nisrina,5405721900003808
140,#NEX100820,cod,Hilda nurazizah,5405721900003816
141,#NEX100819,cod,Vivian Yovanka,5405721900003824
142,#NEX100818,transfer,Ni Putu Mitha Indrayani,5405721900004038
143,#NEX100817,cod,Roni hidayat ,
144,#NEX100816,transfer,Hafith Furqoni,5405721900004046
145,#NEX100815,cod,BUDI UTOMO,
146,#NEX100814,transfer,Dhenisya Ayuningtyas,
147,#NEX100813,transfer,Scarlet Yvette P,
148,#NEX100812,transfer,Jeanette Velicia,5405721900004053
149,#NEX100811,cod,Muhammad Rizqi Arifin Nugraha,
150,#NEX100810,cod,Andi Geby Nabila Fonda,
151,#NEX100809,cod,Denny Leonard Pasaribu,5405721900003832
152,#NEX100808,cod,Diah Yulan,5405721900003840
153,#NEX100807,transfer,maria magdalena,
154,#NEX100806,transfer,Dhevita Wulandari,
155,#NEX100805,transfer,Sekentya Mauridha,5405721900004061
156,#NEX100804,cod,Nurul ika damayanti,
157,#NEX100803,cod,devi wisika prajanti,
158,#NEX100802,cod,Elyza nurulita syari,
159,#NEX100801,cod,Ariq Galang Padantya,
160,#NEX100800,cod,Fauzy Achmad Affandi,
161,#NEX100799,cod,huda ondrio,
162,#NEX100798,cod,muhammad deddy rizal,5405721900003857
163,#NEX100797,transfer,Asep Syaefulloh,5405721900003865
164,#NEX100796,transfer,Risky Saputra ,
165,#NEX100795,transfer,Olviana elysia k,
166,#NEX100794,cod,Monika intan kirana,
167,#NEX100793,transfer,Dewa Comet,5405721900004079
168,#NEX100792,transfer,ranie khairunnisa,5405721900004087
169,#NEX100791,cod,Charnele,
170,#NEX100790,cod,Muamar Khadafi,
171,#NEX100789,transfer,Nur Zakia,
172,#NEX100788,cod,Yanty Purnama Sari,
173,#NEX100787,transfer,Ananda dwici darmawan,
174,#NEX100786,cod,Azulla zamzam,
175,#NEX100785,cod,juha firdaus,
176,#NEX100784,transfer,Andi cahyanto,
177,#NEX100783,cod,Azrif Hariry,
178,#NEX100782,cod,Raditya Adi,
179,#NEX100781,transfer,Regina K,
180,#NEX100780,cod,Riscky Dwi Wicaksono,
181,#NEX100779,transfer,sherly novi p,
182,#NEX100778,transfer,DANDY FITRIANTO,
183,#NEX100777,transfer,Bayu Sigit Geovany,
184,#NEX100776,cod,Chaidier Ismail H,
185,#NEX100775,cod,Komang sudiartana,
186,#NEX100774,cod,Farhan Najmi,
187,#NEX100773,cod,Seinda dwi sarwestry,
188,#NEX100772,transfer,Farhan Najmi,
189,#NEX100771,cod,Diva agrita dentisia wibowo,
190,#NEX100770,transfer,Sulthan Nafis,
191,#NEX100769,transfer,Sulthan Nafis,
192,#NEX100768,transfer,Iqbal Gianenggala,
193,#NEX100767,cod,Melinda Elfrida,
194,#NEX100766,cod,Patricia ,
195,#NEX100765,transfer,Fina Rahmawati,5405721900004095
196,#NEX100764,cod,Divo naufal hartono,
197,#NEX100763,transfer,Jefry arian,
198,#NEX100762,cod,Ari syarifudin Muslim ,
199,#NEX100761,cod,Reifan Chorneles,
200,#NEX100760,cod,Pradithia ezra,
201,#NEX100759,cod,Kevin christian,
202,#NEX100758,cod,annisa soraya,
203,#NEX100757,cod,Cloudy blonda,
204,#NEX100756,cod,Much irfan setio,
205,#NEX100755,cod,Yafiazmi Dhaniswara,
206,#NEX100754,cod,Wayan susanta,
207,#NEX100753,cod,Ardhia pramesti,
208,#NEX100752,transfer,Geny Aprilia Triani,
209,#NEX100751,cod,Bintang lousiadhi,
210,#NEX100750,cod,Anissa Tuasamu,
211,#NEX100749,transfer,Kristina yuliyanti,
212,#NEX100748,cod,Linda,
213,#NEX100747,transfer,Bella,
214,#NEX100746,transfer,Bella,
215,#NEX100745,transfer,Lois Karmelia Sumbung,
216,#NEX100744,cod,Siti Asyifa Cahyaningrum,
217,#NEX100743,cod,Vicky Ningtyas,
218,#NEX100742,cod,Dede Amalo,
219,#NEX100741,cod,Dessy Panggabean,
220,#NEX100740,cod,Yosua Wibowo,
221,#NEX100739,cod,sri nurjannah ,
222,#NEX100738,cod,Yurika Darmawan,
223,#NEX100737,cod,Komang sudiartana,
224,#NEX100736,cod,Abil Fida Maulana Yasa’,
225,#NEX100735,transfer,Adeputri Suci Harum Dewi,
226,#NEX100734,cod,Yudi Andrean,
227,#NEX100733,cod,Oscar ikhsan,
228,#NEX100732,cod,Agung Wendy Prasetyo,
229,#NEX100731,cod,Bima muhammad,
230,#NEX100730,cod,Valentinus Endy,
231,#NEX100729,cod,FADHILAH ROVIYANTI,
232,#NEX100728,transfer,Vicky Putriningtyas,
233,#NEX100727,cod,Annisa wulandari,
234,#NEX100726,cod,Monika,
235,#NEX100725,cod,Ronan Rahardja,
236,#NEX100724,cod,gen adyakancana,
237,#NEX100723,cod,I kadek agus dika priana,
238,#NEX100722,cod,081341380680Dwi bagua hastomo,
239,#NEX100721,cod,Astri,
240,#NEX100720,cod,Aprian Bantar Gohong,
241,#NEX100719,transfer,Refina Dwie Mayhestie,
242,#NEX100718,transfer,Saiful Marifat Sahuri,
243,#NEX100717,cod,I made purnawan,
244,#NEX100716,cod,Yogie Pratama,
245,#NEX100715,cod,Toni supomo ,
246,#NEX100714,cod,Stian adi putra,
247,#NEX100713,transfer,Bima novian,
248,#NEX100712,cod,Jerry,
249,#NEX100711,transfer,Een Danti Maladi,
250,#NEX100710,cod,Viony,
251,#NEX100709,cod,vikha alya nabilah,
252,#NEX100708,cod,Joan kei,
253,#NEX100707,transfer,Andre surya winata,
254,#NEX100706,cod,Rahmat noer fajri,
255,#NEX100705,cod,Tutur dwikrama,
256,#NEX100704,cod,Made Ivandrian Caron Darmawan,
257,#NEX100703,transfer,Siti hardianti rahmadi,
258,#NEX100702,transfer,Muhammad Abie,
259,#NEX100701,cod,Leo Nuter Tanaleppy,
260,#NEX100700,transfer,Yosi Octaviani Simanjuntak,
261,#NEX100699,cod,Muhammad Helmi Imaduddin,
262,#NEX100698,cod,Asrul wahid,
263,#NEX100697,cod,I wayan adi darma yasa,
264,#NEX100696,cod,Fardholi Sahrizal,
265,#NEX100695,cod,Ni Putu Ayu Mariana Arjana,
266,#NEX100694,cod,Melinda Elfrida,
267,#NEX100693,cod,Ahmad Thariq S,
268,#NEX100692,cod,Almer aprilioza,
269,#NEX100691,cod,Faisal,
270,#NEX100690,transfer,Indira Caesalita Naranata,
271,#NEX100689,cod,Nopi,
272,#NEX100688,cod,Leaonardo Oliver,
273,#NEX100687,cod,Hizrial Aidirrahman ,
274,#NEX100686,transfer,Arif nugroho,
275,#NEX100685,transfer,Dede Amalo,
276,#NEX100684,cod,Muhammad Dzaky,
277,#NEX100683,cod,Nyoman merita,
278,#NEX100682,cod,Suma Fitra,
279,#NEX100681,cod,anisha primalti,
280,#NEX100680,transfer,Lidya Sasmita Indriany,
281,#NEX100679,transfer,Octitania Berlianinda Pristianto,
282,#NEX100678,transfer,Pradina Mawar Primanti ,
283,#NEX100677,cod,Robin,
284,#NEX100676,cod,Maria novita rina,
285,#NEX100675,cod,Christophorus Anro Ada,
286,#NEX100674,cod,Suriyansyah rahaman,
287,#NEX100673,cod,Mia Farah Kamila,
288,#NEX100672,cod,Abigail Gabriela ,
289,#NEX100671,transfer,yofik nugroho,
290,#NEX100670,cod,Indra rachmad kurniawan,
291,#NEX100669,cod,Aldho Nugraha,
292,#NEX100668,transfer,Sang Ayu K,
293,#NEX100667,cod,rachmandalena,
294,#NEX100666,cod,Devita,
295,#NEX100665,cod,EGRI ELTAREQ ,
296,#NEX100664,cod,Wahyuni puspitasari,
297,#NEX100663,cod,Tiara Aulia Putri Kinasih,
298,#NEX100662,transfer,Muhammad Farhan Ino,
299,#NEX100661,transfer,Khaleda,
300,#NEX100660,cod,Ida Bgs Hendra Prawira Kusuma,
301,#NEX100659,transfer,Letda Ckm Abraham Valent,
302,#NEX100658,cod,Fadjar agustian,
303,#NEX100657,cod,Rovel Imanuel Tangkuman,
304,#NEX100654,cod,Elang Cantaka,
305,#NEX100651,cod,Agung Detritha Martha,
306,#NEX100650,transfer,Alfi syahrin,
307,#NEX100649,transfer,Gabriela Simanjuntak,
308,#NEX100648,transfer,Gabriela Simanjuntak,
309,#NEX100647,cod,Ratih setia gina,
310,#NEX100646,transfer,Izdihar Rahmadinda,
311,#NEX100645,cod,Irma Rogabe Sembiring,
312,#NEX100644,cod,Tascha Titi Radhani,
313,#NEX100643,cod,RANGGA ADITYA PUTRA,
314,#NEX100642,transfer,Mikhael Tarigan,
315,#NEX100641,cod,Sutrisno,
316,#NEX100640,cod,Gusti adelia amali,
317,#NEX100639,cod,Dian Hutami Rahmawati,
318,#NEX100638,cod,Ni luh kadek mia suci artini,
319,#NEX100637,transfer,Djulida Husin,
320,#NEX100636,cod,Naudy Germanimo Laksmana,
321,#NEX100635,cod,Oekik Dhian Damajanti,
322,#NEX100634,cod,Intan Andini,
323,#NEX100633,transfer,Hafidz Qusyairi,
324,#NEX100632,transfer,Hafidz Qusyairi,
325,#NEX100631,transfer,Fitria Haryani,
326,#NEX100630,transfer,vierdellana,
327,#NEX100629,transfer,Syefrina salsabila,
328,#NEX100628,cod,putri indah p,
329,#NEX100627,transfer,Syefrina salsabila,
330,#NEX100626,cod,Bahy jaya rosella,
331,#NEX100625,cod,Benny Hot Martua,
332,#NEX100624,cod,Teuku Nuzul Akbar,
333,#NEX100623,transfer,dinar fenisia,
334,#NEX100622,transfer,Aurora ivana ,
335,#NEX100621,cod,Alia Khalisa,
336,#NEX100620,cod,Elalqodris Armadian,
337,#NEX100619,cod,Afrizal Albar R,
338,#NEX100618,cod,Dadang Sulaeman,
339,#NEX100617,cod,Anastasya Christie Liando,
340,#NEX100616,cod,Yely Decylia,
341,#NEX100615,cod,Djody Mochammad abdullah / Dimas,
342,#NEX100614,cod,Talenta erixon,
343,#NEX100613,cod,Andi famita,
344,#NEX100612,cod,Devi putri k,
345,#NEX100611,transfer,Gradia Man,
346,#NEX100610,transfer,Afif Fadhyla Hernawan,
347,#NEX100609,cod,heldin,
348,#NEX100608,transfer,Viori dela detami,
349,#NEX100607,cod,Aswin Panjaitan,
350,#NEX100606,cod,Ni putu jeni clara santi ariska,
351,#NEX100605,cod,Dara Arvianty Zein,
352,#NEX100604,cod,Novi,
353,#NEX100603,cod,Resnu Adi,
354,#NEX100602,transfer,Ira,
355,#NEX100601,cod,Riki,
356,#NEX100600,cod,Muhammad Fuad Fajri,
357,#NEX100599,transfer,Fikirialdi Aditya,
358,#NEX100598,cod,Ben desky,
359,#NEX100597,cod,Muhammad Surya,
360,#NEX100596,cod,Wina Hardini,
361,#NEX100595,transfer,Anastasia Yuanita ,
362,#NEX100594,cod,Kiki kurniawan,
363,#NEX100593,transfer,Deden Maulana,
364,#NEX100592,cod,Rafli Ferdiyanto,
365,#NEX100591,cod,Rionaldy Surya,
366,#NEX100590,cod,Leonard philippus,
367,#NEX100589,cod,Garry Geraldy,
368,#NEX100588,transfer,Dimas Herjuno Darpito,
369,#NEX100586,transfer,Jaceynda Dinata,
370,#NEX100585,cod,Trendy Bregantoro,
371,#NEX100584,cod,Aldo Gifari,
372,#NEX100583,transfer,Natahania,
373,#NEX100582,cod,Erick stanley,
374,#NEX100581,transfer,Reza Nur Lesmana,
375,#NEX100579,cod,Yolanda Karina,
376,#NEX100578,cod,Andry wibowo,
377,#NEX100577,cod,Rizky Ginting,
378,#NEX100576,cod,Andreas Geovani Lukito,
379,#NEX100575,cod,Fenansia Clara,
380,#NEX100574,transfer,Candra Kurniawan,
381,#NEX100573,cod,Abhi Yoga Pradana,
382,#NEX100572,transfer,Seno saputra,
383,#NEX100571,cod,Bagas Mardiasyah Prakoso,
384,#NEX100570,cod,Hafizh Musyafaa Althaf,
385,#NEX100569,cod,Rinaldi,
386,#NEX100568,transfer,Andik Setiyawan,
387,#NEX100567,cod,Ferhdy bima sakti,
388,#NEX100566,transfer,Kadek adi arya indrawan,
389,#NEX100565,cod,Muh Irsyad,
390,#NEX100564,transfer,Herdi Wira Aditya,
391,#NEX100563,cod,galih jananuraga,
392,#NEX100562,transfer,Dwi Graha Pangestu,
393,#NEX100561,transfer,kelly krisania,
394,#NEX100560,cod,Hanggayuh SH,
395,#NEX100559,cod,Hanna Oktaviana Sutopo,
396,#NEX100558,cod,Didit,
397,#NEX100557,cod,Jeanne Sarira Mangiwa,
398,#NEX100556,cod,iqbal saelam harbyanto,
399,#NEX100555,cod,Arkajendra,
400,#NEX100554,cod,Alfath Rizky ,
401,#NEX100553,cod,Resmita Dwi Aryani,
402,#NEX100552,transfer,Azizah Putri Anyani,
403,#NEX100551,cod,Rani widya,
404,#NEX100550,cod,Amelia,
405,#NEX100549,cod,Perkasa Pangaribuan,
406,#NEX100548,cod,fasya tsanaya safira,
407,#NEX100547,cod,Muhammad Rizal Subkhan,
408,#NEX100546,cod,Yoga Aziz,
409,#NEX100545,cod,Muhammad ihsanul amal,
410,#NEX100544,cod,Muhammad kafin fauzan,
411,#NEX100543,transfer,Ichsan Dharmawan,
412,#NEX100542,transfer,Aviva indira,
413,#NEX100541,transfer,Aviva Indira V,
414,#NEX100540,transfer,Agung Ari Putra,
415,#NEX100539,cod,Rayyan fakhri,
416,#NEX100538,cod,poltak binsar,
417,#NEX100537,cod,Rian Pramana,
418,#NEX100536,transfer,Naurafatin Layyina,
419,#NEX100535,cod,Carolyn Rose,
420,#NEX100534,cod,Lolak bagaskara,
421,#NEX100533,cod,Adam Maulana,
422,#NEX100532,cod,Aufa Sabila,
423,#NEX100530,cod,Kivry Elrick Salmon,
424,#NEX100531,cod,Fendy anta jaya,
425,#NEX100529,transfer,Muhammad Hafief Irfia,
426,#NEX100528,cod,Izzata,
427,#NEX100527,cod,Dwiamanta,
428,#NEX100526,cod,Yande,
429,#NEX100525,cod,Marcellino Donata,
430,#NEX100524,cod,Dwiamanta Nuraprilliani,
431,#NEX100523,cod,sulthan azhar,
432,#NEX100522,cod,Irwanda prastantia,
433,#NEX100521,cod,Nando,
434,#NEX100520,cod,Ari Wibowo,
435,#NEX100519,transfer,Marcha Fairuz Izdihar,
436,#NEX100518,transfer,Ian tarigan,
437,#NEX100517,cod,Wulan Lonteng,
438,#NEX100516,transfer,Ngakan Krisna,
439,#NEX100515,cod,Kenny Prihantoro,
440,#NEX100514,cod,Ghifar anshary,
441,#NEX100513,cod,luriza alfariez,
442,#NEX100512,cod,MELY BAGIAN DOCUMENT,
443,#NEX100511,cod,Alduvan Zakariah Hamzah,
444,#NEX100510,transfer,Umair sulaiman,
445,#NEX100509,cod,Catherine Larasati,
446,#NEX100508,cod,Michael Kristianto,
447,#NEX100507,cod,Dimas amalia,
448,#NEX100506,transfer,alam dava arkananta,
449,#NEX100505,transfer,agus fonna,
450,#NEX100504,transfer,Muhammad reza alkindi,
451,#NEX100503,cod,Ngakan arimbawa,
452,#NEX100502,cod,Richard Junior,
453,#NEX100501,cod,Yogi Alif Rahmanda,
454,#NEX100500,cod,Andhika zakaria anwar,
455,#NEX100499,cod,H HERSETO,
456,#NEX100498,transfer,Debby Hutabarat,
457,#NEX100497,cod,H HERSETO,
458,#NEX100496,cod,Igede ariyawan,
459,#NEX100495,cod,Rakanda eka prasetyo,
460,#NEX100494,cod,Bambang rendy pratama,
461,#NEX100493,cod,Desi Natalia Nainggolan,
462,#NEX100492,cod,Naufaldy Obianka ,
463,#NEX100491,cod,Jumrina,
464,#NEX100490,cod,Nabila Rahma G,
465,#NEX100489,transfer,Ericson Posmanov Martua Silalahi,
466,#NEX100488,cod,Krishna Syahrifky,
467,#NEX100487,transfer,Agung Ari Putra,
468,#NEX100486,cod,Faizal Refandi,
469,#NEX100485,transfer,Tegar Indhira T,
470,#NEX100484,cod,Andika Indra Wardana,
471,#NEX100483,cod,Wulan oktaviana,
472,#NEX100482,transfer,Satya yustisio,
473,#NEX100481,cod,A. Muh. Nuzul,
474,#NEX100480,cod,Albaihaqi,
475,#NEX100479,cod,Andi faizal,
476,#NEX100478,cod,angga putra,
477,#NEX100477,cod,DESTOMI JONANDA,
478,#NEX100476,transfer,Agnes Tiurma Manurung,
479,#NEX100475,cod,Felix Andika Wicaksono,
480,#NEX100474,cod,Kadek Ari Sukmantara,
481,#NEX100473,transfer,Annisa Rahmawati,
482,#NEX100472,transfer,Nana,
483,#NEX100471,cod,Tomy Nur Hermawan,
484,#NEX100470,transfer,Sarah agustini,
485,#NEX100469,cod,nahdah zhafirah,
486,#NEX100468,cod,videlia veriska,
487,#NEX100467,cod,Apinxz,
488,#NEX100466,transfer,Ayu Putri Malika,
489,#NEX100465,cod,Supiyanto,
490,#NEX100464,transfer,sabrina aulia nasywa,
491,#NEX100463,cod,Stefanus tanner,
492,#NEX100462,cod,Genial S,
493,#NEX100461,transfer,Genial S Muslima,
494,#NEX100460,transfer,Ghina Nsirina,
495,#NEX100459,cod,Nahdah Zhafirah,
496,#NEX100458,cod,Anggi Afriani,
497,#NEX100457,cod,Louis gustanto,
498,#NEX100456,cod,Nadia Safira,
499,#NEX100455,cod,Hirzi Mahardhika Iskandar,
500,#NEX100454,transfer,prevalno,
501,#NEX100453,cod,Tetty Pangesti,
502,#NEX100452,cod,Syofyan,
503,#NEX100451,cod,sintia oktavia,
504,#NEX100450,cod,titania ayu marsya,
505,#NEX100449,transfer,Raihan Tsany N,
506,#NEX100448,cod,Romi ardiansyah,
507,#NEX100447,cod,nadhisa arnes,
508,#NEX100446,cod,siti akilah labitta,
509,#NEX100445,transfer,Muhammad Davy Huditama,
510,#NEX100444,transfer,Alifia Bunga Geraldin,
511,#NEX100443,cod,Mirany,
512,#NEX100442,cod,Saiful bahri,
513,#NEX100441,cod,Felix Uranus,
514,#NEX100440,cod,Mizan Alfiansyah,
515,#NEX100439,cod,Faradisa mutiara,
516,#NEX100438,cod,Muhammad Raihan Gisdamuron,
517,#NEX100437,cod,Gista permata,
518,#NEX100436,cod,Christopher Kenneth ,
519,#NEX100435,cod,Andika sewanto,
520,#NEX100434,cod,William Gavin,
521,#NEX100433,cod,Dwi Syahrul,
522,#NEX100432,cod,Dheva Vembyawan Rahadi,
523,#NEX100431,cod,Bagus alfian,
524,#NEX100430,transfer,Dhafi rahmatul ikma,
525,#NEX100429,cod,Kadek indah dwi cahyani,
526,#NEX100428,transfer,Regina Maghvironi,
527,#NEX100427,cod,Joshua Erlangga,
528,#NEX100426,cod,Rino Novidias Gia Cinta,
529,#NEX100425,transfer,Andi Muhammad Imam Ridzali,
530,#NEX100424,cod,A.A istri fermas paramitha,
531,#NEX100423,transfer,amanda aprilia,
532,#NEX100422,cod,Fachruddin,
533,#NEX100421,transfer,Dava Ardiansyah Abid Tunggono,
534,#NEX100420,cod,Fairuz tsabit prasetyo,
535,#NEX100419,cod,Muhamad Sabri,
536,#NEX100418,transfer,Muhammad Rifki,
537,#NEX100417,cod,Nicolas jonathan,
538,#NEX100416,transfer,Ajeng Alfiani,
539,#NEX100415,transfer,Indah wulansari,
540,#NEX100414,cod,Albert Tandiawan,
541,#NEX100413,transfer,Septiana Rizky,
542,#NEX100412,transfer,Albina kanaya,
543,#NEX100411,transfer,Muhammad Ilham Al Ghifari,
544,#NEX100410,cod,Dea Sasangga,
545,#NEX100405,cod,Fradila audrey sekar putri ,
546,#NEX100403,cod,Rhiryn Tirsyad,
547,#NEX100402,cod,Armilia Ailsa Ahnaf,
548,#NEX100401,cod,Alfit jenifer,
549,#NEX100400,cod,Awaluddin,
550,#NEX100398,cod,Angga Pratama,
551,#NEX100397,cod,Devina,
552,#NEX100396,cod,Baskoro saputro,
553,#NEX100395,cod,Gregorius Christian H D h,
554,#NEX100394,cod,Azka Ciptadi,
555,#NEX100393,cod,Awan heryanto,
556,#NEX100392,cod,I WAYAN ARYA PRANATA,
557,#NEX100391,transfer,Azka Ciptadi,
558,#NEX100390,cod,Christ Simon,
559,#NEX100389,cod,Reyhan satya imani,
560,#NEX100388,cod,Muammar ichsan Harahap,
561,#NEX100387,cod,ADITYA YULIANSYAH,
562,#NEX100386,cod,Habibi,
563,#NEX100385,cod,Sultiah devi asdir,
564,#NEX100384,cod,Widhi Jaya Saputra,
565,#NEX100383,cod,Benyamin TS,
566,#NEX100382,cod,Maharani Br Ginting,
567,#NEX100381,cod,Ayu,
568,#NEX100378,cod,IPEN ,
569,#NEX100368,transfer,Mutia Sahara R,
570,#NEX100366,cod,Veronica Parhusip,
571,#NEX100365,cod,maulana alim simanjuntak,
572,#NEX100364,cod,Fakhrur Razi,
573,#NEX100363,transfer,Satria nindita,
574,#NEX100362,cod,Fallentino Febriyan,
575,#NEX100361,cod,Michael,
576,#NEX100360,cod,Grace Kurniawan,
577,#NEX100359,cod,Alisa Khodarinnada,
578,#NEX100358,cod,Christian sam,
579,#NEX100357,cod,Eprisan grace meliala,
580,#NEX100356,cod,Dewa ketut mahesa,
581,#NEX100355,cod,Riyan Afiafara,
582,#NEX100354,transfer,Nikma,
583,#NEX100353,cod,Nur Widia Ningsih,
584,#NEX100352,cod,Ahmad Husaini,
585,#NEX100351,cod,Robby Rahadi Putra,
