Batch Status Update Resi Pengiriman;;;;
Dont change the data only fill the resi column ( Column 5);;;;
if resi column blank the rows data not updated;;;;
if resi column filled data will be update & customer will receive an update (via wa & email);;;;
======================================================================;;;;
No;Order ID;Payment Method;Nama;No Resi
1;#NEX100651;cod;Agung Detritha Martha;54345
2;#NEX100650;transfer;Alfi syahrin;3232434234