Batch Status Update Resi Pengiriman,,,,
Dont change the data only fill the resi column ( Column 5),,,,
if resi column blank the rows data not updated,,,,
if resi column filled data will be update & customer will receive an update (via wa & email),,,,
======================================================================,,,,
No,Order ID,Payment Method,Nama,No Resi
1,#NEX101009,cod,Diana Pingkan Panondang,
2,#NEX101008,cod,Steven leo,
3,#NEX101007,transfer,Putu Indah Sri Wahyuni,
4,#NEX101006,transfer,Eva Lambok Widyanati,
5,#NEX101005,cod,Rini sasmita,
6,#NEX101004,cod,prastisya anselma safira,
7,#NEX101003,transfer,Immanuel Agus Erlangga,
8,#NEX101002,transfer,Lalibah Ulfa,
9,#NEX101001,cod,Medhyk Indra Yuwono,
10,#NEX101000,transfer,Sandy Tri Putera,
11,#NEX100999,transfer,Eka Dharmayasa,
12,#NEX100998,cod,Suryani,
13,#NEX100997,cod,Nina karina,
14,#NEX100996,cod,Agus mangdin,
15,#NEX100995,cod,dzaky muhammad syafiq,
16,#NEX100994,cod,Jamal Abdul Nasyir,
17,#NEX100993,cod,Irdhas Fabian,
18,#NEX100992,cod,Aan,
19,#NEX100991,cod,Tjendra Vincent,
20,#NEX100990,cod,Akbar Zakaria,
21,#NEX100989,transfer,NISA,
22,#NEX100988,cod,Andika Dwiky Hermawan,
23,#NEX100987,cod,Rully Rachel,
24,#NEX100986,transfer,Martha Herliana Amadea,
25,#NEX100985,cod,Bayu prianto,
26,#NEX100984,transfer,Frisca Tjoe,
27,#NEX100983,transfer,nathasya,
28,#NEX100982,transfer,Yusti Meliana,
29,#NEX100981,cod,silvy andri,
30,#NEX100980,transfer,Ridho,
31,#NEX100979,cod,Mhd teja sukmana ,
32,#NEX100978,transfer,Lovely putri,
33,#NEX100977,cod,BERMANSYAH BERDI,5405721900004186
34,#NEX100976,cod,Pradita Dafriza,5405721900004194
35,#NEX100975,cod,Kayana Khansa,5405721900004202
36,#NEX100974,transfer,Nindita Arum Veibiani,
37,#NEX100973,transfer,Muhammad Firdaus,
38,#NEX100972,transfer,Fairuz Ramadhanti Heta,
39,#NEX100971,transfer,Ilham Nugraha,
40,#NEX100970,cod,Natasha abrel ardhani,5405721900004509
41,#NEX100969,cod,Alvin Rizqi,
42,#NEX100968,cod,Rima awaly,5405721900004210
43,#NEX100967,transfer,Atlan Panigus,
44,#NEX100966,transfer,Patriyo azhar,5405721900004103
45,#NEX100965,transfer,Yefi ursullah,
46,#NEX100964,transfer,Audhiya Rizky,
47,#NEX100963,cod,Rahmawati soleha,5405721900004228
48,#NEX100962,cod,Oryza,5405721900004517
49,#NEX100961,transfer,Axel Wowiling,5405721900004111
50,#NEX100960,cod,Berwelly Anderson Tanzil,5405721900004236
51,#NEX100959,transfer,Anggita Maharani,5405721900004129
52,#NEX100958,transfer,Anggita Maharani,
53,#NEX100957,cod,farid noor ahmad,5405721900004244
54,#NEX100956,cod,RIZHAR SOLIHIN PRATAMA,5405721900004251
55,#NEX100955,cod,Ahmad yunus,5405721900004269
56,#NEX100954,cod,Wahyu saputra,5405721900004277
57,#NEX100953,transfer,Nabilla Dwi Agintha,5405721900004137
58,#NEX100952,cod,Agung ramadhan latif,
59,#NEX100951,transfer,Dinda Ayu,
60,#NEX100950,transfer,Pius Liu,
61,#NEX100949,cod,Dila fadilah,
62,#NEX100948,transfer,Fabianus abraham,5405721900004145
63,#NEX100947,cod,Hanni Novitasari Tandiari,
64,#NEX100946,transfer,Samuel Rudison,
65,#NEX100945,cod,Dini Fitri Alviani,5405721900004285
66,#NEX100944,transfer,Sondang F Tambunan,
67,#NEX100943,cod,emma asheera,5405721900004293
68,#NEX100942,cod,Yovan Martius,
69,#NEX100941,cod,Yoseptina Enggal Antika,5405721900004301
70,#NEX100940,cod,Dzulkifli Dinar,5405721900004319
71,#NEX100939,transfer,Dixter Nathanael Edward Pepah,
72,#NEX100938,cod,Dhiya Lathifa,5405721900004327
73,#NEX100937,transfer,Dhiya Lathifa,
74,#NEX100936,cod,lia kasmana,5405721900004624
75,#NEX100935,transfer,Gea tamassa,
76,#NEX100934,cod,Jaya,5405721900004632
77,#NEX100933,cod,Learnika,5405721900004640
78,#NEX100932,transfer,Riki Siuwandy,
79,#NEX100931,transfer,Merry Sonia ,
80,#NEX100930,cod,Alvian rizqullah,5405721900004657
81,#NEX100929,cod,Dicky Dias,5405721900004665
82,#NEX100928,cod,Muhammad muflihuen,5405721900004673
83,#NEX100927,cod,Ahmad Farid Al Husain,5405721900004681
84,#NEX100926,cod,Eskhana Carmelia S ,5405721900004699
85,#NEX100925,cod,Eskhana Carmelia s ,5405721900004707
86,#NEX100924,transfer,Inaz Diandra,5405721900004152
87,#NEX100923,cod,Suyudi H,5405721900004715
88,#NEX100922,cod,m rahmat alif,5405721900004723
89,#NEX100921,cod,Jk Arifin,5405721900004731
90,#NEX100920,cod,Josi Nur Panuntas Al Amin,5405721900004749
91,#NEX100919,cod,Aditya Nurcahyadi Putra,
92,#NEX100918,cod,Nadira Desiana Shinta,
93,#NEX100917,transfer,Sella jo,
94,#NEX100916,cod,Ovi Ryan,
95,#NEX100915,transfer,Victor Panca Pardede,
96,#NEX100914,transfer,Nurindra Widan alrahid,
97,#NEX100913,cod,Dewi,
98,#NEX100912,cod,Ajeng Paramidha,
99,#NEX100911,transfer,Riko Arfian,
100,#NEX100910,cod,Widia Pratami,
101,#NEX100909,transfer,Devi auberta,
102,#NEX100908,transfer,Harry Ferdinand Tampubolon,
103,#NEX100907,cod,Arto triputro,
104,#NEX100906,cod,Andreyne Lidya Zhelin Tuuk,
105,#NEX100905,transfer,Wisnu sari hidayat,
106,#NEX100904,transfer,Anggi Ellen,
107,#NEX100903,cod,Fadillah pertiwi,
108,#NEX100902,cod,Adistyanto fahmi wardhana,
109,#NEX100901,cod,DavidSugito,
110,#NEX100900,transfer,rezha amalia,
111,#NEX100899,transfer,Novi jayanti,
112,#NEX100898,cod,Ricky Setiawan,
113,#NEX100897,transfer,Dwi joko ristiyono,
114,#NEX100896,transfer,Melati Ester,
115,#NEX100895,cod,Berlian Rantetondok,
116,#NEX100894,transfer,Dewi Muria,
117,#NEX100893,cod,Egi,
118,#NEX100892,cod,Susanto,5405721900004756
119,#NEX100891,cod,Sheren olivea Oktaviani,
120,#NEX100890,cod,hanna chrismia lisanti,5405721900004764
121,#NEX100889,cod,Ferdian Eris Prianto,
122,#NEX100887,cod,Mentari ayu pratiwi,
123,#NEX100886,transfer,alvin aziz dermawan,
124,#NEX100885,cod,Jeffri,
125,#NEX100884,cod,Ikshan Dozi,
126,#NEX100883,cod,Puteri Reno Fadila,
127,#NEX100882,cod,Jason Reynaldi,
128,#NEX100881,cod,Thendy,
129,#NEX100880,cod,Jepri Herbet Siahaan,
130,#NEX100879,transfer,Ayunda ,
131,#NEX100878,transfer,Prengki,
132,#NEX100877,cod,Bagas Adi Prabowo,
133,#NEX100876,transfer,kevin kurniawan,
134,#NEX100875,transfer,Eskavia,
135,#NEX100874,transfer,Eskavia,
136,#NEX100873,cod,Wika Kusuma,
137,#NEX100872,cod,Tika Suciana Putri,
138,#NEX100871,cod,Desti Marlina,
139,#NEX100870,cod,Monika Brenna,
140,#NEX100869,cod,Michael Langelo,
141,#NEX100868,transfer,Dimas agus septian,
142,#NEX100867,transfer,Abdi Rahadyan Perdana Putra,
143,#NEX100866,cod,Erzan Ramdhani,
144,#NEX100865,cod,Rezha Pratama Adigunawan,
145,#NEX100864,cod,baruna,
146,#NEX100863,cod,Cicilia,
147,#NEX100862,cod,Imam mustofa,
148,#NEX100861,cod,Diantyriany,
149,#NEX100860,transfer,Xhintica wuland yuriza,
150,#NEX100859,transfer,Gian Satria Jasman,
151,#NEX100858,transfer,JESSICA CARERA SIMAMORA,
152,#NEX100857,cod,SRI SUPARTI,
153,#NEX100856,transfer,JESSICA CARERA SIMAMORA,
154,#NEX100855,cod,Budisetiadi Mardi,
155,#NEX100854,cod,Nada S Nazifa,
156,#NEX100853,cod,Naim dwianansya,
157,#NEX100852,transfer,Nicky Rayan,
158,#NEX100851,transfer,Puspa Imas Citrawati,
159,#NEX100850,transfer,Jose swiss,
160,#NEX100849,transfer,inten trisna putri,
161,#NEX100848,cod,Leory feitya,
162,#NEX100847,transfer,Robbi Marantika,
163,#NEX100846,cod,Regina Jessica Angeline Purba,
164,#NEX100845,cod,Kadek Agus widnyana,
165,#NEX100844,cod,Rizky Ridwansyah ,
166,#NEX100843,cod,Akbar Galuh,
167,#NEX100842,cod,Jhoni,
168,#NEX100841,cod,Natasya mahdalita,
169,#NEX100840,cod,Patria Eka Ratih,
170,#NEX100839,cod,Billy Wibisana Gunawan ,
171,#NEX100838,cod,Afriyansyah,
172,#NEX100837,transfer,Tarcisia Diatania,
173,#NEX100836,transfer,Mardiana,5405721900004160
174,#NEX100835,cod,Andrean Yang,
175,#NEX100834,cod,MUTHIA DWI WULANDARI,
176,#NEX100833,cod,Febria Yostian Naldi,
177,#NEX100832,cod,Geti pratiwi dwikadastry,
178,#NEX100831,cod,Jovian alexander,
179,#NEX100830,transfer,aldo fikri munandar,
180,#NEX100829,cod,Toko Udin bambu larangan,
181,#NEX100828,cod,Danu pangestu,
182,#NEX100827,cod,Paul Kevin,5405721900004772
183,#NEX100826,cod,Ni putu jeni clara santi ariska,
184,#NEX100825,transfer,Rezky Anthony,
185,#NEX100824,cod,steven wilbert,5405721900004780
186,#NEX100823,cod,Nurul qalbi mardin,5405721900004798
187,#NEX100822,transfer,Izhy Syah,
188,#NEX100821,cod,safa nisrina,
189,#NEX100820,cod,Hilda nurazizah,
190,#NEX100819,cod,Vivian Yovanka,
191,#NEX100818,transfer,Ni Putu Mitha Indrayani,
192,#NEX100817,cod,Roni hidayat ,
193,#NEX100816,transfer,Hafith Furqoni,
194,#NEX100815,cod,BUDI UTOMO,
195,#NEX100814,transfer,Dhenisya Ayuningtyas,
196,#NEX100813,transfer,Scarlet Yvette P,
197,#NEX100812,transfer,Jeanette Velicia,
198,#NEX100811,cod,Muhammad Rizqi Arifin Nugraha,
199,#NEX100810,cod,Andi Geby Nabila Fonda,
200,#NEX100809,cod,Denny Leonard Pasaribu,
201,#NEX100808,cod,Diah Yulan,
202,#NEX100807,transfer,maria magdalena,
203,#NEX100806,transfer,Dhevita Wulandari,
204,#NEX100805,transfer,Sekentya Mauridha,
205,#NEX100804,cod,Nurul ika damayanti,
206,#NEX100803,cod,devi wisika prajanti,
207,#NEX100802,cod,Elyza nurulita syari,
208,#NEX100801,cod,Ariq Galang Padantya,
209,#NEX100800,cod,Fauzy Achmad Affandi,
210,#NEX100799,cod,huda ondrio,
211,#NEX100798,cod,muhammad deddy rizal,
212,#NEX100797,transfer,Asep Syaefulloh,
213,#NEX100796,transfer,Risky Saputra ,
214,#NEX100795,transfer,Olviana elysia k,
215,#NEX100794,cod,Monika intan kirana,
216,#NEX100793,transfer,Dewa Comet,
217,#NEX100792,transfer,ranie khairunnisa,
218,#NEX100791,cod,Charnele,
219,#NEX100790,cod,Muamar Khadafi,
220,#NEX100789,transfer,Nur Zakia,
221,#NEX100788,cod,Yanty Purnama Sari,
222,#NEX100787,transfer,Ananda dwici darmawan,
223,#NEX100786,cod,Azulla zamzam,
224,#NEX100785,cod,juha firdaus,
225,#NEX100784,transfer,Andi cahyanto,
226,#NEX100783,cod,Azrif Hariry,
227,#NEX100782,cod,Raditya Adi,
228,#NEX100781,transfer,Regina K,
229,#NEX100780,cod,Riscky Dwi Wicaksono,
230,#NEX100779,transfer,sherly novi p,
231,#NEX100778,transfer,DANDY FITRIANTO,
232,#NEX100777,transfer,Bayu Sigit Geovany,
233,#NEX100776,cod,Chaidier Ismail H,
234,#NEX100775,cod,Komang sudiartana,
235,#NEX100774,cod,Farhan Najmi,
236,#NEX100773,cod,Seinda dwi sarwestry,
237,#NEX100772,transfer,Farhan Najmi,
238,#NEX100771,cod,Diva agrita dentisia wibowo,
239,#NEX100770,transfer,Sulthan Nafis,
240,#NEX100769,transfer,Sulthan Nafis,
241,#NEX100768,transfer,Iqbal Gianenggala,
242,#NEX100767,cod,Melinda Elfrida,
243,#NEX100766,cod,Patricia ,
244,#NEX100765,transfer,Fina Rahmawati,
245,#NEX100764,cod,Divo naufal hartono,
246,#NEX100763,transfer,Jefry arian,
247,#NEX100762,cod,Ari syarifudin Muslim ,
248,#NEX100761,cod,Reifan Chorneles,
249,#NEX100760,cod,Pradithia ezra,
250,#NEX100759,cod,Kevin christian,
251,#NEX100758,cod,annisa soraya,
252,#NEX100757,cod,Cloudy blonda,
253,#NEX100756,cod,Much irfan setio,
254,#NEX100755,cod,Yafiazmi Dhaniswara,
255,#NEX100754,cod,Wayan susanta,
256,#NEX100753,cod,Ardhia pramesti,
257,#NEX100752,transfer,Geny Aprilia Triani,
258,#NEX100751,cod,Bintang lousiadhi,
259,#NEX100750,cod,Anissa Tuasamu,
260,#NEX100749,transfer,Kristina yuliyanti,
261,#NEX100748,cod,Linda,
262,#NEX100747,transfer,Bella,
263,#NEX100746,transfer,Bella,
264,#NEX100745,transfer,Lois Karmelia Sumbung,
265,#NEX100744,cod,Siti Asyifa Cahyaningrum,
266,#NEX100743,cod,Vicky Ningtyas,
267,#NEX100742,cod,Dede Amalo,
268,#NEX100741,cod,Dessy Panggabean,
269,#NEX100740,cod,Yosua Wibowo,
270,#NEX100739,cod,sri nurjannah ,
271,#NEX100738,cod,Yurika Darmawan,
272,#NEX100737,cod,Komang sudiartana,
273,#NEX100736,cod,Abil Fida Maulana Yasa’,
274,#NEX100735,transfer,Adeputri Suci Harum Dewi,
275,#NEX100734,cod,Yudi Andrean,
276,#NEX100733,cod,Oscar ikhsan,
277,#NEX100732,cod,Agung Wendy Prasetyo,
278,#NEX100731,cod,Bima muhammad,
279,#NEX100730,cod,Valentinus Endy,
280,#NEX100729,cod,FADHILAH ROVIYANTI,
281,#NEX100728,transfer,Vicky Putriningtyas,
282,#NEX100727,cod,Annisa wulandari,
283,#NEX100726,cod,Monika,
284,#NEX100725,cod,Ronan Rahardja,
285,#NEX100724,cod,gen adyakancana,
286,#NEX100723,cod,I kadek agus dika priana,
287,#NEX100722,cod,081341380680Dwi bagua hastomo,
288,#NEX100721,cod,Astri,
289,#NEX100720,cod,Aprian Bantar Gohong,
290,#NEX100719,transfer,Refina Dwie Mayhestie,
291,#NEX100718,transfer,Saiful Marifat Sahuri,
292,#NEX100717,cod,I made purnawan,
293,#NEX100716,cod,Yogie Pratama,
294,#NEX100715,cod,Toni supomo ,
295,#NEX100714,cod,Stian adi putra,
296,#NEX100713,transfer,Bima novian,
297,#NEX100712,cod,Jerry,
298,#NEX100711,transfer,Een Danti Maladi,
299,#NEX100710,cod,Viony,
300,#NEX100709,cod,vikha alya nabilah,
301,#NEX100708,cod,Joan kei,
302,#NEX100707,transfer,Andre surya winata,
303,#NEX100706,cod,Rahmat noer fajri,
304,#NEX100705,cod,Tutur dwikrama,
305,#NEX100704,cod,Made Ivandrian Caron Darmawan,
306,#NEX100703,transfer,Siti hardianti rahmadi,
307,#NEX100702,transfer,Muhammad Abie,
308,#NEX100701,cod,Leo Nuter Tanaleppy,
309,#NEX100700,transfer,Yosi Octaviani Simanjuntak,
310,#NEX100699,cod,Muhammad Helmi Imaduddin,
311,#NEX100698,cod,Asrul wahid,
312,#NEX100697,cod,I wayan adi darma yasa,
313,#NEX100696,cod,Fardholi Sahrizal,
314,#NEX100695,cod,Ni Putu Ayu Mariana Arjana,
315,#NEX100694,cod,Melinda Elfrida,
316,#NEX100693,cod,Ahmad Thariq S,
317,#NEX100692,cod,Almer aprilioza,
318,#NEX100691,cod,Faisal,
319,#NEX100690,transfer,Indira Caesalita Naranata,
320,#NEX100689,cod,Nopi,
321,#NEX100688,cod,Leaonardo Oliver,
322,#NEX100687,cod,Hizrial Aidirrahman ,
323,#NEX100686,transfer,Arif nugroho,
324,#NEX100685,transfer,Dede Amalo,
325,#NEX100684,cod,Muhammad Dzaky,
326,#NEX100683,cod,Nyoman merita,
327,#NEX100682,cod,Suma Fitra,
328,#NEX100681,cod,anisha primalti,
329,#NEX100680,transfer,Lidya Sasmita Indriany,
330,#NEX100679,transfer,Octitania Berlianinda Pristianto,
331,#NEX100678,transfer,Pradina Mawar Primanti ,
332,#NEX100677,cod,Robin,
333,#NEX100676,cod,Maria novita rina,
334,#NEX100675,cod,Christophorus Anro Ada,
335,#NEX100674,cod,Suriyansyah rahaman,
336,#NEX100673,cod,Mia Farah Kamila,
337,#NEX100672,cod,Abigail Gabriela ,
338,#NEX100671,transfer,yofik nugroho,
339,#NEX100670,cod,Indra rachmad kurniawan,
340,#NEX100669,cod,Aldho Nugraha,
341,#NEX100668,transfer,Sang Ayu K,
342,#NEX100667,cod,rachmandalena,
343,#NEX100666,cod,Devita,
344,#NEX100665,cod,EGRI ELTAREQ ,
345,#NEX100664,cod,Wahyuni puspitasari,
346,#NEX100663,cod,Tiara Aulia Putri Kinasih,
347,#NEX100662,transfer,Muhammad Farhan Ino,
348,#NEX100661,transfer,Khaleda,
349,#NEX100660,cod,Ida Bgs Hendra Prawira Kusuma,
350,#NEX100659,transfer,Letda Ckm Abraham Valent,
351,#NEX100658,cod,Fadjar agustian,
352,#NEX100657,cod,Rovel Imanuel Tangkuman,
353,#NEX100654,cod,Elang Cantaka,
354,#NEX100651,cod,Agung Detritha Martha,
355,#NEX100650,transfer,Alfi syahrin,
356,#NEX100649,transfer,Gabriela Simanjuntak,
357,#NEX100648,transfer,Gabriela Simanjuntak,
358,#NEX100647,cod,Ratih setia gina,
359,#NEX100646,transfer,Izdihar Rahmadinda,
360,#NEX100645,cod,Irma Rogabe Sembiring,
361,#NEX100644,cod,Tascha Titi Radhani,
362,#NEX100643,cod,RANGGA ADITYA PUTRA,
363,#NEX100642,transfer,Mikhael Tarigan,
364,#NEX100641,cod,Sutrisno,
365,#NEX100640,cod,Gusti adelia amali,
366,#NEX100639,cod,Dian Hutami Rahmawati,
367,#NEX100638,cod,Ni luh kadek mia suci artini,
368,#NEX100637,transfer,Djulida Husin,
369,#NEX100636,cod,Naudy Germanimo Laksmana,
370,#NEX100635,cod,Oekik Dhian Damajanti,
371,#NEX100634,cod,Intan Andini,
372,#NEX100633,transfer,Hafidz Qusyairi,
373,#NEX100632,transfer,Hafidz Qusyairi,
374,#NEX100631,transfer,Fitria Haryani,
375,#NEX100630,transfer,vierdellana,
376,#NEX100629,transfer,Syefrina salsabila,
377,#NEX100628,cod,putri indah p,
378,#NEX100627,transfer,Syefrina salsabila,
379,#NEX100626,cod,Bahy jaya rosella,
380,#NEX100625,cod,Benny Hot Martua,
381,#NEX100624,cod,Teuku Nuzul Akbar,
382,#NEX100623,transfer,dinar fenisia,
383,#NEX100622,transfer,Aurora ivana ,
384,#NEX100621,cod,Alia Khalisa,
385,#NEX100620,cod,Elalqodris Armadian,
386,#NEX100619,cod,Afrizal Albar R,
387,#NEX100618,cod,Dadang Sulaeman,
388,#NEX100617,cod,Anastasya Christie Liando,
389,#NEX100616,cod,Yely Decylia,
390,#NEX100615,cod,Djody Mochammad abdullah / Dimas,
391,#NEX100614,cod,Talenta erixon,
392,#NEX100613,cod,Andi famita,
393,#NEX100612,cod,Devi putri k,
394,#NEX100611,transfer,Gradia Man,
395,#NEX100610,transfer,Afif Fadhyla Hernawan,
396,#NEX100609,cod,heldin,
397,#NEX100608,transfer,Viori dela detami,
398,#NEX100607,cod,Aswin Panjaitan,
399,#NEX100606,cod,Ni putu jeni clara santi ariska,
400,#NEX100605,cod,Dara Arvianty Zein,
401,#NEX100604,cod,Novi,
402,#NEX100603,cod,Resnu Adi,
403,#NEX100602,transfer,Ira,
404,#NEX100601,cod,Riki,
405,#NEX100600,cod,Muhammad Fuad Fajri,
406,#NEX100599,transfer,Fikirialdi Aditya,
407,#NEX100598,cod,Ben desky,
408,#NEX100597,cod,Muhammad Surya,
409,#NEX100596,cod,Wina Hardini,
410,#NEX100595,transfer,Anastasia Yuanita ,
411,#NEX100594,cod,Kiki kurniawan,
412,#NEX100593,transfer,Deden Maulana,
413,#NEX100592,cod,Rafli Ferdiyanto,
414,#NEX100591,cod,Rionaldy Surya,
415,#NEX100590,cod,Leonard philippus,
416,#NEX100589,cod,Garry Geraldy,
417,#NEX100588,transfer,Dimas Herjuno Darpito,
418,#NEX100586,transfer,Jaceynda Dinata,
419,#NEX100585,cod,Trendy Bregantoro,
420,#NEX100584,cod,Aldo Gifari,
421,#NEX100583,transfer,Natahania,
422,#NEX100582,cod,Erick stanley,
423,#NEX100581,transfer,Reza Nur Lesmana,
424,#NEX100579,cod,Yolanda Karina,
425,#NEX100578,cod,Andry wibowo,
426,#NEX100577,cod,Rizky Ginting,
427,#NEX100576,cod,Andreas Geovani Lukito,
428,#NEX100575,cod,Fenansia Clara,
429,#NEX100574,transfer,Candra Kurniawan,
430,#NEX100573,cod,Abhi Yoga Pradana,
431,#NEX100572,transfer,Seno saputra,
432,#NEX100571,cod,Bagas Mardiasyah Prakoso,
433,#NEX100570,cod,Hafizh Musyafaa Althaf,
434,#NEX100569,cod,Rinaldi,
435,#NEX100568,transfer,Andik Setiyawan,
436,#NEX100567,cod,Ferhdy bima sakti,
437,#NEX100566,transfer,Kadek adi arya indrawan,
438,#NEX100565,cod,Muh Irsyad,
439,#NEX100564,transfer,Herdi Wira Aditya,
440,#NEX100563,cod,galih jananuraga,
441,#NEX100562,transfer,Dwi Graha Pangestu,
442,#NEX100561,transfer,kelly krisania,
443,#NEX100560,cod,Hanggayuh SH,
444,#NEX100559,cod,Hanna Oktaviana Sutopo,
445,#NEX100558,cod,Didit,
446,#NEX100557,cod,Jeanne Sarira Mangiwa,
447,#NEX100556,cod,iqbal saelam harbyanto,
448,#NEX100555,cod,Arkajendra,
449,#NEX100554,cod,Alfath Rizky ,
450,#NEX100553,cod,Resmita Dwi Aryani,
451,#NEX100552,transfer,Azizah Putri Anyani,
452,#NEX100551,cod,Rani widya,
453,#NEX100550,cod,Amelia,
454,#NEX100549,cod,Perkasa Pangaribuan,
455,#NEX100548,cod,fasya tsanaya safira,
456,#NEX100547,cod,Muhammad Rizal Subkhan,
457,#NEX100546,cod,Yoga Aziz,
458,#NEX100545,cod,Muhammad ihsanul amal,
459,#NEX100544,cod,Muhammad kafin fauzan,
460,#NEX100543,transfer,Ichsan Dharmawan,
461,#NEX100542,transfer,Aviva indira,
462,#NEX100541,transfer,Aviva Indira V,
463,#NEX100540,transfer,Agung Ari Putra,
464,#NEX100539,cod,Rayyan fakhri,
465,#NEX100538,cod,poltak binsar,
466,#NEX100537,cod,Rian Pramana,
467,#NEX100536,transfer,Naurafatin Layyina,
468,#NEX100535,cod,Carolyn Rose,
469,#NEX100534,cod,Lolak bagaskara,
470,#NEX100533,cod,Adam Maulana,
471,#NEX100532,cod,Aufa Sabila,
472,#NEX100530,cod,Kivry Elrick Salmon,
473,#NEX100531,cod,Fendy anta jaya,
474,#NEX100529,transfer,Muhammad Hafief Irfia,
475,#NEX100528,cod,Izzata,
476,#NEX100527,cod,Dwiamanta,
477,#NEX100526,cod,Yande,
478,#NEX100525,cod,Marcellino Donata,
479,#NEX100524,cod,Dwiamanta Nuraprilliani,
480,#NEX100523,cod,sulthan azhar,
481,#NEX100522,cod,Irwanda prastantia,
482,#NEX100521,cod,Nando,
483,#NEX100520,cod,Ari Wibowo,
484,#NEX100519,transfer,Marcha Fairuz Izdihar,
485,#NEX100518,transfer,Ian tarigan,
486,#NEX100517,cod,Wulan Lonteng,
487,#NEX100516,transfer,Ngakan Krisna,
488,#NEX100515,cod,Kenny Prihantoro,
489,#NEX100514,cod,Ghifar anshary,
490,#NEX100513,cod,luriza alfariez,
491,#NEX100512,cod,MELY BAGIAN DOCUMENT,
492,#NEX100511,cod,Alduvan Zakariah Hamzah,
493,#NEX100510,transfer,Umair sulaiman,
494,#NEX100509,cod,Catherine Larasati,
495,#NEX100508,cod,Michael Kristianto,
496,#NEX100507,cod,Dimas amalia,
497,#NEX100506,transfer,alam dava arkananta,
498,#NEX100505,transfer,agus fonna,
499,#NEX100504,transfer,Muhammad reza alkindi,
500,#NEX100503,cod,Ngakan arimbawa,
501,#NEX100502,cod,Richard Junior,
502,#NEX100501,cod,Yogi Alif Rahmanda,
503,#NEX100500,cod,Andhika zakaria anwar,
504,#NEX100499,cod,H HERSETO,
505,#NEX100498,transfer,Debby Hutabarat,
506,#NEX100497,cod,H HERSETO,
507,#NEX100496,cod,Igede ariyawan,
508,#NEX100495,cod,Rakanda eka prasetyo,
509,#NEX100494,cod,Bambang rendy pratama,
510,#NEX100493,cod,Desi Natalia Nainggolan,
511,#NEX100492,cod,Naufaldy Obianka ,
512,#NEX100491,cod,Jumrina,
513,#NEX100490,cod,Nabila Rahma G,
514,#NEX100489,transfer,Ericson Posmanov Martua Silalahi,
515,#NEX100488,cod,Krishna Syahrifky,
516,#NEX100487,transfer,Agung Ari Putra,
517,#NEX100486,cod,Faizal Refandi,
518,#NEX100485,transfer,Tegar Indhira T,
519,#NEX100484,cod,Andika Indra Wardana,
520,#NEX100483,cod,Wulan oktaviana,
521,#NEX100482,transfer,Satya yustisio,
522,#NEX100481,cod,A. Muh. Nuzul,
523,#NEX100480,cod,Albaihaqi,
524,#NEX100479,cod,Andi faizal,
525,#NEX100478,cod,angga putra,
526,#NEX100477,cod,DESTOMI JONANDA,
527,#NEX100476,transfer,Agnes Tiurma Manurung,
528,#NEX100475,cod,Felix Andika Wicaksono,
529,#NEX100474,cod,Kadek Ari Sukmantara,
530,#NEX100473,transfer,Annisa Rahmawati,
531,#NEX100472,transfer,Nana,
532,#NEX100471,cod,Tomy Nur Hermawan,
533,#NEX100470,transfer,Sarah agustini,
534,#NEX100469,cod,nahdah zhafirah,
535,#NEX100468,cod,videlia veriska,
536,#NEX100467,cod,Apinxz,
537,#NEX100466,transfer,Ayu Putri Malika,
538,#NEX100465,cod,Supiyanto,
539,#NEX100464,transfer,sabrina aulia nasywa,
540,#NEX100463,cod,Stefanus tanner,
541,#NEX100462,cod,Genial S,
542,#NEX100461,transfer,Genial S Muslima,
543,#NEX100460,transfer,Ghina Nsirina,
544,#NEX100459,cod,Nahdah Zhafirah,
545,#NEX100458,cod,Anggi Afriani,
546,#NEX100457,cod,Louis gustanto,
547,#NEX100456,cod,Nadia Safira,
548,#NEX100455,cod,Hirzi Mahardhika Iskandar,
549,#NEX100454,transfer,prevalno,
550,#NEX100453,cod,Tetty Pangesti,
551,#NEX100452,cod,Syofyan,
552,#NEX100451,cod,sintia oktavia,
553,#NEX100450,cod,titania ayu marsya,
554,#NEX100449,transfer,Raihan Tsany N,
555,#NEX100448,cod,Romi ardiansyah,
556,#NEX100447,cod,nadhisa arnes,
557,#NEX100446,cod,siti akilah labitta,
558,#NEX100445,transfer,Muhammad Davy Huditama,
559,#NEX100444,transfer,Alifia Bunga Geraldin,
560,#NEX100443,cod,Mirany,
561,#NEX100442,cod,Saiful bahri,
562,#NEX100441,cod,Felix Uranus,
563,#NEX100440,cod,Mizan Alfiansyah,
564,#NEX100439,cod,Faradisa mutiara,
565,#NEX100438,cod,Muhammad Raihan Gisdamuron,
566,#NEX100437,cod,Gista permata,
567,#NEX100436,cod,Christopher Kenneth ,
568,#NEX100435,cod,Andika sewanto,
569,#NEX100434,cod,William Gavin,
570,#NEX100433,cod,Dwi Syahrul,
571,#NEX100432,cod,Dheva Vembyawan Rahadi,
572,#NEX100431,cod,Bagus alfian,
573,#NEX100430,transfer,Dhafi rahmatul ikma,
574,#NEX100429,cod,Kadek indah dwi cahyani,
575,#NEX100428,transfer,Regina Maghvironi,
576,#NEX100427,cod,Joshua Erlangga,
577,#NEX100426,cod,Rino Novidias Gia Cinta,
578,#NEX100425,transfer,Andi Muhammad Imam Ridzali,
579,#NEX100424,cod,A.A istri fermas paramitha,
580,#NEX100423,transfer,amanda aprilia,
581,#NEX100422,cod,Fachruddin,
582,#NEX100421,transfer,Dava Ardiansyah Abid Tunggono,
583,#NEX100420,cod,Fairuz tsabit prasetyo,
584,#NEX100419,cod,Muhamad Sabri,
585,#NEX100418,transfer,Muhammad Rifki,
586,#NEX100417,cod,Nicolas jonathan,
587,#NEX100416,transfer,Ajeng Alfiani,
588,#NEX100415,transfer,Indah wulansari,
589,#NEX100414,cod,Albert Tandiawan,
590,#NEX100413,transfer,Septiana Rizky,
591,#NEX100412,transfer,Albina kanaya,
592,#NEX100411,transfer,Muhammad Ilham Al Ghifari,
593,#NEX100410,cod,Dea Sasangga,
594,#NEX100405,cod,Fradila audrey sekar putri ,
595,#NEX100403,cod,Rhiryn Tirsyad,
596,#NEX100402,cod,Armilia Ailsa Ahnaf,
597,#NEX100401,cod,Alfit jenifer,
598,#NEX100400,cod,Awaluddin,
599,#NEX100398,cod,Angga Pratama,
600,#NEX100397,cod,Devina,
601,#NEX100396,cod,Baskoro saputro,
602,#NEX100395,cod,Gregorius Christian H D h,
603,#NEX100394,cod,Azka Ciptadi,
604,#NEX100393,cod,Awan heryanto,
605,#NEX100392,cod,I WAYAN ARYA PRANATA,
606,#NEX100391,transfer,Azka Ciptadi,
607,#NEX100390,cod,Christ Simon,
608,#NEX100389,cod,Reyhan satya imani,
609,#NEX100388,cod,Muammar ichsan Harahap,
610,#NEX100387,cod,ADITYA YULIANSYAH,
611,#NEX100386,cod,Habibi,
612,#NEX100385,cod,Sultiah devi asdir,
613,#NEX100384,cod,Widhi Jaya Saputra,
614,#NEX100383,cod,Benyamin TS,
615,#NEX100382,cod,Maharani Br Ginting,
616,#NEX100381,cod,Ayu,
617,#NEX100378,cod,IPEN ,
618,#NEX100368,transfer,Mutia Sahara R,
619,#NEX100366,cod,Veronica Parhusip,
620,#NEX100365,cod,maulana alim simanjuntak,
621,#NEX100364,cod,Fakhrur Razi,
622,#NEX100363,transfer,Satria nindita,
623,#NEX100362,cod,Fallentino Febriyan,
624,#NEX100361,cod,Michael,
625,#NEX100360,cod,Grace Kurniawan,
626,#NEX100359,cod,Alisa Khodarinnada,
627,#NEX100358,cod,Christian sam,
628,#NEX100357,cod,Eprisan grace meliala,
629,#NEX100356,cod,Dewa ketut mahesa,
630,#NEX100355,cod,Riyan Afiafara,
631,#NEX100354,transfer,Nikma,
632,#NEX100353,cod,Nur Widia Ningsih,
633,#NEX100352,cod,Ahmad Husaini,
634,#NEX100351,cod,Robby Rahadi Putra,
